La Isla de los dibujos
 

{{Infobox film
| name           =La Isla de los dibujos
| image          =
| image_size     =
| caption        =
| director       =
| producer       =
| writer         =
| narrator       =
| starring       =
| music          =
| cinematography =
| editor       =
| distributor    =
| released       = 1976
| runtime        =
| country        = Argentina Spanish
| budget         =
}}
 1976 Argentina|Argentine film.

==Cast==
* Jesús Fabián

* Marcos Zucker

* Raúl Ricutti

* Horacio Bruno

* Vicente La Russa

* Mario Savino

* Pedro Falce  

==References==
 

==External links==
*  

 
 
 
 


 