The Conquest of Everest
{{Infobox film
| name           = The Conquest of Everest
| image          = 
| image_size     = 
| caption        =  George Lowe
| producer       = Leon Clore John Taylor Grahame Tharp
| writer         = Louis MacNeice (commentary) Meredith Edwards
| starring       = 
| music          = Arthur Benjamin George Lowe J.B.L. Noel Thomas Stobart
| editing        = Adrian de Potier
| distributor    = British Lion Film Corporation
| released       =  
| runtime        = 78 minutes
| country        = United Kingdom
| language       = English
| budget         = 
| gross          = £158,584 (UK) 
| preceded_by    = 
| followed_by    = 
}} George Lowe Best Documentary Feature.   

==DVD release== Region 0 DVD-R by Alpha Video on January 28, 2014. 

==References==
 

==External links==
* 
*  

 
 
 
 
 
 
 

 
 