Mela (1971 film)
{{Infobox film
| name           = Mela
| image          = Mela1971.jpg
| image_size     = 
| caption        = 
| director       = Prakash Mehra
| producer       = A.A Nadiadwala
| writer         = 
| narrator       =  Mumtaz
| music          = R.D. Burman
| cinematography = 
| editing        = 
| distributor    = A.G. Films (P) Ltd.
| released       = 30th June 1971
| runtime        = 
| country        = India
| language       = Hindi
| budget         = 
}}

Mela  is a 1971 family drama Indian Hindi movie directed by Prakash Mehra. This was Prakash Mehras Second directorial venture after Haseena Maan Jayegi(1968) .
 Mumtaz as the female lead, Sachin (actor)| Sachin  and Rajindernath as the then customary comic relief.
The music was given by R.D. Burman.  
==External links==
*  

 
 
 
 
 
 