Marble Ass
{{Infobox film
| name           = Dupe od mramora
| image          = Marbleass.jpg
| caption        = 
| director       = Želimir Žilnik
| producer       = Želimir Žilnik
| writer         = Želimir Žilnik
| screenplay     = 
| story          = 
| based on       =  
| starring       = Vjeran Miladinović Nenad Racković Milja Milenkovć
| music          = Dejan Kijevčanin
| cinematography = Gordana Veselinović
| editing        = 
| studio         = 
| distributor    = Radio B92
| released       =  
| runtime        = 90 minutes
| country        = Federal Republic of Yugoslavia
| language       = Serbian
| budget         = 
| gross          = 
}} Toronto Film San Francisco and 19th Moscow International Film Festival|Moscow.   

==References==
 

==External links==
*  

 
 
 
 
 
 
 
 


 
 