Der Mann im Pyjama
{{Infobox Film
| name           = Der Mann im Pyjama 
| image          =
|  image_size     =
| caption        = 
| director       = Christian Rateuke Hartmann Schmige
| producer       = Carla Thoeren
| writer         = Christian Rateuke Hartmann Schmige
| narrator       = 
| starring       = Otto Sander Elke Sommer   Hermann Lause
| music          = 
| cinematography = 
| editing        = 
| distributor    =  1981
| runtime        = 95 minutes
| country        = West Germany German
}} German comedy film starring Otto Sander and Elke Sommer. The film won the Ernst Lubitsch Award for best actor (Sander).

== External links ==
*  

 
 
 
 
 
 
 