Idhaya Malar
{{Infobox film
| name           = Idhaya Malar
| image          = 
| image_size     =
| caption        =
| director       = Gemini Ganesan
| producer       = Udhayam Productions
| writer         =
| narrator       = Sujatha Y. G. Mahendran Kamal Haasan
| music          = M.S. Viswanathan
| cinematography =
| editing        =
| distributor    =
| released       =
| runtime        =
| country        = India Tamil
| budget         =
| gross          =
| preceded_by    =
| followed_by    =
| website        =
}}

Idhaya Malar is a Tamil language film starring Kamal Haasan in the lead role of the protagonist.

==External links==
*  

 
 
 
 
 


 