Do Dil Diwane
 
{{Infobox film
| name           = Do Dil Diwane
| image          =
| caption        =
| director       =
| producer       =
| writer         =
| narrator       =
| starring       = Kamal Haasan
| music          = Ilayaraaja
| cinematography =
| editing        =
| distributor    =
| released       =  
| runtime        =
| country        = India
| language       = Hindi
| budget         =
| gross          =
| website        =
}}

Do Dil Diwane is a 1981 Hindi language film starring Kamal Haasan in the lead role of the protagonist.

 

 
 
 


 