Thangathile Vairam
 
{{Infobox film
| name           = Thangathile Vairam
| image          = ThangathileVairam.JPG
| image_size     =
| caption        =
| director       = K. Sornam
| producer       = Anjugam Pictures
| writer         =
| narrator       =
| starring       = Sivakumar Kamal Haasan Sripriya Jayasudha
| music          = Sankar Ganesh
| cinematography =
| editing        =
| distributor    =
| released       =
| runtime        =
| country        = India Tamil
| budget         =
| gross          =
| preceded_by    =
| followed_by    =
| website        =
}}

Thangathile Vairam is a Tamil language film starring Sivakumar, Sripriya and Jayasudha in the lead roles. Kamal Haasan played a prominent role in this film. 

==References==
 

==External links==
* 

 
 
 
 
 


 