The Wannsee Conference (film)
{{Infobox film
| name           = The Wannsee Conference
| image          = 
| image_size     = 
| border         = 
| alt            = 
| caption        = 
| director       = Heinz Schirk
| producer       = 
| writer         = Paul Mommertz
| screenplay     = 
| story          = 
| based on       = 
| narrator       = 
| starring       = 
| music          = 
| cinematography = 
| editing        = 
| studio         = 
| distributor    = 
| released       = 1984
| runtime        = 85 minutes  (Germany)  87 minutes  (United States) 
| country        = Austria West Germany
| language       = German
| budget         = 
| gross          = 
}} 1984 Germany|German TV movie portraying the events of the Wannsee Conference. The script is derived from the minutes of the meeting.  

The same events were later depicted in the 2001 English-language film Conspiracy (2001 film)|Conspiracy.

==External links==
* 

==References==
 


 
 
 
 
 
 
 

 
 