Beethoven's Great Love
{{Infobox Film
| name           = Beethovens Great Love
| image_size     = 
| image	=	Beethovens Great Love FilmPoster.jpeg
| caption        = 
| director       = Abel Gance
| producer       = 
| writer         = Abel Gance Steve Passeur
| narrator       = 
| starring       = Harry Baur, Annie Ducaux, Jany Holt
| music          = Philippe Gaubert
| cinematography = Marc Fossard Robert Lefebvre
| editing        = Marguerite Beaugé Galitzine
| distributor    = 
| released       =  
| runtime        = 135 minutes
| country        = France
| language       = French
| budget         = 
| gross          = 
| preceded_by    = 
| followed_by    = 
}} 1937 France|French film directed by Abel Gance. It stars Harry Baur (as Ludwig van Beethoven), Annie Ducaux, Jany Holt, Jane Marken, Jean-Louis Barrault, and Marcel Dalio.

==External links==
*  
*  

 
 

 
 
 
 
 
 
 
 
 
 
 

 
 