Miracle on 1st Street
{{Infobox film name           = Miracle on 1st Street image          = Miracle on 1st Street film poster.jpg caption        = film name      = {{Film name hangul         = 1    hanja          = 1 가의   rr             = 1Beonga-ui gijeok mr             = 1Pŏn’ga-ŭi kijŏk}} director       = Yoon Je-kyoon producer       = Yoon Je-kyoon   Heo Tae-gu writer         = Yoo Seong-hyeob starring       = Im Chang-jung Ha Ji-won music          = Lee Byung-woo cinematography = Kim Young-chul editing        = Shin Min-kyung distributor    = CJ Entertainment released       =   runtime        = 113 minutes country        = South Korea language       = Korean budget         =   gross          =   
}}
Miracle on 1st Street is a 2007 South Korean comedy-drama film. Written and directed by Yoon Je-kyoon, it reunited him with actors Im Chang-jung and Ha Ji-won, the stars of his earlier film Sex Is Zero. With 2,750,457 admissions, Miracle on 1st Street was the 5th most popular Korean film of 2007. 

==Plot== female boxer Myung-ran and a group of young children, he starts to have a change of heart.

==Cast==
* Im Chang-jung as Pil-je
* Ha Ji-won as Myung-ran
* Joo Hyun
* Jung Doo-hong Lee Hoon as Tae-seok
* Kang Ye-won
* Park Chang-ik
* Park Yoo-seon
* Ko Tae-ho
* Seo Ji-hee

==References==
 

==External links==
*    
*  
*  
*  
*  

 
 
 
 
 
 
 


 
 