The Bet (1992 film)
{{Infobox film
| name           = The Bet
| image          = 
| image_size     = 
| border         = 
| alt            = 
| caption        = 
| director       = Ted Demme
| producer       =  Gavin OConnor
| screenplay     = 
| story          = 
| based on       = 
| narrator       =  John B. Hickey
| music          = 
| cinematography = Adam Kimmel
| editing        = Hughes Winborne
| studio         = 
| distributor    = 
| released       =  
| runtime        = 21 minutes
| country        = 
| language       = English
| budget         = 
| gross          = 
}}
 Gavin OConnor, John B. Hickey. The soundtrack was composed by John Terelle of the Hawaiian Pups and Michael Wolff with Lou Marini.

==Plot==
Two brothers Harry and Henry Hicks, run a New York deli theyve inherited from their father. Younger brother Harry then develops a gambling problem.

==Cast==
*Josh Mosby as Harry John B. Hickey as Henry Vinny Pastore as Nino David Little as Lenny
*Anthony Crivello as Carbo
*Pete Castelli as Man Placing Bet

==References==
 

==External links==
* 

 

 
 
 
 
 
 
 

 