Bogwoman
{{Infobox film
| name           = Bogwoman
| image          =
| alt            =  
| caption        = Tom Collins
| producer       = Tom Collins Martha ONeill
| writer         = Tom Collins
| starring       = Rachael Dowling Peter Mullan Sean McGinley Noelle Brown
| music          = Fiachra Trench
| cinematography = Peter Robertson
| editing        = Mary Finlay
| studio         =
| distributor    =
| released       =  
| runtime        =
| country        = Ireland
| language       = Irish Gaelic
| budget         =
| gross          =
}}

Bogwoman is a 1997 film that follows the story of Maureen, a woman born in the Boglands of County Donegal who moves across the border to the Bogside to marry a Derry (Northern Ireland) man.

==Etymology of title== play on IRA stronghold of the Bogside in Derry.

==External links==
*  

 
 
 
 
 
 

 
 