Heat and Sunlight
{{Infobox Film
| name           = Heat and Sunlight
| image          = 
| image_size     = 
| caption        = 
| director       = Rob Nilsson
| producer       = 
| writer         = Rob Nilsson
| narrator       = 
| starring       = Rob Nilsson Consuela Faust
| music          = 
| cinematography = 
| editing        = 
| distributor    = Silverlight Pictures (US theatrical)
| released       = 17 September 1987 (premiere at Toronto Film Festival|TIFF) 1 November 1988 (USA)
| runtime        = 98 min.
| country        = USA
| language       = English
| budget         = 
| gross          = 
| preceded_by    = 
| followed_by    = 
}}
Heat and Sunlight is a 1987 independent film written, directed by and starring Rob Nilsson. It tells the story of a photojournalist who had worked in Biafra trying to patch up his relationship with his lover.

==External links==
*  

 
 
{{succession box
| title= 
| years=1988 Waiting for the Moon True Love}}
 

 
 
 


 