Calimucho
 
{{multiple issues|
 
 
}}

{{Infobox film
| name           = Calimucho
| image          = 
| alt            =  
| caption        = 
| director       = Eugenie Jansen
| producer       = Stienette Bosklopper Human
| writer         = Rogier de Blok Natasha Gerson
| starring       = Evelyne Bougliogne Tarek Hannoudi Joshy Huppertz Manfred Huppertz
| music          = 
| cinematography = Adri Schrover
| editing        = Patrick Minks
| studio         = 
| distributor    = 
| released       =  
| runtime        = 
| country        = Netherlands
| language       = Dutch German
| budget         = 
| gross          = 
}}
Calimucho is a 2008 Dutch/European feature film, directed by  .

== See also ==
* Kalimotxo

== External links ==
*  

 
 
 
 


 