Twelfth Night (1955 film)
{{Infobox Film
| name           = Dvenadtsataya noch
| image          = 
| image_size     = 
| caption        = 
| director       = 
| producer       = 
| writer         = William Shakespeare, Yan Frid
| narrator       = 
| starring       = Klara Luchko   Georgi Vitsin
| music          = 
| cinematography = 
| editing        = 
| distributor    = 
| released       =  )
| runtime        = 90 min
| country        = Soviet Union Russian
| budget         = 
| gross          = 
| preceded_by    = 
| followed_by    = 
}}
 1955 Soviet Soviet comedy USA release date: March 3, 1956.

== Cast ==
* Klara Luchko as Viola/Sebastian
* Alla Larionova as Olivia
* Vadim Medvedev as Duke Orsino
* Mikhail Yanshin as Sir Toby Belch
* Georgi Vitsin as Sir Andrew Aguecheek
* Vasili Merkuryev as Malvolio
* Bruno Freindlich as Feste Sergei Filippov as Fabian
* Anna Lisyanskaya as Maria
* Nina Urgant Aleksandr Antonov as Sea Captain Sergei Lukyanov as Antonio

==External links==
* 
*    on Lenfilm official site

 

 
 
 
 
 
 


 
 