Snow White (1902 film)
{{Infobox film
| name           = Snow White
| image          =
| caption        = 
| director       = 
| producer       = Siegmund Lubin
| writer         = 
| narrator       = 
| starring       = 
| music          = 
| editing        = 
| distributor    = 
| released       =  
| runtime        = 
| country        = United States
| language       = Silent film
| gross          =
| preceded_by    = 
| followed_by    = 
}}
Snow White was a silent movie made in 1902.  It was the first time the classic Brothers Grimm fairy tale was made into a film. .  It was registered for United States copyright on May 1, 1903. 

==External links==
* 

 

 
 
 
 
 


 