Matouqin Nocturne
{{Infobox Film
| name           = Matouqin Nocturne
| image          = Matouquin Nocturne poster.jpg
| image_size     = 
| caption        = Theatrical poster
| director       = Takeo Kimura
| producer       = 
| writer         = 
| narrator       = 
| starring       = Yamaguchi Sayoko Seijun Suzuki
| music          = 
| cinematography = 
| editing        = 
| released       = July 21, 2007 {{cite web
| title = Batokinyasokyoku
| publisher = RealTokyo
| url = http://www.realtokyo.co.jp/event_cgi/ev_viewE.cgi?1,3956,01+-1+1
| accessdate = 2007-08-11
}} 
| studio         = Project Lamu Airplane Label {{cite web
| title = 馬頭琴夜想曲: Director/Staff
| publisher = Airplane Label
| url = http://www.airplanelabel.com/batokin/director/index.html
| language = Japanese
| accessdate = 2009-08-26
}} 
| distributor    = Airplane Label
| runtime        = 55 minutes
| country        = Japan
| language       = Japanese
| budget         = 
| gross          = 
}} 2007 Cinema Japanese film abstract and atomic bombing of Nagasaki. {{cite web
| last = Brown
| first = Todd
| title = Seijun Suzuki Fans Take Note: Here Comes Kimura Takeos Matouqin Nocturne (BatokinYasokyoku)
| publisher = Twitch
|date=June 2007
| url = http://twitchfilm.net/archives/010323.html
| accessdate = 2007-08-11
}} 

==References==
 

==External links==
*    

  
 
 
 
 

 