Good Cider
 
{{Infobox film
| name           = Good Cider 
| image          = 
| image_size     = 
| caption        = 
| director       = John A. Murphy
| producer       = Arthur Hotaling
| writer         = John A. Murphy	
| narrator       = 
| starring       = James Levering
| music          = 
| cinematography = 
| editing        = 
| distributor    = 
| released       =  
| runtime        = 
| country        = United States  English intertitles
| budget         = 
}}
 silent comedy film featuring Oliver Hardy.

==Cast==
* James Levering - The Squire
* Ben Walker - Zeke
* Billy Bowers - Hank
* Oliver Hardy - Hiram (as Babe Hardy)
* Julia Calhoun - Aunt Jane

==See also==
* List of American films of 1914
* Oliver Hardy filmography

==External links==
* 

 
 
 
 
 
 
 

 