The Particular Cowboys
 
{{Infobox film
| name           = The Particular Cowboys 
| image          = 
| image_size     = 
| caption        = 
| director       = Arthur Hotaling
| producer       = Arthur Hotaling
| writer         = E. W. Sargent	
| narrator       = 
| starring       = Frances Ne Moyer
| music          = 
| cinematography = 
| editing        = 
| distributor    = 
| released       =  
| runtime        = 
| country        = United States 
| language       = Silent film English intertitles
| budget         = 
}}
 silent comedy film featuring Oliver Hardy.

==Cast==
* Frances Ne Moyer - Muriel
* Raymond McKee - Jake
* Ben Walker - Bill
* Oliver Hardy - A Cowboy (as Babe Hardy)

==See also==
* List of American films of 1914
* Oliver Hardy filmography

==External links==
* 

 
 
 
 
 
 
 
 
 

 