Ethel's Romeos
 
{{Infobox film
| name           = Ethels Romeos 
| image          = 
| image_size     = 
| caption        = 
| director       = Edwin Middleton
| producer       = Gaumont Company
| writer         = 
| narrator       = 
| starring       = Fayette Perry
| music          = 
| cinematography = 
| editing        = 
| distributor    = Mutual Film
| released       =  
| runtime        = 1 reel
| country        = United States  English intertitles
| budget         = 
}}
 short comedy film featuring Oliver Hardy.   

==Cast==
* Fayette Perry - Ethel
* Bud Ross - Charlie
* Edward Boulden - Albert 
* Herbert Stanley - Frank
* Madge Orlamond - Miss Stimpson
* Oliver Hardy - Jake Stimpson (as Babe Hardy)

==See also==
* List of American films of 1915
* Oliver Hardy filmography

==References==
 

==External links==
* 

 
 
 
 
 
 
 

 