Gus and the Anarchists
 
{{Infobox film
| name           = Gus and the Anarchists 
| image          = 
| image_size     = 
| caption        = 
| director       = John A. Murphy
| producer       = Arthur Hotaling Sigmund Lubin
| writer         = Fred H. Hayn	
| narrator       = 
| starring       = Oliver Hardy
| music          = John R. Madison
| cinematography = 
| editing        = 
| distributor    = General Film Company
| released       =  
| runtime        = split reel
| country        = United States  English intertitles
| budget         = 
}}
 silent comedy film featuring Oliver Hardy.

==Cast==
* Oliver Hardy - Tom Dreck (as Babe Hardy)
* C.W. Ritchie - Gus Goober
* Frances Ne Moyer - Rosy Heintz

==See also==
* List of American films of 1915
* Oliver Hardy filmography

==External links==
* 

 
 
 
 
 
 
 
 

 