Babe's School Days
 
{{Infobox film
| name           = Babes School Days
| image          =
| image size     =
| caption        =
| director       = Will Louis
| producer       = Arthur Hotaling
| writer         = Will Louis
| narrator       =
| starring       = Oliver Hardy
| music          =
| cinematography =
| editing        =
| distributor    =
| released       =  
| runtime        =
| country        = United States English intertitles
| budget         =
}}
 silent comedy film featuring Oliver Hardy.

==Cast==
* Oliver Hardy - Ikie Ikestein (as Babe Hardy)
* James Levering - Levi Ikestein

==See also==
* List of American films of 1915
* Oliver Hardy filmography

==External links==
* 

 
 
 
 
 
 
 

 