The Dead Letter
 
{{Infobox film
| name           = The Dead Letter
| image          =
| caption        =
| director       = Will Louis
| producer       = Arthur Hotaling
| writer         = Fred H. Hayn
| starring       = Oliver Hardy
| cinematography =
| editing        =
| distributor    =
| released       =  
| runtime        =
| country        = United States English intertitles
| budget         =
}}
 silent comedy film starring Oliver Hardy.

==Cast==
* Oliver Hardy - Mateo (as Babe Hardy)
* Frances Ne Moyer - Lena Pula
* Vincente DePascale - Luigi
* C.W. Ritchie - Emelio (as Charles Ritchie)

==See also==
* List of American films of 1915
* Oliver Hardy filmography

==External links==
* 

 
 
 
 
 
 
 
 

 