Twin Flats
{{Infobox film
| name           = Twin Flats
| image          =
| caption        =
| director       =
| producer       = Louis Burstein
| writer         =
| starring       = Oliver Hardy
| cinematography =
| editing        =
| distributor    =
| released       =  
| runtime        =
| country        = United States English intertitles
| budget         =
}}
 silent comedy film featuring Oliver Hardy.

==Cast==
* Oliver Hardy - Babe (as Babe Hardy) Kate Price - Kate
* Raymond McKee - Raymond
* Florence McLaughlin

==See also==
* List of American films of 1916
* Oliver Hardy filmography

==External links==
* 

 
 
 
 
 
 
 

 