The Chief Cook
 
 
{{Infobox film
| name           = The Chief Cook
| image          = 
| image size     = 
| caption        = 
| director       = Arvid E. Gillstrom
| producer       = Louis Burstein
| writer         = Rex Taylor Billy West Oliver Hardy
| music          = 
| cinematography = 
| editing        = 
| distributor    = 
| released       =  
| runtime        = 
| country        = United States 
| language       = Silent film English intertitles
| budget         = 
}}
 silent comedy film featuring Oliver Hardy.

==Cast== Billy West - The Star Boarder
* Bud Ross - Boggs (as Budd Ross)
* Oliver Hardy - Babe (as Babe Hardy)
* Ellen Burford - Dolly
* Joe Cohen
* Leo White - Ham
* Blanche White - Maggie
* Polly Bailey
* Ethelyn Gibson - The soubrette (as Ethlyn Gibson)

==See also==
* List of American films of 1917
* Oliver Hardy filmography

==External links==
* 

 
 
 
 
 
 
 
 
 

 