The Fly Cop
 
{{Infobox film
| name           = The Fly Cop
| image          = 
| caption        = 
| director       = Arvid E. Gillstrom
| producer       = Louis Burstein
| writer         =  Billy West Oliver Hardy
| music          = 
| cinematography = 
| editing        = 
| distributor    = 
| released       =  
| runtime        = 
| country        = United States 
| language       = Silent film English intertitles
| budget         = 
}}
 silent comedy film featuring Oliver Hardy.

==Cast== Billy West - The Fly Cop
* Oliver Hardy - Proprietor (as Babe Hardy)
* Bud Ross - Handyman (as Budd Ross)
* Leo White - The Mayor
* Ellen Burford - Forelady
* Charles Slattery - Chief of Police
* Ethelyn Gibson - A Chicken (as Ethlyn Gibson)

==See also==
* List of American films of 1917
* Oliver Hardy filmography

==External links==
* 

 
 
 
 
 
 
 
 
 

 