Champi-Tortu
{{Infobox film
| name           = Champi-Tortu
| image          =
| caption        =
| director       = Jacques de Baroncelli
| producer       =
| writer         = Gaston Chérau
| starring       = Pierre Alcover
| cinematography =
| editing        =
| distributor    = Gallo Film
| released       =  
| runtime        =
| country        = France
| language       = Silent film
| budget         =
}} 1920 France|French silent film directed by Jacques de Baroncelli. The film was based on a novel by Gaston Chérau.

==Cast==
*Pierre Alcover   
*René Alexandre   
*Cosnard   
*Paul Duc   
*Henri Janvier   
*Paul Jorge   
*Maria Kouznetzoff   
*André René   
*Madame Trefeuil

== External links ==
* 

 
 
 
 
 
 


 
 