The Rogue
 
 
{{Infobox film
| name           = The Rogue
| image          =
| caption        =
| director       = Arvid E. Gillstrom
| producer       = Louis Burstein
| writer         = Grace Gershon Billy West Oliver Hardy
| cinematography =
| editing        =
| distributor    =
| released       =  
| runtime        =
| country        = United States
| language       = Silent with English intertitles
| budget         =
}}
 short comedy film featuring Oliver Hardy.

==Cast== Billy West - Billy
* Oliver Hardy - Cafe Owner (as Babe Hardy)
* Ethel Marie Burton - The Girl
* Leo White - The Count
* Rosemary Theby - The Sister
* Joe Bordeaux
* Bud Ross
* Don Likes

==See also==
* List of American films of 1918
* Oliver Hardy filmography

==External links==
* 

 
 
 
 
 
 
 
 
 

 