The Scholar (film)
{{Infobox film
| name           = The Scholar
| image          = 
| caption        = 
| director       = Arvid E. Gillstrom
| producer       = Louis Burstein
| writer         =  Billy West Oliver Hardy
| music          = 
| cinematography = Herman Obrock Jr.
| editing        = 
| distributor    = 
| released       =  
| runtime        = 
| country        = United States 
| language       = Silent film English intertitles
| budget         = 
}}
 silent comedy film featuring Oliver Hardy.

==Cast== Billy West - A Student
* Oliver Hardy - (as Babe Hardy)
* Ethel Marie Burton - The Teacher (as Ethel Burton)
* Leatrice Joy
* Leo White
* Joe Bordeaux

==See also==
* List of American films of 1918
* Oliver Hardy filmography

==External links==
* 

 
 
 
 
 
 
 
 
 

 