Dull Care
 
{{Infobox film
| name           = Dull Care
| image          = 
| caption        = 
| director       = Larry Semon
| producer       = Albert E. Smith
| writer         = Larry Semon
| starring       = Oliver Hardy
| music          = 
| cinematography = 
| editing        = 
| distributor    = 
| released       =  
| runtime        = 
| country        = United States 
| language       = Silent with English intertitles
| budget         = 
}}
 silent comedy film featuring Oliver Hardy.

==Cast==
* Larry Semon - Larry, a Detective
* William Hauber - Chief Crook (as Bill Hauber) Frank Alexander - Chief of Police
* Lucille Carlisle - Chief of Polices Wife
* Oliver Hardy - A Janitor (as Babe Hardy)
* Al Thompson
* James Donnelly

==See also==
* List of American films of 1919
* Oliver Hardy filmography

==External links==
* 

 
 
 
 
 
 
 
 

 