Dames and Dentists
 
{{Infobox film
| name           = Dames and Dentists
| image          =
| caption        =
| director       = Noel M. Smith
| producer       = Albert E. Smith
| writer         = Anthony Coldeway
| starring       = Oliver Hardy
| music          =
| cinematography = Irving G. Ries
| editing        =
| distributor    =
| released       =  
| runtime        =
| country        = United States
| language       = Silent film English intertitles
| budget         =
}}
 silent comedy film featuring Oliver Hardy.

==Cast==
* Jimmy Aubrey - The Husband
* Oliver Hardy - (as Babe Hardy) Richard Smith

==See also==
* List of American films of 1920
* Oliver Hardy filmography

==External links==
* 

 
 
 
 
 
 
 
 
 
 