Fists and Fodder
 
{{Infobox film
| name           = Fists and Fodder
| image          =
| caption        =
| director       = Jess Robbins
| producer       = Albert E. Smith
| writer         = Jess Robbins
| starring       = Oliver Hardy
| cinematography = Irving G. Ries
| editing        =
| distributor    =
| released       =  
| runtime        =
| country        = United States English intertitles
| budget         =
}}
 silent comedy film featuring Oliver Hardy.

==Cast==
* Jimmy Aubrey - A Tramp
* Dixie Lamont - A Settlement Worker
* Oliver Hardy - Her Father (as Babe Hardy)
* Leo White - A Rival

==See also==
* List of American films of 1920
* Oliver Hardy filmography

==External links==
* 

 
 
 
 
 
 
 
 
 
 