The Weak-End Party
 
{{Infobox film
| name           = The Weak-End Party
| image          =
| image size     =
| caption        =
| director       = Broncho Billy Anderson
| producer       = Broncho Billy Anderson
| writer         =
| narrator       =
| starring       = Stan Laurel
| music          =
| cinematography =
| editing        =
| distributor    =
| released       =  
| runtime        =
| country        = United States
| language       = Silent film English intertitles
| budget         =
}}
 1922 film featuring Stan Laurel.

==Cast==
* Stan Laurel - The gardener
* Marion Aye - Lily, the birthday girl
* Harry L. Rattenberry - Mr. Smith, her father
* Otto Fries - The overseer Colin Kenny - Monocle Charley
* Scotty MacGregor - Pinkerton Burns (as Scott MacGregor)
* Babe London - Party guest

==See also==
* List of American films of 1922
* Filmography of Stan Laurel

==External links==
* 

 
 
 
 
 
 
 
 
 


 