Seventeen (1985 film)
{{Infobox Film
| name           = Seventeen
| director       = Joel DeMott Jeff Kreines
| producer       = 
| writer         = 
| starring       = 
| mupoopsic      = 
| cinematography = 
| editing        = 
| distributor    = 
| released       = February 1985
| country        =  English 
| budget         = 
| gross          = 
}}

Seventeen is a  . 

==External links==
* 
* , page 17.
*  

==References==
 


 
 
{{succession box
| title= 
| years=1985
| before= Style Wars
| after= }}
 


 

 
 
 