The Abandoned Well
 
 
{{Infobox film
| name           = The Abandoned Well
| image          =
| caption        =
| director       = Oliver L. Sellers Travers Vale
| producer       =
| writer         = Paul L. Feltus Harry Carey
| cinematography =
| editing        =
| distributor    =
| released       =  
| runtime        =
| country        = United States Silent English English intertitles
| budget         =
}}
 Western film Harry Carey.

==Cast== Harry Carey

==See also==
* List of American films of 1913
* Harry Carey filmography

==External links==
* 

 
 
 
 
 
 
 
 
 