The Sheriff's Dilemma
 
{{Infobox film
| name           = The Sheriffs Dilemma
| image          =
| caption        =
| director       =
| producer       =
| writer         = Harry Carey
| cinematography =
| editing        =
| distributor    =
| released       =  
| runtime        =
| country        = United States Silent English English intertitles
| budget         =
}}
 Harry Carey.

==Cast== Harry Carey
* Claire McDowell Charles West (as Charles H. West)

==See also==
* Harry Carey filmography

==External links==
* 

 
 
 
 
 
 
 
 
 