Blood (2000 film)
{{Infobox film
| name           = Blood
| image          =
| image size     =
| caption        =
| director       = Charly Cantor
| producer       = Simon Markham
| writer         = Charly Cantor
| narrator       =
| starring       = Adrian Rawlins Lee Blakemore Phil Cornwell
| music          = Nicola Fletcher
| cinematography = Katie Swain
| editing        = Nick Packer
| distributor    =
| released       = 2000
| runtime        =
| country        = UK English
| budget         =
| gross          =
}}

Blood is a 2000 horror film, starring Adrian Rawlins.  Its director and writer, Charly Cantor, won a Jury Award for the film in 2000.

== Plot ==
The plot concerns a doctor who engineered a woman with narcotic blood encounters his creation 20 years later and falls in love... or does he? Is this love or addiction ?

== External links ==
*  

 
 
 
 
 
 

 