Just Jim
 
{{Infobox film
| name           = Just Jim
| image          =
| caption        =
| director       = Oscar A. C. Lund|O.A.C. Lund
| producer       =
| writer         = O.A.C. Lund Harry Carey
| cinematography =
| editing        =
| distributor    =
| released       =  
| runtime        =
| country        = United States
| language       = Silent with English intertitles
| budget         =
}}
 Harry Carey.   

==Cast== Harry Carey - Jim (as Harry D. Carey)
* Jean Taylor - Rose
* William A. Crinley - Undetermined Role (as William Crinley)
* Albert Edmondson - Undetermined Role (as Mr. Edmundson)
* Duke Worne - Undetermined Role
* Olive Carey - Undetermined Role (as Olive Golden)
* Jack Abbott - (as J.F. Abbott)
* Harry Lorraine - (as Mr. Lorraine)

==See also==
* Harry Carey filmography

==References==
 

==External links==
* 

 
 
 
 
 
 
 

 