Almost a Rescue
 
 
{{Infobox film
| name           = Almost a Rescue
| image          =
| caption        =
| director       = Al Christie
| producer       =
| writer         = Fatty Arbuckle
| music          =
| cinematography =
| editing        =
| distributor    =
| released       =  
| runtime        =
| country        = United States
| language       = Silent with English intertitles
| budget         =
}}
 short comedy Fatty Arbuckle.

==Cast== Donald MacDonald as Hawkeye Roscoe Fatty Arbuckle as Jimmie Irene Hunt as May Smith
* Billie Bennett as Maud Smith
* Eddie Lyons as Kussie #1
* Lee Moran as Kussie #2
* Russell Bassett as Dr. Quack

==See also==
* List of American films of 1913
* Fatty Arbuckle filmography

==External links==
* 

 
 
 
 
 
 
 
 
 
 