A Quiet Little Wedding
 
{{Infobox film
| name           = A Quiet Little Wedding
| image          =
| image size     =
| caption        =
| director       = Wilfred Lucas Mack Sennett
| producer       =
| writer         =
| narrator       = Fatty Arbuckle
| music          =
| cinematography =
| editing        =
| distributor    =
| released       =  
| runtime        =
| country        = United States Silent English English intertitles
| budget         =
}}
 short comedy Fatty Arbuckle.

==Cast== Roscoe Fatty Arbuckle
* Charles Avery
* Alice Davenport
* Minta Durfee
* Billy Gilbert
* Edgar Kennedy Al St. John

==See also==
* List of American films of 1913
* Fatty Arbuckle filmography

==External links==
* 

 
 
 
 
 
 
 
 
 
 

 