A Misplaced Foot
 
{{Infobox film
| name           = A Misplaced Foot
| image          =
| caption        =
| director       = Wilfred Lucas
| producer       =
| writer         = Fatty Arbuckle
| music          =
| cinematography =
| editing        =
| distributor    =
| released       =  
| runtime        =
| country        = United States Silent English intertitles
| budget         =
}}
 short comedy Fatty Arbuckle.   

==Cast== Roscoe Fatty Arbuckle
* Minta Durfee
* Hank Mann
* Mabel Normand
* Ford Sterling Al St. John

==See also==
* List of American films of 1914
* Fatty Arbuckle filmography

==References==
 

==External links==
* 

 
 
 
 
 
 
 
 
 
 

 