A Village Scandal
 
{{Infobox film
| name           = A Village Scandal
| image          =
| caption        = Fatty Arbuckle
| producer       =
| writer         = Mack Sennett
| starring       = Fatty Arbuckle
| music          =
| cinematography =
| editing        =
| distributor    =
| released       =  
| runtime        =
| country        = United States Silent English intertitles
| budget         =
}}
 short comedy Fatty Arbuckle.   

==Cast== Raymond Hitchcock Roscoe Fatty Arbuckle - Fatty
* Flora Zabelle Al St. John
* Harry McCoy
* Minta Durfee

==See also==
* Fatty Arbuckle filmography

==References==
 

==External links==
* 

 
 
 
 
 
 
 
 
 

 