Their Ups and Downs
{{Infobox film
| name           = Their Ups and Downs
| image          =
| caption        = Fatty Arbuckle
| producer       = Mack Sennett
| writer         = Fatty Arbuckle
| cinematography =
| editing        =
| distributor    =
| released       =  
| runtime        =
| country        = United States Silent English English intertitles
| budget         =
}}
 short comedy Fatty Arbuckle.

==Cast== Roscoe Fatty Arbuckle

==See also==
* List of American films of 1914
* Fatty Arbuckle filmography

==External links==
* 

 
 
 
 
 
 
 
 

 