Mabel's Wilful Way
 
{{Infobox film
| name           = Mabels Wilful Way
| image          = Mabels Wilful Way 1915.jpg
| caption        = Title card
| director       = Mabel Normand Mack Sennett
| producer       =
| writer         = Fatty Arbuckle
| music          =
| cinematography =
| editing        =
| distributor    =
| released       =  
| runtime        = 11 minutes
| country        = United States Silent (English intertitles)
| budget         =
}}
 short comedy Fatty Arbuckle.   

==Cast==
* Mabel Normand - Mabel Roscoe Fatty Arbuckle - Fatty
* Joe Bordeaux - Cop
* Glen Cavender
* Alice Davenport - Mabels mother
* Edgar Kennedy - Fattys pal Al St. John

==See also==
* Fatty Arbuckle filmography

==References==
 

==External links==
* 
* 

 
 
 
 
 
 
 

 