Fatty's Magic Pants
 
{{Infobox film
| name           = Fattys Magic Pants
| image          = Fattys-magic_pan-t-s_as_seen_on_imdb.jpg
| caption        = Film poster Fatty Arbuckle
| producer       = Mack Sennett
| writer         = 
| starring       = Fatty Arbuckle
| music          = 
| cinematography = 
| editing        = 
| distributor    = 
| released       =  
| runtime        = 12 minutes
| country        = United States 
| language       = Silent with English intertitles
| budget         = 
}}
 short comedy Fatty Arbuckle.    The film is also known as Fattys Suitless Day.

==Cast== Roscoe "Fatty" Arbuckle - Fatty
* Charley Chase - Fattys Rival
* Minta Durfee - The Girl
* Harry McCoy - Party Guest
* Bert Roach - Party Guest Al St. John - Party Guest
* Slim Summerville - Cop

==See also==
* List of American films of 1914
* Fatty Arbuckle filmography

==References==
 

==External links==
* 
* 
*  

 
 
 
 
 
 
 
 

 