3 Hari Untuk Selamanya
{{Infobox film
| name           = 3 Hari Untuk Selamanya
| image          = 3 Hari Untuk Selamanya.jpg
| caption        = 
| director       = Riri Riza
| producer       = Mira Lesmana
| writer         = Sinar Ayu Massie    
| narrator       = 
| starring       = 
| music          = Float
| cinematography = Yadi Sugandi  
| editing        = 
| distributor    = Miles Films
| released       = 2007
| runtime        = 
| country        = Indonesia
| language       = Indonesian
| budget         = 
}} Indonesian comedy-drama film directed by Riri Riza. The story is about a young man and a woman who drive from Jakarta to Yogyakarta (city)|Jogjakarta. 

==Cast==
*Tutie Kirana
*Ringgo Agus Rahman
*Nicholas Saputra
*Adinia Wirasti

==References==
 

==External links==
*  

 
 
 
 
 
 
 


 
 