Carlitinhos
{{Infobox film
| name           = Carlitinhos
| image          =
| caption        =
| director       = José Medina (Brazilian filmmaker)|José Medina
| producer       = Gilberto Rossi
| writer         = José Medina
| starring       =
| cinematography = Gilberto Rossi
| editing        =
| distributor    = Nello de Rossi Filmes
| released       =  
| runtime        = 20 minutes
| country        = Brazil
| language       = Silent
| budget         =
}} 1921 Brazilian short film comedy directed by José Medina.

==Cast==
*José Vassalo Jr.
*Carlos Ferreira
*Antônio Degani

==External links==
*  

 
 
 
 
 
 
 


 
 
 