How've You Bean?
 
{{Infobox film
| name           = Howve You Bean?
| image          = 
| caption        = 
| director       = Alfred J. Goulding
| producer       = Samuel Sax
| writer         = Jack Henley Glen Lambert Fatty Arbuckle
| music          = 
| cinematography = 
| editing        = 
| distributor    = Warner Brothers
| released       =  
| runtime        = 18 minutes
| country        = United States 
| language       = English
| budget         = 
}}
 Fatty Arbuckle.

==Cast== Roscoe Fatty Arbuckle - Abner
* Jean Hubert
* Fritz Hubert - Willie
* Mildred Van Dorn - The Bride
* Edmund Elton - The Mayor
* Dora Mills Adams - Mother of the Groom
* Paul Clare
* Charles Howard
* Herbert Warren

==See also==
* Fatty Arbuckle filmography

==External links==
* 

 
 
 
 
 
 
 
 
 


 