Won by a Neck
 
{{Infobox film
| name           = Won by a Neck
| image          =
| image size     =
| caption        = Fatty Arbuckle (as William Goodrich)
| producer       =
| writer         = Walter DeLeon Harry McCoy Tom Whiteley
| narrator       =
| starring       = Lloyd Hamilton
| music          =
| cinematography =
| editing        =
| distributor    =
| released       =  
| runtime        = 25 minutes
| country        = United States
| language       = English
| budget         =
}}
 Fatty Arbuckle.

==Cast==
* Lloyd Hamilton
* Ruth Hiatt
* Addie McPhail

==See also==
* Fatty Arbuckle filmography

==External links==
* 

 
 
 
 
 
 
 
 
 


 