Stupid, But Brave
 
{{Infobox film
| name           = Stupid, But Brave
| image          =
| caption        = Fatty Arbuckle (as William Goodrich)
| producer       =
| writer         = Al St. John
| cinematography =
| editing        =
| distributor    =
| released       =  
| runtime        =
| country        = United States Silent English English intertitles
| budget         =
}}
 Fatty Arbuckle.   

==Cast== Al St. John
* Doris Deane
* Eugene Pallette
* Kewpie Morgan
* Clem Beauchamp George Davis

==See also==
* Fatty Arbuckle filmography

==References==
 

==External links==
* 

 
 
 
 
 
 
 
 


 