The Tourist (1925 film)
 
{{Infobox film
| name           = The Tourist
| image          = 
| caption        =  Fatty Arbuckle (as William Goodrich)
| producer       = 
| writer         = 
| starring       = Johnny Arthur
| music          = 
| cinematography = 
| editing        = 
| distributor    = 
| released       =  
| runtime        = 
| country        = United States Silent English English intertitles
| budget         = 
}}
 Fatty Arbuckle.   

==Cast==
* Johnny Arthur Helen Foster

==See also==
* Fatty Arbuckle filmography

==References==
 

==External links==
* 

 
 
 
 
 
 
 
 
 


 