Smart Work
{{Infobox Film
| name           = Smart Work
| image          = 
| image_size     = 
| caption        =  Fatty Arbuckle (as William Goodrich)
| producer       = 
| writer         = Ernest Pagano Jack Townley
| narrator       = 
| starring       = Billy Dooley Addie McPhail
| music          = 
| cinematography = 
| editing        = 
| distributor    = 
| released       = December 27, 1931
| runtime        = 
| country        = United States 
| language       = English
| budget         = 
| preceded_by    = 
| followed_by    = 
}}
 Fatty Arbuckle. 

==Cast== Billy Dooley
* Addie McPhail

==See also==
* Fatty Arbuckle filmography

==External links==
* 


 
 
 
 
 
 
 
 
 


 