That's My Meat
 
{{Infobox film
| name           = Thats My Meat
| image          = 
| caption        =  Fatty Arbuckle (as William Goodrich)
| producer       =  John Grey Ernest Pagano Jack Townley Al St. John
| music          = 
| cinematography = 
| editing        = 
| distributor    = 
| released       =  
| runtime        = 11 minutes
| country        = United States 
| language       = English
| budget         = 
}}
 Fatty Arbuckle.

==Cast== Al St. John

==See also==
* Fatty Arbuckle filmography

==External links==
* 

 
 
 
 
 
 
 
 


 