Take 'em and Shake 'em
 
{{Infobox film
| name           = Take em and Shake em
| image          =
| caption        = Fatty Arbuckle (as William Goodrich)
| producer       = Lew Lipton
| writer         = Beatrice Van
| starring       = June MacCloy
| music          =
| cinematography =
| editing        = John F. Link Sr.
| distributor    = RKO Radio Pictures
| released       =  
| runtime        = 18 minutes
| country        = United States
| language       = English
| budget         =
}}
 Fatty Arbuckle.

==Cast==
* June MacCloy
* Marion Shilling
* Gertrude Short
* Charles Judels
* Arthur Hoyt
* Frank Marlowe

==See also==
* Fatty Arbuckle filmography

==External links==
* 

 
 
 
 
 
 
 
 
 
 


 