Queenie of Hollywood
 
{{Infobox film
| name           = Queenie of Hollywood
| image          = 
| caption        =  Fatty Arbuckle (as William Goodrich)
| producer       = 
| writer         = Ernest Pagano Jack Townley
| starring       = Virginia Brooks
| music          = 
| cinematography = 
| editing        = 
| distributor    = 
| released       =  
| runtime        = 20 minutes
| country        = United States 
| language       = English
| budget         = 
}}
 Fatty Arbuckle.

==Cast==
* Virginia Brooks
* Rita Flynn
* Jeanne Farrin
* Queenie the Dog as Queenie

==See also==
* Fatty Arbuckle filmography

==External links==
* 

 
 
 
 
 
 
 
 
 

 