Once a Hero (film)
{{Infobox film
| name           = Once a Hero
| image          = 
| caption        =  Fatty Arbuckle (as William Goodrich)
| producer       = 
| writer         = Ernest Pagano Jack Townley
| starring       = Emerson Treacy
| music          = 
| cinematography = 
| editing        = 
| distributor    = 
| released       = November 22, 1931
| runtime        = 19 minutes
| country        = United States 
| language       = English
| budget         = 
}}
 Fatty Arbuckle. 

==Cast==
* Emerson Treacy
* Betty Grable as Frances Dean
* Jack Shutta

==See also==
* Fatty Arbuckle filmography

==External links==
* 


 
 
 
 
 
 
 
 


 