A Cause to Kill
 
 
{{Infobox film
| name           = A Cause to Kill
| image          = ACausetoKill1970.jpg
| image size     =
| caption        =
| director       = Shut Git Muk
| producer       =
| writer         =
| narrator       =
| starring       =
| music          =
| cinematography =
| editing        =
| distributor    = Shaw Brothers, Celestial Pictures
| release        = 15 January 1970
| runtime        =
| country        = Hong Kong Mandarin
| budget         =
}} 1970 Hong Kong Shaw Brothers  thriller film directed by Shut Git Muk.

==Cast==
*Chiao Chiao
*Gwan Gam
*Wai Ha
*Pak-Kwong Ho
*Chung-Shun Huang
*Shan Kwan
*Ivy Ling Po
*Choh Lam Tsang

==External links==
*  

 
 
 
 
 


 
 