Brooklyn Matters
{{multiple issues|
 
 
}}

{{Infobox film
| name           = Brooklyn Matters
| image          = 
| image size     = 
| border         = 
| alt            = 
| caption        = 
| director       = 
| producer       = 
| writer         = 
| screenplay     = 
| story          = 
| narrator       = 
| starring       = 
| music          = 
| cinematography = 
| editing        = 
| studio         = 
| distributor    = 
| released       =  
| runtime        = 82 minutes
| country        = United States
| language       = English
| budget         = 
| gross          = 
}}
Brooklyn Matters is a 2007 documentary film, produced and directed by Isabel Hill and edited by Marian Sears Hunter.
 Atlantic Avenue in Brooklyn, New York. The film includes interviews with Paul Goldberger, Bob Law, Councilwoman Letitia James and Julia Vitullo-Martin and shows the community input meeting for the projects environmental impact statement.

Chuck Clifton, Director of Photography and Michelle Clifton, Sound Recordist were also involved in the making of the movie.

==External links==
* 
* 

 
 
 
 
 
 
 
 


 