Bughouse Bellhops
 
{{Infobox film
| name           = Bughouse Bellhops
| image          =
| caption        =
| director       = Hal Roach
| producer       = Hal Roach
| writer         =
| starring       = Harold Lloyd
| music          =
| cinematography =
| editing        =
| distributor    =
| released       =  
| runtime        =
| country        = United States Silent English intertitles
| budget         =
}}
 short comedy film featuring Harold Lloyd.   

==Cast==
* Harold Lloyd as Lonesome Luke
* Snub Pollard (as Harry Pollard)
* Gene Marsh
* Bebe Daniels

==See also==
* List of American films of 1915
* Harold Lloyd filmography

==References==
 

==External links==
* 

 
 
 
 
 
 
 
 
 


 