Luke's Fatal Flivver
 
{{Infobox film
| name           = Lukes Fatal Flivver
| image          = Lukes Fatal Flivver.jpg
| caption        =
| director       = Hal Roach
| producer       = Hal Roach
| writer         =
| starring       = Harold Lloyd
| music          =
| cinematography =
| editing        =
| distributor    =
| released       =  
| runtime        =
| country        = United States Silent English intertitles
| budget         =
}}
 short comedy film starring Harold Lloyd.   

==Cast==
* Harold Lloyd as Lonesome Luke
* Snub Pollard - (as Harry Pollard)
* Bebe Daniels
* Bud Jamison Charles Stevenson
* Harry Todd

==See also==
* Harold Lloyd filmography

==References==
 

==External links==
* 

 
 
 
 
 
 
 
 
 


 