Them Was the Happy Days!
 
{{Infobox film
| name           = Them Was the Happy Days!
| image          = 
| image_size     = 
| caption        = 
| director       = Hal Roach
| producer       = Hal Roach
| writer         = 
| narrator       = 
| starring       = Harold Lloyd
| music          = 
| cinematography = 
| editing        = 
| distributor    = 
| released       =  
| runtime        = 
| country        = United States  Silent English English intertitles
| budget         = 
}}
 1916 short short comedy film featuring Harold Lloyd.

==Cast==
* Harold Lloyd - Lonesome Luke
* Snub Pollard 
* Bebe Daniels 
* Dee Lampton

==See also==
* Harold Lloyd filmography

==External links==
* 

 
 
 
 
 
 
 
 
 


 