Do Risos e Lagrimas
{{Infobox film
| name           = Do Risos e Lagrimas
| image          = Do Risos e Lagrimasdvd.jpg
| image_size     =
| caption        = Spanish DVD cover
| director       = Alberto Traversa
| producer       = 
| writer         = Genofre Werneck 
| narrator       = 
| starring       = 
| music          = 
| cinematography = João Tavares de Sá    
| editing        =  
| distributor    = S.P.E.S.
| released        =August 25, 1926
| runtime        = 
| country        = Brazil
| language       = Silent
| budget         = 
}} 1926 Brazilian drama film directed by Alberto Traversa.

The film premiered in Rio de Janeiro on August 25, 1926.

==Cast==
*Eduardo Arouca as João de Souza 
*João Baldi   
*Túlia Burlini   
*Virgínia Cassoval   
*Anita Henrys as Ophelia 
*Daniel Herlink   
*N. Jacobson as Apolinário 
*Guy Leal as Simões 
*A. Longari   
*Luiz Gonzaga Martins   
*Inah Renlow as Inah 
*Aldo Rine as Fernando 
*Luiz Roberto   
*Alberto Traversa

==External links==
*  

 
 
 
 
 


 
 