It's a Wild Life
{{Infobox film
| name           = Its a Wild Life
| image          =
| caption        =
| director       = Gilbert Pratt
| producer       = Hal Roach
| writer         =
| narrator       =
| starring       = Harold Lloyd
| cinematography =
| editing        =
| distributor    =
| released       =  
| runtime        =
| country        = United States Silent English intertitles
| budget         =
}}
 short comedy film featuring Harold Lloyd.

==Cast==
* Harold Lloyd 
* Snub Pollard 
* Bebe Daniels 
* William Blaisdell
* Sammy Brooks
* Lige Conley - (as Lige Cromley)
* Helen Gilmore
* Lew Harvey
* Bud Jamison
* Fred C. Newmeyer
* James Parrott Charles Stevenson

==See also==
* Harold Lloyd filmography

==External links==
* 

 
 
 
 
 
 
 
 


 