Wanted – $5,000
 
{{Infobox film
| name           = Wanted - $5,000
| image          = Wanted - $5,000 (1919) - Ad 1.jpg
| caption        = Ad for film with Harold Lloyd and Bebe Daniels
| director       = Gilbert Pratt
| producer       = Hal Roach
| writer         = 
| starring       = Harold Lloyd
| cinematography = 
| studio         = Rolin Films
| distributor    = Pathé Distributors
| released       =  
| runtime        = 
| country        = United States 
| language       = Silent (English intertitles)
| budget         = 
}}
 short comedy film featuring Harold Lloyd.   

==Cast==
* Harold Lloyd 
* Bebe Daniels
* Sammy Brooks
* Billy Fay William Gillespie
* Lew Harvey
* Bud Jamison
* Margaret Joslin
* Dee Lampton
* Marie Mosquini
* James Parrott
* Snub Pollard
* Noah Young

==See also==
* Harold Lloyd filmography

==References==
 

==External links==
* 

 
 
 
 
 
 
 
 
 


 