Next Aisle Over
 
{{Infobox film
| name           = Next Aisle Over
| image          = Next Aisle Over.jpg
| caption        = Theatrical poster to Next Aisle Over
| director       = 
| producer       = Hal Roach
| writer         = H. M. Walker
| starring       = Harold Lloyd
| cinematography = 
| editing        = 
| distributor    = 
| released       =  
| runtime        = 
| country        = United States  Silent English English intertitles
| budget         = 
}}
 short comedy film starring Harold Lloyd.   

==Cast==
* Harold Lloyd 
* Snub Pollard
* Bebe Daniels
* Sammy Brooks
* Billy Fay
* William Gillespie
* Lew Harvey
* Wallace Howe
* Margaret Joslin
* William Petterson
* Dorothea Wolbert

==See also==
* Harold Lloyd filmography

==References==
 

==External links==
* 

 
 
 
 
 
 
 
 
 

 