Touch of Death (1961 film)
{{Infobox film
| name           = Touch of Death
| image          =
| image_size     =
| caption        =
| director       = Lance Comfort
| producer       = Lewis Linzee
| writer         = Lyn Fairhurst, Aubrey Cash and Wilfred Josephs (story) 
| narrator       = William Lucas Johnny Douglas
| cinematography =
| editing        = John Trumper
| distributor    =
| released       = 1961, United Kingdom
| runtime        = 58 minutes
| country        = United Kingdom
| language       = English
| budget         =
| gross          =
| preceded_by    =
| followed_by    =
}}
 British crime William Lucas and directed by Lance Comfort.

==Cast== William Lucas as Pete Mellor
*David Sumner as Len Williams
*Ray Barrett as Maxwell
*Jan Waters as Jackie
*Frank Coda as Sgt. Byrne
*Roberta Tovey as Pam
*Geoffrey Denton as Baxter

==References==
 

==External links==
* 
*  

 

 
 
 
 
 
 
 


 
 