Eight Immortals (film)
{{Infobox Film
| name           = Eight Immortals
| image          = 
| image_size     = 
| caption        = 
| director       = Chan Hung Man
| producer       =
| writer         = 
| narrator       = 
| starring       = Chiang Ming   Sally Chen   Got Heung Ting   Chui Fook Sang   Fung Hoi   Lui Woon Suen   Chan Kwok Gwan   Tsui Yat Gung   Wu Jiaxiang   O Yau Man
| music          = 
| cinematography =   
| editing        = 
| distributor    =  1971 
| runtime        = 92 minutes Taiwan
| language       = Mandarin
| budget         = 
}}
 1971 Cinema Taiwanese fantasy film directed by Chan Hung Man. The film tells the story of the Eight Immortals, an octet of warriors in Chinese mythology.

== External links ==
*   at Hong Kong Cinemagic
*  
*  

 
 
 


 
 