Hearts in Shadow
 
{{Infobox film
| name           = Hearts in Shadow
| image          =
| caption        =
| director       = B. Reeves Eason
| producer       =
| writer         =
| narrator       =
| starring       = Louise Lester
| cinematography =
| editing        =
| distributor    =
| released       =  
| runtime        =
| country        = United States Silent English English intertitles
| budget         =
}}

Hearts in Shadow is a 1915 American short film directed by  B. Reeves Eason.

==Cast==
* Louise Lester Jack Richardson
* Vivian Rich

==External links==
* 

 
 
 
 
 
 
 