Aadhi Raat
{{Infobox film
| name           = Aadhi Raat 
| image          = 
| caption        =
| director       = S K Ojha
| producer       = 
| writer         =  
| starring       = Ashok Kumar Nargis Cuckoo Jeevan  
| music          = 
| cinematography = 
| editing        =
| distributor    = 
| released       = 1950
| runtime        =  
| country        = India
| language       = Hindi
| Budget         = 
| preceded_by    =
| followed_by    =
| awards         =
| Gross          = 
}} 1950 film directed by S K Ojha and starring Ashok Kumar, Nargis (actress)|Nargis, Jeevan (actor)|Jeevan, Cuckoo Moray|Cuckoo, Kuldip Kaur, Neelam, Tiwari.    The music was composed by Husnlal Bhagatram, while Geeta Dutt, Lata Mangeshkar and Meena Kapoor were the playback singers for this movie.   

==Cast==
*Cuckoo Jeevan
*Kuldip Kaur
*Ashok Kumar
*Nargis
*Neelam
*Ramayan Tiwari

==References==
 



== External links ==
*  

 
 
 

 