The Silver Lining (1915 film)
{{Infobox film
| name           = The Silver Lining
| image          = 
| caption        = 
| director       = B. Reeves Eason
| producer       = 
| writer         = 
| starring       = Gayne Whitman
| music          = 
| cinematography = 
| editing        = 
| distributor    = 
| released       =  
| runtime        =  
| country        = United States  Silent English intertitles
| budget         = 
}}

The Silver Lining is a 1915 short film directed by  B. Reeves Eason.

==Cast==
* Gayne Whitman
* Vivian Rich Roy Stewart Charles Newton

==External links==
* 

 
 
 
 
 
 
 
 