Time and Tide (1916 film)
 
{{Infobox film
| name           = Time and Tide
| image          =
| caption        =
| director       = B. Reeves Eason
| producer       =
| writer         =
| narrator       =
| starring       = Hugh Bennett
| cinematography =
| editing        =
| distributor    = Mutual Film
| released       =  
| runtime        =
| country        = United States
| language       = Silent with English intertitles
| budget         =
}}
 short drama film directed by  B. Reeves Eason.

==Cast==
* Hugh Bennett
* Nell Franzen
* Gayne Whitman (as Alfred Vosburgh)

==External links==
* 

 
 
 
 
 
 
 
 
 

 