Aag Laga Do Sawan Ko
{{Infobox film
| name           = Aag Laga Do Sawan Ko 
| image          = 
| caption        =
| director       = Anup Malik
| producer       = 
| writer         = 
| starring       =  Harish Patel
| music          = 
| cinematography = 
| editing        = 
| distributor    = Great Shiva International
| released       =  1991
| runtime        = 
| country        = India
| language       = Hindi
| Budget         = 
| preceded_by    =
| followed_by    =
| awards         =
| Gross          = }}
Aag Laga Do Sawan Ko (English translation - Fire Up The Winter) is 1991 Hindi language movie directed by Anup Malik and starring Harish Patel, Kuldeep Malik, Sargam, Reema, Ajit Vachhani. 

==References==
 

== External links ==
*  

 
 
 

 