Ghundi Run
 
 

{{Infobox film
| name           = Ghundi Run
| image          =
| image_size     =
| caption        =
| director       = Pervez Rana
| producer       =
| writer         = Shaan Nargis
| music          =
| cinematography =
| editing        =
| released       = Eid day 2007
| runtime        =
| country        = Pakistan Punjabi
| budget         =
| domestic gross =
| preceded_by    =
| followed_by    =
}}Ghundi Run is a Pakistani Urdu film, directed by Pervez Rana. It was released across theaters in Pakistan on October 14, 2007.

==References==
*

 
 
 


 