Jön az öcsém
 
{{Infobox film
| name           = Jön az öcsém
| image          = 
| caption        = 
| director       = Michael Curtiz
| producer       = 
| writer         = Antal Farkas Iván Siklósi
| starring       = Oscar Beregi Sr. Lucy Doraine
| cinematography = 
| editing        = 
| distributor    = 
| released       =  
| runtime        = 8 minutes
| country        = Hungary
| language       = Silent
| budget         = 
| gross          = 
}} short Hungarian drama film directed by Michael Curtiz.

==Cast==
* Oscar Beregi Sr. as The younger brother (as Oszkár Beregi)
* Lucy Doraine as The woman (as Ilonka Kovács)
* József Kürthy as The elder brother
* Ferenc Szécsi as The kid (as Ferkó Szécsi)

==See also==
* Michael Curtiz filmography

==External links==
* 
* 

 

 
 
 
 
 
 
 
 
 