A Régiséggyüjtö
{{Infobox film
| name           = A Régiséggyüjtö
| image          =
| caption        =
| director       = Alfréd Deésy
| producer       =
| writer         = Pál Forró
| starring       = Béla Lugosi
| music          =
| cinematography =
| editing        =
| distributor    =
| released       =  
| runtime        =
| country        = Hungary
| language       = Silent
| budget         =
| gross          =
}} short Hungarian film directed by Alfréd Deésy and featuring Béla Lugosi.

==Cast==
* Norbert Dán
* Béla Lugosi (as Arisztid Olt)
* Camilla von Hollay (as Kamilla Hollay)

==See also==
* Béla Lugosi filmography

==External links==
* 

 
 
 
 
 
 
 
 
 
 