The Hidden Hand (serial)
 
{{Infobox film
| name           = The Hidden Hand
| image          = 
| caption        = 
| director       = James Vincent
| producer       = 
| writer         = Charles W. Goddard Arthur B. Reeve
| starring       = Doris Kenyon Sheldon Lewis
| music          = 
| cinematography = 
| editing        =  Astra Films
| released       =  
| runtime        = 15 episodes 
| country        = United States  Silent English intertitles
| budget         = 
}}
 lost serial. 

==Cast==
* Doris Kenyon as Doris Whitney
* Sheldon Lewis as  Dr. Scarley
* Mahlon Hamilton as Jack Ramsey
* Arline Pretty as Vera Orane
* Henry Sedley

==See also==
*List of lost films

==References==
 

==External links==
* 

 

 
 
 
 
 
 
 
 
 