In His Steps (1964 film)
{{Infobox film
| name           = In His Steps
| image          = His.steps.dvd.med.jpg
| alt            =  
| caption        = DVD Cover Ken Anderson
| producer       = S. Lambert Huffman
| writer         = Ken Anderson
| based on       =  
| starring       = {{Plainlist|
*Alma Du Bus
*Harry Elders
*Art Hern
*Cheryl Lee Morrison}}
| music          = Ray Robinson
| cinematography = Dan Dunkelberger
| editing        = 
| studio         = 
| distributor    = 
| released       =   
| runtime        = 
| country        = United States
| language       = English
| budget         = 
| gross          = 
}} novel of Ken Anderson.

==External links==
* 

 
 
 
 

 
 