Sabhash
 
{{Infobox film
| image          =https://encrypted-tbn1.gstatic.com/images?q=tbn:ANd9GcQiPwhOop6fr7lqWLqQMW9enTunO4yOjEJ7gILZuRsxg619HQ7OAQ
| caption        =
| writer         =
| director       = K. Subash Ranjith
| producer       =
| music          =
| editor         =
| cinematography =
| released       = 2000
| runtime        = Tamil
| country        = India
| budget         =
}}

Sabhash is a South Indian Tamil film released in 2000.

 
 
 
 


 