Aizō Tōge
 
{{Infobox film
| name           = Aizō Tōge
| image          = Aizo toge film poster.jpg
| image_size     =
| caption        = Original Japanese movie poster
| director       = Kenji Mizoguchi
| producer       = Nikkatsu Tamagawa
| writer         =
| narrator       =
| starring       = Isuzu Yamada Daijirō Natsukawa Denmei Suzuki Komako Hara
| music          =
| cinematography =
| editing        =
| distributor    =
| released       = 1 September 1934
| runtime        = 102 min.
| country        = Japan
| language       = Japanese
| budget         =
| preceded_by    =
| followed_by    =
}} Japanese film directed by Kenji Mizoguchi. It is a lost film.   

==References==
 

==External links==
*  

 

 
 
 
 
 
 
 
 


 