152 (film)
{{Infobox Film
| name           = 152
| image          = 152_VideoCover.jpg
| image_size     = 
| caption        = 
| director       = Darryl Knickrehm
| producer       = Darryl Knickrehm
| writer         = Darryl Knickrehm
| narrator       = 
| starring       = Tatsuya Masuda
| music          = Phillip Van Louwen
| cinematography = Darryl Knickrehm
| editing        = Darryl Knickrehm
| distributor    = DK PRO
| released       = 22 April 2006
| runtime        = 32 mins
| country        = Japan Japanese
| budget         = 
| gross          = 
| preceded_by    = 
| followed_by    = 
}}

152 is a horror film made by filmmaker Darryl Knickrehm.
  It was an official selection at the 2006 Calgary Underground Film Festival and at the 2007 Kansai International Film Festival. 

==References==
 

==External links==
*  
*  
*  
*  

 
 
 
 
 
 


 
 