Sette giorni all'altro mondo
{{Infobox film
| name           =Sette giorni allaltro mondo
| image          = 
| image_size     =
| caption        = 
| director       = Mario Mattoli
| producer       = 
| writer         = Aldo De Benedetti (play), Mario Mattoli (screenplay)
| narrator       = 
| starring       = 
| music          = 
| cinematography = 
| editing        = 
| distributor    =
| released       = 1936 
| runtime        =  66 mins
| country        = Italy Italian
}}
 1936 Italy|Italian comedy film directed by Mario Mattoli.

==Cast==
*Camillo Pilotto
*Vanna Vanni
*Franco Coop
*Nietta Zocchi
*Emilio Petacci
*Virgilio Riento
*Guglielmo Barnabò
*Stefano Sibaldi
*Clelia Bernacchi
*Flavio Díaz
*Romolo Balzani
*Rosina Adrario
*Carlo Chertier
*Carla Zaccaria

== External links ==
*  

 

 
 
 
 
 
 

 
 