On se calme et on boit frais à Saint-Tropez
{{Infobox film
| name           = 
| image          = Onsecalme.JPG
| image_size     = 
| caption        = The poster of On se calme et on boit frais à Saint-Tropez
| director       = Max Pécas
| producer       = 
| writer         = 
| narrator       = 
| starring       = 
| music          = 
| cinematography = 
| editing        = 
| distributor    =  1987
| runtime        = 
| country        = France
| language       = French 
| budget         = 
| preceded_by    = 
| followed_by    = 
}} French film-maker Max Pécas. It is also the last one of his "Saint-Tropez" trilogy.

==External links==
* 

 
 
 
 


 