Three Plus Two
{{Infobox Film
| name           = Three Plus Two
| image          = 
| image_size     = 
| caption        = 
| director       = Genrikh Oganisyan
| producer       = 
| writer         = 
| narrator       = 
| starring       = 
| music          = 
| cinematography = 
| editing        = 
| studio         = Gorky Film Studio
| distributor    = 
| released       = 1963
| runtime        = 
| country        = Soviet Union
| language       = Russian
| budget         = 
| gross          = 
| preceded_by    = 
| followed_by    = 
}} Soviet comedy Maksim Gorki Studio.

==Cast==
# Natalya Kustinskaya as Natasha
# Natalya Fateyeva as Zoya Andrei Mironov as Roman
# Yevgeni Zharikov as Vadim
# Gennadi Nilov as Stepan Ivanovich Sundukov

==External links==
* 

 
 
 
 
 

 
 