Hoods (film)
{{Infobox film
| name           = Hoods
| image          = 
| image_size     = 
| border         = 
| alt            = 
| caption        = 
| film name      = 
| director       = Mark Malone
| producer       = Robert Vince William Vince
| writer         = Mark Malone
| screenplay     = 
| story          = 
| based on       =  
| narrator       = 
| starring       = 
| music          = Anthony Marinelli Tobias Schliessler
| editing        = Kelly Herron Robin Russell
| studio         = 
| distributor    = 
| released       =  
| runtime        = 
| country        = 
| language       = 
| budget         = 
| gross          = 
}}

Hoods is 1998 independent film directed by Mark Malone.

==Plot== Italian mobster, to kill the son of an enemy of his, who has destroyed one of his buildings with a bomb. The problems grow bigger when they discover that the person they have to kill is really a nine-year-old. 

==References==
 

== External links ==
*  

 
 


 