The Black Enforcer
 
 
{{Infobox film
| name           = The Black Enforcer
| image          = The Balck Enforcer movie poster.jpg
| alt            = 
| caption        = 
| director       = Ho Meng Hua
| producer       = Run Run Shaw
| screenplay     = Shan-hsi Ting Wang Ping Tien Feng
| music          = Fu-ling Wang
| cinematography = Kuo-Hsiang Lin
| editing        = Hsing-lung Chiang
| studio         = Shaw Brothers
| distributor    = Shaw Brothers
| released       =  
| runtime        = 96 minutes
| country        = Hong Kong
| language       = Mandarin
| budget         = 
| gross          =
}}
The Black Enforcer ( ) is a 1972 Hong Kong dramatic action film directed by   cinemas on 28 January 1972.   

==Cast==
* Tang Chin Wang Ping 
* Tien Feng as Kuan Yun-fei 
* Jen Tsu Fang   
* Ching Wan Wong  
* Tung Li as Kang Hua
* Chao Hsiung 
* Kwang-ho Choi 
* Seong Choi as Tsao Hsing
* Erh Chun
* Ko Ching
* Lai Wen
* Cliff Lok as Chin Tung
* No Tsai

==References==
 

==External links==
*  

 
 
 
 
 
 


 
 