Cavalleria rusticana (1953 film)
{{Infobox film
| name           = Cavalleria rusticana
| image          = Cavalleria Rusticana Film Poster1953.jpg
| image_size     = 
| caption        = 
| director       = Carmine Gallone
| producer       = 
| writer         = 
| starring       = May Britt Anthony Quinn Ettore Manni
| music          =
| cinematography = 
| editing        = 
| distributor    = Minerva Film (Italy) Ultra Films Corp. (US)
| released       = 1953 (Italy) 9 January 1963 (US)
| runtime        = 
| country        = Italy Italian
| budget         = 
}} Italian drama film directed by Carmine Gallone. The film is based on the opera Cavalleria rusticana and stars May Britt, Anthony Quinn, and Ettore Manni. Quinn plays Alfio, miming to the voice of Tito Gobbi.

== External links ==
*  

 
 
 
 
 
 
 
 
 
 