Transgression (1974 film)
{{Infobox film name           = Transgression image          = Transgression (film).jpg caption        = Theatrical poster director       = Kim Ki-young  producer       = Lee Woo-suk writer         = Kim Ki-young based on       =   starring       = Choi Bool-am Park Byeong-ho music          =  cinematography = Jung Il-sung editing        =  distributor    = Dong-a Exports Co. Ltd. released       =   runtime        = 112 minutes country        = South Korea language       = Korean budget         =  gross          = 
| film name      = {{Film name hangul         =   hanja          =   rr             = Pagyae mr             = P‘agye context        = }}
}} 1974 South Korean film directed by Kim Ki-young.

==Synopsis== Zen Buddhism. 

==Cast==
* Choi Bool-am 
* Park Byeong-ho
* Jo Jae-seong
* Im Ye-jin

==Notes==
 

==Bibliography==
*  
*  
*  

 

 
 
 
 
 


 