Busy Little Bears
 
{{Infobox film
| name           = Busy Little Bears
| image          = 
| caption        = 
| director       = John A. Haeseler
| producer       = Justin Herman
| writer         = Justin Herman
| starring       = Frank Crumit
| music          = 
| cinematography = 
| editing        = 
| distributor    = Paramount Pictures
| released       =  
| runtime        = 10 minutes
| country        = United States 
| language       = English
| budget         = 
}}
 short family Best Short Subject (One-Reel).      

==Cast==
* Frank Crumit - Narrator (voice)

==References==
 

==External links==
* 

 

 
 
 
 
 
 
 


 