Toward Independence
{{Infobox film
| name           = Toward Independence
| image          = 
| caption        = 
| director       = 
| producer       = 
| writer         = 
| narrator       = 
| music          = 
| cinematography = 
| editing        = 
| distributor    = United States Army|U.S Army
| released       =  
| runtime        = 30 minutes
| country        = United States
| language       = English 
| budget         = 
}} short documentary 1949 for Documentary Short Subject.   

==References==
 

==External links==
* 

 

 
 
 
 
 
 
 
 


 