Lucciola (1917 film)
{{Infobox film
| name           = Lucciola
| image          =
| caption        =
| director       = Augusto Genina
| producer       =
| writer         =
| starring       =
| cinematography =
| editing        =
| distributor    =
| released       =  
| runtime        =
| country        = Italy
| language       = Silent
| budget         =
}}
 1917 Italy|Italian film directed by Augusto Genina.

==Cast==
*Oreste Bilancia
*Francesco Cacace
*Emilia Giorgi
*Helena Makowska
*Fernanda Negri Pouget
*Enrico Roma
*Franz Sala
*Mario Salo
*Umberto Scalpellini
*Nella Tessieri-Frediani
*Paolo Wullmann

== External links ==
*  

 
 
 
 
 
 

 