Young at Heart (1987 film)
 
{{Infobox film
| name           = Young at Heart
| image          =
| caption        =
| director       =
| producer       = Pamela Conn Sue Marx
| writer         =
| narrator       =
| starring       = Louis Gothelf Reva Shwayder-Gothelf
| music          =
| cinematography = Tom Campau
| editing        =
| distributor    =
| released       =  
| runtime        = 29 minutes
| country        = United States
| language       = English
| budget         =
}}
 1988 for Documentary Short Subject.   

==Cast==
* Louis Gothelf - Himself
* Reva Shwayder-Gothelf - Herself (as Reva Shwayder)

==References==
 

==External links==
*  

 

 
 
 
 
 
 
 
 
 
 
 


 