Witness to War: Dr. Charlie Clements
 
{{Infobox film
| name           = Witness to War: Dr. Charlie Clements
| image          =
| caption        =
| director       = Deborah Shaffer
| producer       = David Goodman
| writer         =
| narrator       = Charlie Clements
| music          =
| cinematography =
| editing        = Deborah Shaffer
| distributor    =
| released       =  
| runtime        = 29 minutes
| country        = United States
| language       = English
| budget         =
}}
 short documentary 1986 for Documentary Short Subject.   

==Cast== Charlie Clements as Himself (as Dr. Charlie Clements)
* Richard Nixon as Himself (archive footage)

==References==
 

==External links==
* 

 

 
 
 
 
 
 
 
 
 
 
 
 
 


 
 