Gli amanti di Ravello
{{Infobox film
| name           = Gli amanti di Ravello
| image          = 
| image_size     = 
| caption        = 
| director       = Luigi Capuano
| producer       = 
| writer         = 
| narrator       = 
| starring       = 
| music          = 
| cinematography =    
| editing        = 
| distributor    = Incine Industria Cinematografica Italiana
| released       =1951
| runtime        =
| country        = Italy Italian
| budget         = 
}}
 1951 Italy|Italian film directed by Luigi Capuano.

==Cast==
*Gabriele Ferzetti: Sandro Deodata
*Lida Baarova: Ida
*Leonora Ruffo: Bruna Falchi
*Carlo Ninchi: Matteo
*Olga Solbelli: governante
*Rino Salviati: Mario
*Nino Milano: Gennarino 

== External links ==
*  

 
 
 
 
 
 

 