Bosom Friends
 
{{Infobox film
| name           = Bosom Friends
| image          =
| image size     =
| caption        =
| director       =
| producer       = E. W. Hammons
| writer         =
| narrator       =
| starring       = James F. Clemenger
| music          =
| cinematography =
| editing        = Sam Citron
| distributor    =
| released       =  
| runtime        =
| country        = Canada United States
| language       = English
| budget         =
}}
 Best Short Subject (Novelty).   

==Cast==
* James F. Clemenger - Narrator

==References==
 

==External links==
* 

 
 
 
 
 
 
 
 
 


 