Dummy Ache
 
{{Infobox film
| name           = Dummy Ache
| image          = 
| caption        = 
| director       = Leslie Goodwins
| producer       = Lee S. Marcus
| writer         = Leslie Goodwins Charles E. Roberts
| starring       = Edgar Kennedy Florence Lake
| music          = 
| cinematography = 
| editing        = Edward Mann
| distributor    = RKO Pictures
| released       =  
| runtime        = 18 minutes
| country        = United States 
| language       = English
| budget         = 
}} short comedy Best Short Subject (Two-Reel).      

==Cast==
* Edgar Kennedy - Edgar
* Florence Lake - Florence
* Jack Rice - Florences Brother
* Dot Farley - Florences Mother
* George J. Lewis - The Actor
* Lucille Ball - The Actress Harry Bowen - The Cabbie
* Billy Franey - Man with Pitchfork
* Bobby Burns - Bit Role (uncredited)

==References==
 

==External links==
* 

 
 
 
 
 
 
 
 
 


 