Ikiteiru Koheiji
 
{{Infobox Film
| name           = Ikiteiru Koheiji
| image          =
| caption        = 
| director       = Nobuo Aoyagi
| producer       = Toho
| writer         = 
| narrator       = 
| starring       = 
| music          = Masaru Sato
| cinematography = 
| editing        = 
| distributor    = Toho
| released       = 4 August 1957 (Japan)
| runtime        = 
| country        = Japan
| language       = Japanese
| budget         = 
| preceded_by    = 
| followed_by    = 
}} musical Japanese film directed by Nobuo Aoyagi.

==External links==
*  

 
 
 
 

 