Thodi Life Thoda Magic
 
{{Infobox film
| name           = Thodi Life Thoda Magic
| image          = Thodi_Life_Thoda_Magic.jpg
| caption        =
| director       = Anand L. Rai
| producer       = Saahil Chhada & Fizz Entertainment(Akshay Shah)
| writer         = Arbaaz Khan Parmeet Sethi Sahil Chadha Meera Vasudevan Anita Raj
| music          = Vinay Tiwari
| cinematography = Amitabha Singh
| editing        =
| distributor    =
| released       =  
| runtime        =
| country        = India
| language       = Hindi
| budget         =
| gross          =
}} Hindi film Arbaaz Khan and Anita Raj in pivotal roles. The films music is by Vinay Tiwari.   

== References ==

 
==External links==
*  
*  
 

 
 
 


 