The Lion, the Lamb, the Man
 
{{Infobox film
| name           = The Lion, the Lamb, the Man
| image          = 
| caption        = 
| director       = Joe De Grasse
| producer       = 
| writer         =  Lon Chaney Pauline Bush
| music          = 
| cinematography = 
| editing        =  Universal Pictures
| released       =  
| runtime        = 
| country        = United States
| language       = Silent with English intertitles
| budget         = 
}} silent drama Lon Chaney. The film is now considered to be lost film|lost.   

==Cast== Pauline Bush as Agnes Duane Lon Chaney as Fred Brown
* Millard K. Wilson as Bert Brown
* William C. Dowlan as Reverend Hughe Baxton
* Gus Ingles as Rev. Percival Higginbotham

==References==
 

==External links==
* 

 
 
 
 
 
 
 
 
 
 
 

 