A Small Town Girl
 
{{Infobox film
| name           = A Small Town Girl
| image          =
| caption        =
| director       = Allan Dwan
| producer       =
| writer         = Beatrice Van Lon Chaney Pauline Bush
| music          =
| cinematography =
| editing        = Universal Pictures
| released       =  
| runtime        = 30 minutes
| country        = United States
| language       = Silent with English intertitles
| budget         =
}}
 silent drama Lon Chaney. The film is now considered to be lost film|lost.   

==Cast== Pauline Bush as Ruth
* William Lloyd as Hotel Proprietor Lon Chaney as The Procurer
* Richard Rosson as Dick
* Rupert Julian as The Snob
* Murdock MacQuarrie as The Snobs Father

==References==
 

==External links==
* 

 

 
 
 
 
 
 
 
 
 
 
 

 