Out (2002 film)

{{Infobox film
| name           = Out
| image          = 
| caption        = 
| film name = {{Film name| kanji          = 
| romaji         = }}
| director       = Hideyuki Hirayama
| producer       = 
| writer         = 
| starring       = Mieko Harada Mitsuko Baisho Shigeru Muroi Naomi Nishida
| music          = 
| cinematography = 
| artdirector    = 
| editing        = 
| studio         = 
| distributor    = 
| released       =  
| runtime        = 119 minutes
| country        = Japan
| language       = Japanese
| budget         = 
| gross          = 
}} Japanese film directed by Hideyuki Hirayama.

==Cast==
* Mieko Harada as Masako Katori
* Mitsuko Baisho as Yoshie Azuma
* Shigeru Muroi as Kuniko Jonouchi
* Naomi Nishida as Yayoi Yamamoto
* Teruyuki Kagawa as Akira Jumonji
* Kanpei Hazama as Mitsuyoshi Satake


==References==
 


==External links==
* 

 

 
 
 
 
 
 

 