The Stronger Mind
{{Infobox film
| name           = The Stronger Mind
| image          =
| caption        =
| director       = Joe De Grasse
| producer       =
| writer         = Lon Chaney Pauline Bush
| cinematography =
| editing        = Universal Pictures
| released       =  
| runtime        =
| country        = United States
| language       = Silent with English intertitles
| budget         =
}}
 silent drama Lon Chaney. The film is now considered to be lost film|lost.   

==Cast==
* Murdock MacQuarrie - A Crook Pauline Bush - The Girl Lon Chaney - The Crooks Pal

==References==
 

==External links==
* 

 
 
 
 
 
 
 
 
 
 
 
 