The Oyster Dredger
 
{{Infobox film
| name           = The Oyster Dredger
| image	         = The Oyster Dredger FilmPoster.jpeg
| caption        = Lon Chaney
| producer       =
| writer         = Lon Chaney
| starring       = Lon Chaney J. Warren Kerrigan
| cinematography =
| editing        = Universal Pictures
| released       =  
| runtime        =
| country        = United States
| language       = Silent with English intertitles
| budget         =
}}
 silent drama Lon Chaney. The film is now considered to be lost film|lost.   

==Cast==
* J. Warren Kerrigan as Jack
* Vera Sisson as Vera Lon Chaney William Quinn as The Lawyer

==References==
 

==External links==
* 

 
 
 
 
 
 
 
 
 
 
 
 