An Idyll of the Hills
 
{{Infobox film
| name           = An Idyll of the Hills
| image          =
| image size     =
| caption        =
| director       = Joe De Grasse
| producer       =
| writer         =
| narrator       = Pauline Bush
| music          =
| cinematography =
| editing        = Universal Film Manufacturing Company
| released       =  
| runtime        = 2 reels
| country        = United States
| language       = Silent English intertitles
| budget         =
| preceded by    =
| followed by    =
}}
 short silent silent drama film directed by Joe De Grasse and featuring Lon Chaney.  The film is now presumed lost film|lost.   

==Cast== Pauline Bush - Kate Graham
* Millard K. Wilson - Dick Massey
* Lon Chaney - Lafe Jameson
* William C. Dowlan - Frank Collins
* Laura Oakley - Mrs. Graham

==References==
 

==External links==
* 

 
 
 
 
 
 
 
 
 
 
 


 