The Millionaire Paupers
 
{{Infobox film
| name           = The Millionaire Paupers
| image          = 
| caption        = 
| director       = Joe De Grasse
| producer       = 
| writer         = Ida May Park Lon Chaney Grace Thompson
| music          = 
| cinematography = 
| editing        =  Universal Pictures
| released       =  
| runtime        = 
| country        = United States 
| language       = Silent with English intertitles
| budget         = 
}}
 silent drama Lon Chaney. Only a fragment of the film survives.   

==Cast==
* Grace Thompson - Enid
* Gretchen Lederer - Mabel Lon Chaney - Martin - landlord
* Arthur Shirley - Allan
* Marcia Moore
* Millard K. Wilson - George
* Olive Carey (as Olive Golden)
* Miss Wilmer

==See also==
* List of incomplete or partially lost films

==References==
 

==External links==
* 

 
 
 
 
 
 
 
 
 
 
 

 