The Empty Gun
 
{{Infobox film
| name           = The Empty Gun
| image          =
| caption        =
| director       = Joe De Grasse
| producer       =
| writer         = J. Grubb Alexander Fred Myton Lon Chaney Sam De Grasse
| cinematography =
| editing        = Universal Pictures
| released       =  
| runtime        = 30 minutes
| country        = United States
| language       = Silent with English intertitles
| budget         =
}}
 silent Western Western film Lon Chaney   

==Cast==
* Franklyn Farnum as Robber
* Claire McDowell as Mary Lon Chaney as Frank
* Sam De Grasse as Jim

==References==
 

==External links==
* 

 
 
 
 
 
 
 
 
 
 
 