The Grand Passion
 
{{Infobox film
| name           = The Grand Passion
| image          = 
| caption        = 
| director       = Ida May Park
| producer       = 
| writer         = Ida May Park Thomas Addison (novel) Lon Chaney
| music          = 
| cinematography = King D. Gray
| editing        =  Universal Pictures
| released       =  
| runtime        = 
| country        = United States 
| language       = Silent   English intertitles
| budget         = 
}}
 silent Western Western film Lon Chaney.   

==Cast==
* Dorothy Phillips as Viola Argos
* Jack Mulhall as Jack Ripley Lon Chaney as Paul Argos
* William Stowell as Dick Evans
* Bert Appling as Red Pete Jackson
* Evelyn Selbie as Boston Kate Alfred Allen as Ben Mackey

==References==
 

==External links==
* 

 
 
 
 
 
 
 
 
 
 