Too Late (2000 film)
{{Infobox film
| name           = Too Late
| image          = 
| image size     = 
| border         = 
| alt            = 
| caption        = 
| director       = José Nascimento
| producer       = 
| writer         = 
| screenplay     = 
| story          = 
| based on       = 
| narrator       = 
| starring       = Ana Moreira
| music          = 
| cinematography = 
| editing        = 
| studio         = 
| distributor    = 
| released       = 2000
| runtime        = 
| country        = Portugal
| language       = Portuguese
| budget         = 
| gross          = 
}} Portuguese film directed by José Nascimento. It was Portugals submission to the 73rd Academy Awards for the Academy Award for Best Foreign Language Film, but was not accepted as a nominee.        

==See also==
 
*Cinema of Portugal
*List of submissions to the 73rd Academy Awards for Best Foreign Language Film

==References==
 

==External links==
* 

 
 
 
 

 