God's Comedy
{{Infobox film
| name           = A Comédia de Deus
| image          = AComédiadeDeus1996Cover.jpg
| image size     = 
| alt            = 
| caption        = DVD Cover
| director       = João César Monteiro
| producer       = 
| writer         = João César Monteiro
| screenplay     = 
| story          =
| based on       =  
| narrator       = 
| starring       = Cláudia Teixeira João César Monteiro Manuela de Freitas
| music          = 
| cinematography = Mário Barroso
| editing        = Carla Bogalheiro
| studio         = 
| distributor    = 
| released       =  
| runtime        = 170 minutes
| country        = Portugal
| language       = Portuguese
| budget         = 
| gross          = 
}}

Gods Comedy (Portuguese: A Comédia de Deus) is a 1995 Portuguese film by   (1989) (Recollections of the Yellow House) and followed by As Bodas de Deus (1999) (Houses of God). 
God is symbolized through the character João de Deus (lit.: John of God), played by writer/director Monteiro himself.

==External links==
*  

 
 
 
 
 
 
 