La vispa Teresa
{{Infobox Film
| name           = La vispa Teresa
| image          = 
| caption        = 
| director       = Mario Mattoli
| producer       = 
| writer         = Mario Mattoli
| narrator       = 
| starring       = Lilia Silvi
| music          = 
| cinematography = Charles Suin Ugo Lombardi
| editing        = Fernando Tropea
| distributor    = 
| released       =  
| runtime        = 85 minutes
| country        = Italy 
| language       = Italian
| budget         = 
}}

La vispa Teresa is a 1943 Italian comedy film directed by Mario Mattoli and starring Lilia Silvi.

==Cast==
* Lilia Silvi - Teresa
* Antonio Gandusio - Antonio, suo zio
* Vera Carmi - Luisa, la manicure Roberto Villa - Alberto Mari
* Carlo Ninchi - Carlo Mari, suo padre
* Giuditta Rissone - Matilde Mari, madre di Alberto
* Tino Scotti - Albertaccio
* Aldo Silvani - Il colonello Rossi

==External links==
* 

 

 
 
 
 
 
 
 


 
 