Ultra Q The Movie: Legend of the Stars
{{Infobox film
| name           = Ultra Q The Movie: Legend of the Stars
| image          = 
| image size     = 
| border         = 
| alt            = 
| caption        = 
| director       = Akio Jissoji
| producer       = 
| writer         = 
| screenplay     = 
| story          = 
| based on       =  
| narrator       = 
| starring       = Masami Horiuchi   Hiroshi Tsuburaya   Akiji Kobayashi
| music          = 
| cinematography = 
| editing        = 
| studio         = Tsuburaya Productions
| distributor    = 
| released       =  1990
| runtime        = 
| country        = Japan
| language       = Japanese
| budget         = 
| gross          = 
}}
 monster movie produced by Tsuburaya Productions in  1990. 

== Enemies ==
===Wadatuzin===
An alien that came to Earth in ancient times.
===Nagira===
A monster telepathically linked with Wadatuzin. Is 50 meters tall and weighs 31,000 tons. His subtitle is Ancient God Beast (古代神獣 Kodai Kamikemono).

== Staff ==
*Director - Akio Jissoji

== Cast ==
*Masami Horiuchi
*Hiroshi Tsuburaya
*Akiji Kobayashi
*Susumu Kurobe
*Sandayū Dokumamushi

==External links==
* 
*  at  

 
 

 

 
 
 
 
 
 
 