Ghar Ki Izzat (1948 film)
{{Infobox film
| name           = Ghar Ki Izzat
| image          = 
| alt            = 
| caption        = 
| director       = Ram Daryani
| producer       = Ram Daryani
| writer         = K.S. Daryani
| starring       = Dilip Kumar Mumtaz Shanti
| music          = Pundit Gobindram
| cinematography = Kumar Jayawant
| editing        = M.D. Malekar
| studio         = 
| distributor    = Shree Sound Studios
| released       = 1948
| runtime        = 
| country        =  India
| language       = Hindi
| budget         = 
| gross          = 
}}

Ghar Ki Izzat is a 1948 Hindi film starring Dilip Kumar and Mumtaz Shanti. Other artists are Manorama, Jeevan and Gope. Music by Pundit Gobindram. The film is directed by Ram Daryani.

==Cast==
* Dilip Kumar
* Mumtaz Shanti

==References==
 

==External links==

 
 
 
 

 