King of the Children
{{Infobox film
| name           = King of the Children 孩子王
| image          = 
| caption        = 
| director       = Chen Kaige
| producer       = 
| writer         =  
| starring       = Chen Shaohua Xie Yuan
| music          = 
| cinematography = Gu Changwei
| editing        = 
| distributor    = 
| released       = 1987
| runtime        = 107 minutes 
| country        = China 
| language       = Mandarin
| budget         = 
}} Ah Cheng. The film was entered into the 1988 Cannes Film Festival.   

==Cast==
* Chen Shaohua
* Xie Yuan
* Yang Xuewen

==References==
 

==External links==
* 
* 
*   from the Chinese Movie Database

 

 
 
 
 
 
 
 
 