Give Us the Moon
 
{{Infobox film
| name           = Give Us the Moon
| image          = Giveusthemoonposter.jpg  
| caption        = GFD poster
| director       = Val Guest
| producer       = 
| writer         = 
| based on       =   Peter Graves Jean Simmons
| music          = 
| cinematography = 
| editing        = 
| distributor    = General Film Distributors (GFD) Ltd. (UK)
| released       = 
| runtime        = 
| country        = United Kingdom
| language       = English
| budget         =
| gross          =
}}
 Peter Graves.

==Plot==
A young layabout son of a hotel owner becomes involved with a group equally committed to doing no work and tries to join. Perhaps because the theme of people avoiding work was abhorrent to wartime audiences, the film was set in the near future.

==External links==
* 

 
 

 
 
 
 
 

 