Mahabharat (1965 film)
 
 
{{Infobox film
| name           = Mahabharat
| image          =
| image size     =
| caption        =
| director       = Babubhai Mistri
| producer       = A. A. Nadiadwala
| writer         = Veda Vyasa Pandit Madhur C.K. Mast Vishwanath Pande
| narrator       = Padmini Jeevan Jeevan
| music          =
| cinematography = Narendra Mistry Peter Parreira
| editing        = Kamlakar Karkhanis
| distributor    =
| released       = 1965
| runtime        = 163 min.
| country        = India
| language       = Hindi
| budget         =
| gross          =
| preceded by    =
| followed by    =
}} 1965 Hindi Padmini as Jeevan as Chitragupta and the title song was sung by Mohammed Rafi.

==Cast==
*Abhi Bhattacharya
*Pradeep Kumar
*Dara Singh Padmini
*Jeevan Jeevan

== References ==
 
*   University of Iowa.

==External links==
* 

 

 
 
 
 
 
 
 
 

 