March of Happiness
{{Infobox film
| name           = March of Happiness
| image          =
| image size     =
| caption        =
| director       = Lin Cheng-sheng
| producer       = Kang-shing Chen
| writer         = So-ching Ko Chin-sheng Yeh
| narrator       =
| starring       = Giong Lim
| music          =
| cinematography = Cheng-hui Tsai
| editing        = Hsiao-jing Chen
| distributor    =
| released       = 1999
| runtime        = 93 minutes
| country        = Taiwan
| language       = Mandarin
| budget         =
| preceded by    =
| followed by    =
}} 1999 Cinema Taiwanese film Japanese occupation Best Foreign Language Film submission at the 72nd Academy Awards, but did not manage to receive a nomination. 

The film was also screened in the Un Certain Regard section at the 1999 Cannes Film Festival.   

==Cast==
* Giong Lim - A Jin
* Shu-shen Hsiao - A Yu
* Grace Chen - Cigarette woman
* Kun-chang Chen - Sea Dragon
* Ming-chang Chen - Hsian Ge
* Leon Dai - Zhan Tian-ma
* Doze Niu

==References==
 

==External links==
* 
*  Review by Shelly Kraicer

 
 
 
 
 
 
 
 
 
 
 
 


 
 