Merciless Man
 
{{Infobox film
| name           = Merciless Man
| image          = Merciless Man.jpg
| caption        = Film poster
| director       = Mario Lanfranchi
| producer       = 
| writer         = Mario Lanfranchi
| starring       = Tony Lo Bianco
| music          = 
| cinematography = Federico Zanni
| editing        = 
| distributor    = 
| released       = 4 December 1976
| runtime        = 92 minutes
| country        = Italy 
| language       = Italian
| budget         = 
}}
Merciless Man ( ) is a 1976 crime film directed by Mario Lanfranchi and starring Tony Lo Bianco.

==Cast==
* Tony Lo Bianco - The American
* Maud Adams - Marta Mayer
* Adolfo Celi - Lo Gallo
* Barbara Vittoria Calori (as Barbara Romana Calori) Howard Ross
* Fiona Florence
* Luigi Bonos
* Yanti Somer - Mayers henchwoman

==External links==
* 

 
 
 
 
 
 
 


 
 