A Lady Mislaid
{{Infobox film
| name           = A Lady Mislaid
| image          = 
| caption        =  David MacDonald
| producer       = Robert Hall Kenneth Horne
| screenplay     = 
| story          = 
| based on       =  
| starring       = Phyllis Calvert Alan White Thorley Walters Gillian Owen
| music          = Sydney John Kay
| cinematography = Norman Warwick
| editing        = Seymour Logie
| studio         = 
| distributor    = 
| released       =    
| runtime        = 60 minutes
| country        = United Kingdom
| language       = English
| budget         = 
| gross          = 
}}
 David MacDonald and starring Phyllis Calvert, Alan White and Thorley Walters.

==External links==
* 

 

 
 
 
 
 
 
 


 
 