La grande strada
{{Infobox film
| name           = La Grande strada
| image          =
| image_size     = 
| caption        = 
| director       =Vittorio Cottafavi, Michał Waszyński
| producer       = 
| writer         =
| narrator       = 
| starring       = 
| music          =    
| cinematography =  
| editing        = 
| distributor    = 
| released       =1948
| runtime        =
| country        = Italy
| language       = Italian
| budget         = 
}}
 1948 Italy|Italian drama film and the last film directed by Polish director Michał Waszyński.

==Cast==
*Fadoriga Andrejewska   
*Maria Bogdanska   
*Paolo Carlini   
*Pjotr Sjaroff 

== External links ==
*  

 

 
 
 
 
 
 
 
 
 
 