Bhai Bahen
{{Infobox film
| name           = Bhai Bahen
| image          = 
| image_size     =
| caption        =
| director       = Ram Daryani
| producer       = 
| writer         = 
| starring       = 
| music          = 
| cinematography = 
| editing        = 
| distributor    = 
| released       =  
| runtime        = 
| country        = India
| language       = Hindi
| Budget         = 
| preceded_by    =
| followed_by    =
| awards         =
| Gross          = 
}}
 Bhai Bahen is a 1950 Bollywood musical film directed by Ram Daryani.

==Cast==
*Geeta Bali   
*Bharat Bhushan   
*Nirupa Roy

==External links==
*  

 
 
 
 


 
 