The World Is Rich
{{Infobox film
| name           = The World Is Rich
| image          =
| caption        =
| director       = Paul Rotha
| producer       = Paul Rotha
| writer         = Arthur Calder-Marshall
| narrator       =
| starring       =
| music          = Clifton Parker
| cinematography = Wolfgang Suschitzky   
| editing        =
| studio         = Windsor Studios
| distributor    = Central Office of Information Ministry of Food
| released       = 1947
| runtime        = 46 minutes
| country        = United Kingdom
| language       = English
| budget         =
    
}}
 Best Documentary Feature.   

==References==
 

==External links==
* 

 
 
 
 
 
 
 
 

 
 