War Department Report
__NOTOC__
{{Infobox film
| name           = War Department Report
| image          = 
| caption        = 
| director       = Oliver Lundquist
| producer       = Carl Marzani
| writer         = David Zablodowsky
| narrator       = Walter Huston
| starring       = 
| music          = 
| cinematography = 
| editing        = Richard Lyford
| distributor    = 
| released       =  
| runtime        = 47 minutes
| country        = United States
| language       = English
| budget         = 
}} Best Documentary Feature.

==References==
 

==External links==
* 

 
 
 
 
 
 
 