Rebel in Paradise
{{Infobox film
| name           = Rebel in Paradise
| image          = 
| caption        = 
| director       = 
| producer       = Robert D. Fraser
| writer         = 
| starring       = 
| music          = 
| cinematography = 
| editing        = 
| distributor    = 
| released       = 1960
| runtime        = 
| country        = United States 
| language       = English
| budget         = 
}}
 Best Documentary Feature.     

==References==
 

==External links==
* 

 
 
 
 
 
 