The Stratford Adventure
{{Infobox film
| name           = The Stratford Adventure
| image          = 
| caption        = 
| director       = Morten Parker
| producer       = Guy Glover
| writer         = Gudrun Parker
| narrator       = John Drainie
| starring       = Alec Guinness
| music          = Louis Applebaum
| cinematography = 
| editing        = 
| studio        = National Film Board of Canada
| distributor    = 
| released       =  
| runtime        = 40 minutes
| country        = Canada 
| language       = English
| budget         = 
}}
 Best Documentary Feature at the 27th Academy Awards.      

==Cast== Michael Bates as Himself
* Timothy Findley as Himself
* Alec Guinness as Himself
* Tyrone Guthrie as Himself
* Irene Worth as Herself

==References==
 

==External links==
* 
* 

 
 
 
 
 
 
 
 
 
 
 
 

 
 