The Man with Two Faces (1975 film)
 

{{Infobox Film
| name           = The Man with Two Faces
| image          = File:The_Man_with_Two_Faces(1975)_poster.jpg
| image_size     = 
| caption        = 
| director       = Lee Yong-min 
| producer       = Shim Tae-seon 
| writer         = Lee Yong-min
| narrator       = 
| starring       = Lee Ye-chun Kim Ok-jin Jin Bong-jin
| music          = 
| cinematography = 
| editing        = 
| distributor    = 
| released       =  
| runtime        = 76 minutes
| country        = South Korea
| language       = Korean
| budget         = 
| preceded_by    = 
| followed_by    = 
}}

The Man with Two Faces ( ) is a 1975 South Korean horror film.

==Cast==
* Lee Ye-chun 
* Kim Ok-jin
* Jin Bong-jin

==External links==
* 
* 

 
 
 
 
 
 


 
 