Kodakara Sodo
{{Infobox Film
| name           = Kodakara Sodo
| image          = 
| image_size     = 
| caption        = 
| director       = Torajiro Saito
| producer       =
| writer         = Tadao Ikeda
| narrator       = Shunsui Matsuda Midori Sawato
| starring       = Shigeru Ogura Yaeko Izumo   Shotaro Fujimatsu Akio Nomura
| music          = 
| cinematography = Yoshio Taketomi
| editing        =
| studio         = Shochiku Kamata
| distributor    = Digital Meme (DVD)
| released       =   1935 (Japan)
| runtime        =33 min
| country        = Japan Japanese
| budget         = 
| preceded_by    = 
| followed_by    = 
}}
  is a 1935 black and white Japanese silent film with benshi accompaniment directed by Torajiro Saito. This is a rare example of a silent Japanese slapstick film that has survived to this day.

==External links==
* 

 
 
 


 