The Silent Revolution
{{Infobox film
| name           = The Silent Revolution
| image          = 
| caption        = 
| producer       = Eckehard Munck
| writer         = 
| starring       = 
| music          = 
| cinematography = 
| editing        = 
| distributor    = 
| released       =  
| runtime        = 44 minutes
| country        = West Germany
| language       = 
| budget         = 
}}
 Best Documentary Feature.   

==References==
 

==External links==
* 

 
 
 
 
 
 
 
 


 
 