The Lovers' Wind
 
{{Infobox film
| name           = The Lovers Wind
| image          =
| caption        =
| director       = Albert Lamorisse
| producer       = Albert Lamorisse
| writer         =
| narrator       =
| music          =
| cinematography = Guy Tabary
| editing        = Denise de Casabianca	 Claude Lamorisse
| distributor    =
| released       =  
| runtime        =
| country        = France
| language       = French
| budget         =
}}
 posthumous Academy Best Documentary Feature.      

==References==
 

==External links==
* 
*  at UbuWeb

 
 
 
 
 
 
 
 

 
 