Fires of Kuwait
{{Infobox film
| name           = Fires of Kuwait
| image          = 
| caption        =  David Douglas
| producer       = Sally Dundas André Picard Diane Roberts
| writer         = 
| narrator       = Rip Torn
| starring       = 
| music          = 
| cinematography = David Douglas
| editing        = Barbara Kerr
| distributor    = 
| released       =  
| runtime        = 36 minutes
| country        = United States 
| language       = English
| budget         = 
}} David Douglas. Best Documentary Feature.    It solely played in OMNIMAX (now called IMAX dome) theatres. The film was the winner of the 2005 Hall of Fame Award from Giant Screen Cinema Association.    

==See also==
*Kuwaiti oil fires

==References==
 

==External links==
* 

 
 
 
 
 
 
 
 
 
 
 