Adventure in the Bronx
{{Infobox film
| name           = Adventure in the Bronx
| image          =
| caption        =
| director       =
| producer       =
| writer         =
| narrator       =
| music          =
| cinematography =
| editing        =
| distributor    =
| released       =  
| runtime        = 12 minutes
| country        = United States
| language       = English
| budget         =
}} short documentary Best Documentary Short.   

==References==
 

==External links==
* 

 
 
 
 
 
 
 
 
 


 