Genghis Khan (1998 film)
 
{{Infobox film
| name           = Genghis Khan
| image          = 
| image_size     = 
| caption        = 
| director       = Fu Sai Mai Lisi
| producer       = 
| writer         = Ran Ping
| narrator       =  Tumen
| music          = Cao Daoerji 
| cinematography = Mu Deyuan 
| editing        = 
| distributor    = 
| released       = 1998
| runtime        = 113 minutes China
| Mandarin Mongolian Mongolian
| budget         = 
| gross          = 
| preceded_by    = 
| followed_by    = 
}} Chinese film directed by Fu Sai and Mai Lisi, produced by Inner Mongolia Film Studio. 

==References==
 

==External links==
*  
*  

 
 
 
 
 
 
 
 
 
 
 
 
 


 
 