Journey into Spring
{{Infobox film
| name           = Journey into Spring
| image          = 
| caption        = 
| director       = Ralph Keene Ian Ferguson
| writer         = Laurie Lee Stephen Murray
| starring       = 
| music          = 
| cinematography = Patrick Carey
| editing        = Ralph Sheldon
| distributor    = 
| released       =  
| runtime        = 28 minutes
| country        = United Kingdom 
| language       = English
| budget         = 
}} Best Documentary Best Live Action Short.   

==References==
 

==External links==
* 

 
 
 
 
 
 
 
 


 
 