L'antimiracolo
 
{{Infobox film
| name           = L&#39;antimiracolo
| image          =
| image_size     =
| caption        =
| director       = Ellio Piccon
| producer       =
| writer         =
| narrator       =
| starring       =
| music          =
| cinematography =
| editor       =
| distributor    =
| released       = 1965
| runtime        = 87 minutes
| country        = Italy Italian
| budget         =
}}

L&#39;antimiracolo is a 1965 Italian documentary film directed by Elio Piccon.

==External links==
*  

 
 
 
 
 
 


 
 