Overture (1958 film)
{{Infobox film
| name           = Overture
| image          = 
| caption        = 
| director       = Gian Luigi Polidoro
| producer       = Thorold Dickinson
| writer         = 
| narrator       = 
| music          = 
| cinematography = 
| editing        = 
| distributor    = National Film Board of Canada
| released       =  
| runtime        = 10 minutes
| country        = Canada 
| language       = Italian
| budget         = 
}}
 short documentary Best Documentary Short.   
 Egmont Overture, performed by the Vienna Philharmonic Orchestra.   

==References==
 

==External links==
* 

 
 
 
 
 
 
 
 
 
 
 
 
 
 
 


 
 