Balidaan
{{Infobox film
| name           = Balidaan
| image          = 
| image_size     = 
| caption        = 
| director       = S.A Chandrasekar  
| producer       = 
| writer         =
| narrator       = 
| starring       = Saira Banu
| music          = 
| cinematography = 
| editing        = 
| distributor    = 
| released       = 1971
| runtime        = 
| country        = India Hindi
| budget         = 
| gross          = 
| preceded_by    = 
| followed_by    = 
| website        = 
}}
 1971 Bollywood drama film. The film stars Saira Banu.

==External links==
*  

 
 

 
 
 
 
 