Beyond Silence (1960 film)
{{Infobox film
| name           = Beyond Silence
| image          =
| caption        = Edmond Levy
| producer       =
| writer         =
| narrator       =
| starring       =
| music          =
| cinematography =
| editing        =
| distributor    =
| released       =  
| runtime        =
| country        = United States
| language       = English
| budget         =
}} short documentary Edmond Levy. Best Documentary Short.   

==References==
 

==External links==
*  

 
 
 
 
 
 
 


 