Cradle of Genius
{{Infobox film
| name           = Cradle of Genius
| image          = 
| caption        = 
| director       = Paul Rotha Tom Hayes Jim OConnor
| writer         = 
| narrator       = 
| music          = 
| cinematography = Wolfgang Suschitzky
| editing        = 
| distributor    = 
| released       =  
| runtime        = 25 minutes
| country        = Ireland 
| language       = English
| budget         = 
}} short documentary Best Documentary Short.   

==Cast==
* Eileen Crowe
* Maureen Delany
* Barry Fitzgerald
* Siobhan McKenna

==References==
 

==External links==
* 

 
 
 
 
 
 
 
 
 
 


 
 