The John Glenn Story
 
{{Infobox film
| name           = The John Glenn Story
| image          = 
| caption        = 
| director       = Michael R. Lawrence
| producer       = William L. Hendricks Julian Krainin
| writer         = 
| narrator       = 
| starring       = 
| music          = 
| cinematography = Julian Krainin
| editing        = John Caps Michael R. Lawrence
| distributor    = 
| released       =  
| runtime        = 45 minutes
| country        = United States 
| language       = English
| budget         = 
}}
 short documentary Best Documentary Short.   

==References==
 

==External links==
*  
*  

 
 
 
 
 
 
 
 
 


 
 