The Spirit of America
{{Infobox film
| name           = The Spirit of America
| image          = 
| caption        = 
| director       = 
| producer       = Algernon G. Walker
| writer         = 
| narrator       = 
| music          = 
| cinematography = Rexford L. Metz
| editing        = Marvin Walowitz
| distributor    = 
| released       =  
| runtime        = 
| country        = United States
| language       = English
| budget         = 
}} Best Documentary Short.   

==References==
 

==External links==
* 

 
 
 
 
 
 
 
 


 