A Space to Grow
{{Infobox film
| name           = A Space to Grow
| image          =
| image size     =
| caption        =
| director       =
| producer       = Thomas P. Kelly Jr.
| writer         =
| narrator       =Henry Fonda
| starring       =
| music          =
| cinematography =
| editing        =
| distributor    =
| released       =  
| runtime        =
| country        = United States
| language       = English
| budget         =
}}
 short documentary Best Documentary Short.   

==References==
 

==External links==
* 

 
 
 
 
 
 
 
 
 
 
 


 