The House That Ananda Built
 
{{Infobox film
| name           = The House That Ananda Built
| image          = 
| caption        = 
| director       = Fali Bilimoria
| producer       = Fali Bilimoria
| writer         = 
| starring       = 
| music          = 
| cinematography = 
| editing        = 
| distributor    = 
| released       =  
| runtime        = 
| country        = India 
| language       = English
| budget         = 
}}
 short documentary Best Documentary Short.      

==References==
 

==External links==
* 

 
 
 
 
 
 
 
 


 