Remember Me (1979 film)
{{Infobox film
| name           = Remember Me
| image          = 
| caption        = 
| director       =  Dick Young
| writer         = 
| narrator       = 
| starring       = 
| music          = 
| cinematography = 
| editing        = 
| distributor    = 
| released       =  
| runtime        = 
| country        = United States 
| language       = English
| budget         = 
}}
 short documentary Dick Young. Best Documentary Short.   

==References==
 

==External links==
* 

 
 
 
 
 
 


 