Four Stones for Kanemitsu
 
{{Infobox film
| name           = Four Stones for Kanemitsu
| image          = 
| caption        = 
| director       =
| producer       = June Wayne
| narrator       = 
| starring       = Matsumi Kanemitsu
| music          = 
| cinematography = Eric Daarstad and Terry Sanders
| editing        = Jax Cambas
| studio        =  Tamarind Institute
| released       = 1973
| runtime        = 28 minutes
| country        = United States 
| language       = English
| budget         = 
}}
 short documentary Best Documentary Short.   

==References==
 

==External links==
* 

 
 
 
 
 
 
 
 


 