Universe (1976 film)
{{Infobox film
| name           = Universe
| image          = 
| image size     = 
| caption        = 
| director       = Lester Novros
| producer       = Lester Novros
| writer         = Lester Novros
| narrator       = William Shatner
| starring       = 
| music          = Paul Novros
| cinematography = Ray Bloss James Connor
| editing        = David Elliott
| distributor    = 
| released       =  
| runtime        = 27 minutes
| country        = United States 
| language       = English
| budget         = 
}} short documentary Best Documentary Short.   

==References==
 

==External links==
* 

 
 
 
 
 
 
 
 