The Eruption of Mount St. Helens!
{{Infobox film
| name           = The Eruption of Mount St. Helens!
| image	         = The Eruption of Mount St. Helens! FilmPoster.jpeg
| caption        = DVD cover George Casey
| producer       = George Casey Ammiel G. Najar Paul Novros
| writer         = George Casey
| narrator       = Robert Foxworth
| starring       = 
| music          = 
| cinematography = James Neihouse
| editing        = 
| distributor    = 
| released       =  
| runtime        = 25 minutes
| country        = United States 
| language       = English
| budget         = 
}}
 short documentary George Casey. Best Documentary Short.     

==See also==
* List of American films of 1980
* 1980 eruption of Mount St. Helens

==References==
 

==External links==
* 

 
 
 
 
 
 
 
 
 
 
 