You Are Free (film)
 
{{Infobox film
| name           = You Are Free
| image          =
| caption        =
| director       = Dea Brokman Ilene Landis
| producer       = Dea Brokman Ilene Landis
| writer         =
| starring       =
| music          =
| cinematography =
| editing        =
| distributor    =
| released       =  
| runtime        = 20 minutes
| country        = West Germany
| language       = German
| budget         =
}}
 Best Documentary Short.      

==References==
 

==External links==
* 

 
 
 
 
 
 
 
 
 
 


 
 