Traveling Hopefully
 
{{Infobox film
| name           = Traveling Hopefully
| image          = 
| caption        = 
| director       = John G. Avildsen
| producer       = Steven Haft
| writer         = 
| starring       = 
| music          = 
| cinematography = 
| editing        = 
| distributor    = 
| released       =  
| runtime        = 29 minutes
| country        = United States 
| language       = English
| budget         = 
}}
 short documentary Best Documentary Short.   

==References==
 

==External links==
* 

 

 
 
 
 
 
 
 
 
 


 