Journey into Life: The World of the Unborn
 
{{Infobox film
| name           = Journey into Life: The World of the Unborn
| image          = 
| image_size     = 
| caption        = 
| director       = Derek Bromhall
| producer       = 
| writer         = 
| narrator       = 
| starring       = 
| music          = 
| cinematography = 
| editing        = 
| distributor    = 
| released       =  
| runtime        = 25 minutes
| country        = United States 
| language       = English
| budget         = 
}}
 short documentary Best Documentary Short.   

==References==
 

==External links==
* 

 
 
 
 
 
 
 
 


 
 