Burning Down Tomorrow
 
{{Infobox film
| name           = Burning Down Tomorrow
| image          =
| caption        =
| director       = Kit Thomas
| producer       = Kit Thomas
| writer         = Neal Rogin, others
| narrator       =
| starring       =
| music          = Oscar Castro-Neves
| cinematography =
| editing        =
| distributor    =
| released       =  
| runtime        =
| country        = United States
| language       = English
| budget         =
}}
 short documentary Best Documentary Short.   

==References==
 

==External links==
* 

 
 
 
 
 
 
 


 