Curtain Call (2000 film)
{{Infobox film
| name           = Curtain Call
| image          = 
| caption        = 
| director       = Charles Braverman
| producer       = Charles Braverman Peter LeDonne
| writer         = 
| narrator       = 
| starring       = 
| music          = 
| cinematography = 
| editing        = Simeon Hutner
| distributor    = 
| released       =  
| runtime        = 
| country        = United States 
| language       = English
| budget         = 
}}
 short documentary Best Documentary Short.   

==References==
 

==External links==
* 

 
 
 
 
 
 
 
 
 
 


 
 