Memsaab (film)
{{Infobox film
| name           = Memsaab
| image          = Memsaab.jpg
| image_size     =
| caption        = 
| director       = Atma Ram
| producer       = 
| writer         =
| narrator       = 
| starring       = Vinod Khanna and Yogeeta Bali
| music          = 
| cinematography = 
| editing        = 
| distributor    = 
| released       = 1971
| runtime        = 
| country        = India Hindi
| budget         = 
| gross          = 
| preceded_by    = 
| followed_by    = 
| website        = 
}}
 1971 Bollywood drama film directed by Atma Ram. The film stars Vinod Khanna and Yogeeta Bali.

==Cast==
*Yogeeta Bali ...  Kiran 
*Vinod Khanna ...  Arjun  Johnny Walker ...  Ramkhilavan  Bindu   
*Jayshree T.   
*G. Asrani   
*Abhi Bhattacharya   
*Tarun Bose   
*Rajan Haksar   
*Hercules   
*Naval Kumar   
*Mac Mohan   
*Aashoo Mrdula    Rajan   
*Jagdish Raj   
*Shakoor 

==External links==
*  

 
 

 
 
 
 