Double Cross (2005 film)
{{Infobox film
| name           = Double Dog
| image          = Nigar_Khan_in_Double_Cross.JPG
| image_size     =
| caption        = Theatrical release poster
| director       =
| producer       =
| writer         =
| starring       = Negar Khan Sahil Khan
| music          =
| country        = India
| released       = 12 July 2005
| language       = Hindi
| preceded_by    =
| followed_by    =
}}

Double Cross: Ek Dhoka is a 2005 Bollywood film starring Negar Khan and Sahil Khan, her ex-husband. Negar Khan plays the role of the wife who is the bread-winner of the family. Ayesha Jhulka is Sonia, who coerces her husband to be a gigolo. 

==References==
 

==External links==
*  
*  

 
 
 
 


 