Doraemon: The Record of Nobita's Parallel Visit to the West
{{Infobox film
| name           = The Record of Nobitas Parallel Visit to the West
| image          = Nobitas parallel "Journey to the West".jpg
| caption        =
| director       = Tsutomu Shibayama
| producer       =
| writer         =
| narrator       =
| starring       = Nobuyo Ōyama Noriko Ohara
| music          =
| cinematography =
| editing        =
| studio         = Asatsu
| distributor    = Toho Company
| released       =  
| runtime        = 90 minutes
| country        = Japan
| language       = Japanese
| budget         =
| gross          = ¥1.36 billion  ($12.1 million)
}}
  is a feature-length Doraemon film which premiered on March 12, 1988. It is loosely based on the novel Journey to the West.

== Cast of Characters ==
* Nobuyo Ōyama - Doraemon
* Noriko Ohara - Nobita Nobi
* Michiko Nomura - Shizuka Minamoto
* Kaneta Kimotsuki - Suneo Honekawa
* Kazuya Tatekabe - Jian

==References==
 

== External links ==
*    
*  

 
 
 

 
 
 
 
 
 
 
 
 


 