Todo es mentira
{{Infobox film
| name           = Todo es mentira
| image          = Todo es mentira.jpg
| image_size     = 
| border         = 
| alt            = 
| caption        = Theatrical release poster
| director       = Álvaro Fernández Armero
| producer       = 
| writer         = 
| screenplay     = Álvaro Fernández Armero
| story          = 
| based on       =  
| narrator       = 
| starring       = Penélope Cruz   Coque Malla   Jordi Mollà
| music          = 
| cinematography = Antonio Cuevas
| editing        = 
| studio         = 
| distributor    = Atrium Productions 1994
| runtime        = 99 min
| country        = Spain Spanish
| budget         = 
| gross          = 
}} Spanish comedy film written and directed by Álvaro Fernández Armero and starring Penélope Cruz, Coque Malla and Jordi Mollà.  It is the first in a series of two films with"El Juego de la Verdad"(Truth or Dare) being the last film. Both  movies explore the complexities of relationships which include compromise and the unvarnished truth.

==References==
 

== External links ==
*  

 
 
 
 
 


 
 