Salaam Memsaab
{{Infobox film
| name           = Salaam Memsaab
| image          = Salaam Memsaab.jpg
| image_size     = 
| caption        = 
| director       = G. Asrani
| producer       = 
| writer         =
| narrator       = 
| starring       =
| music          = R.D.Burman
| cinematography = 
| editing        = 
| distributor    = 
| released       = 1979
| runtime        = 
| country        = India Hindi
| budget         = 
| gross          = 
| preceded_by    = 
| followed_by    = 
| website        = 
}}
 1979 Bollywood comedy-drama film directed by G. Asrani. 

==Cast==
*Tom Alter ...  John 
*G. Asrani ...  Sunder 
*Yogeeta Bali ...  Sunita Sarit 
*C.S. Dubey   
*Sunil Dutt ...  Naresh Sarit 
*Rishi Kapoor ...  Ramesh 
*Leela Mishra ...  Mausiji 
*Keshto Mukherjee ...  James 
*Ranjeet ...  Gopal 
*Arvind Rathod    Rehman ...  Mehra 
*Dalip Tahil ...  Arab smuggler 
*Zarina Wahab ...  Radha

==External links==
*  

 
 
 
 