Hamrahi
{{Infobox film
| name           = Hamrahi
| image          = 
| image_size     = 
| caption        = 
| director       = Anand Sagar
| producer       = 
| writer         =
| narrator       = 
| starring       =Randhir Kapoor
| music          = 
| cinematography = 
| editing        = 
| distributor    = 
| released       = 1974
| runtime        = 
| country        = India Hindi
| budget         = 
| gross          = 
| preceded_by    = 
| followed_by    = 
| website        = 
}}
 1974 Bollywood drama film directed by Anand Sagar 

==Cast==
*Randhir Kapoor   
*Tanuja   
*Gajanan Jagirdar  
*Sujit Kumar   
*Lalita Pawar   
*Keshto Mukherjee 

==External links==
*  

 
 
 
 

 
 