Angaare
{{Infobox film
| name           = Angaare
| image          = 
| image_size     = 
| caption        = 
| director       = 
| producer       = 
| writer         =
| narrator       = 
| starring       =
| music          = 
| cinematography = 
| editing        = 
| distributor    = 
| released       =  
| runtime        = 
| country        = India
| language       = Hindi
| budget         = 
| gross          = 
| preceded_by    = 
| followed_by    = 
}}
Angaare is a 1977 Bollywood film . The film stars Sanjeev Kumar.

==External links==
*  

 
 
 

 