Azad Mohabbat
{{Infobox film
| name           = Azad Mohabbat
| image          = 
| image_size     = 
| caption        = 
| director       = Batra Kaushalraj
| producer       = 
| writer         =Asad Bhopali 
| narrator       = 
| starring       =Yogeeta Bali and Kiran Kumar
| music          = 
| cinematography = 
| editing        = 
| distributor    = 
| released       = 1974
| runtime        = 
| country        = India Hindi
| budget         = 
| gross          = 
| preceded_by    = 
| followed_by    = 
| website        = 
}}
 1974 Bollywood drama film directed by Batra Kaushalraj. The film stars Yogeeta Bali and Kiran Kumar. 

==External links==
*  

 
 
 
 
 

 
 