Nafrat
{{Infobox film
| name           = Nafrat
| image          = Nafrat.jpg
| image_size     = 
| caption        = 
| director       = Shyam Ralhan
| producer       = Kailash Chopra
| writer         = 
| narrator       =  Bindu
| music          = Rahul Dev Burman
| cinematography = 
| editing        = 
| studio         = 
| distributor    = 
| released       = 
| runtime        = Approx. 114 minutes
| country        = India
| language       = Hindi
| budget         = 
| gross          = 
| preceded_by    = 
| followed_by    = 
| website        = 
}}
Nafrat is a 1973 Bollywood romance film directed by Shyam Ralhan . The film stars Rakesh Roshan and Yogeeta Bali.

==Cast==
*Rakesh Roshan ...  Prakash Kumar 
*Yogeeta Bali ...  Kiran 
*Prem Chopra ...  Ramesh / Mohan  Bindu ...  Ashoo Kumar 
*Prem Nath...  CBI Inspector Kumar 
*Faryal ...  Dolly 
*Rajendra Nath ...  Pyarelal 
*Madan Puri   
*Amrit Patel   
*Krishan Dhawan   
*Chandrashekhar ...  Shekhar 
*Bharat Kapoor ...  Kishan  Sunder ...  Sunder Sharma 
*Yunus Parvez   
*Raju Shrestha ...  Young Prakash (as Master Raju)

==External links==
*  
*  

 
 
 
 


 
 