Ganga Bhavani
{{Infobox film
| name           = Ganga Bhavani
| image          = 
| image_size     = 
| caption        = 
| director       = T. Prakash Rao
| producer       = 
| writer         =
| narrator       = 
| starring       =
| music          = 
| cinematography = 
| editing        = 
| distributor    = 
| released       = 1979
| runtime        = 
| country        = India Hindi
| budget         = 
| gross          = 
| preceded_by    = 
| followed_by    = 
| website        = 
}}
 1979 Bollywood film directed by T. Prakash Rao and starring Gummadi Venkateswara Rao|Gummadi. 

==External links==
*  

 
 
 
 