Balak Dhruv
{{Infobox film
| name           = Balak Dhruv
| image          = Balak Dhruv.jpg
| image_size     = 
| caption        = 
| director       = Himmat Dave
| producer       = 
| writer         =
| narrator       = 
| starring       =
| music          = 
| cinematography = 
| editing        = 
| distributor    = 
| released       = 1974
| runtime        = 
| country        = India Hindi
| budget         = 
| gross          = 
| preceded_by    = 
| followed_by    = 
| website        = 
}}
 1974 Bollywood drama film directed by Himmat Dave. 

==Cast== Master Satyajeet .... Bhakta Dhruv
*Jayshree Gadkar   
*Jeevan
*Master Alankar    Mahipal
*Bhagwan   
*Abhi Bhattacharya  
*S.N. Tripathi

==External links==
*  

 
 
 
 
 

 
 