Saawan Ke Geet
{{Infobox film
| name           = Saawan Ke Geet
| image          = Sawan Ke Geet.jpg
| image_size     = 
| caption        = 
| director       = R. Bhattacharya
| producer       = 
| writer         =
| narrator       = 
| starring       =
| music          = 
| cinematography = 
| editing        = 
| distributor    = 
| released       = 1978
| runtime        = 
| country        = India Hindi
| budget         = 
| gross          = 
| preceded_by    = 
| followed_by    = 
| website        = 
}}
 1978 Bollywood drama film directed by R. Bhattacharya.

==Cast==
*Sanjeev Kumar   
*Rekha   
*Amjad Khan   
*Aruna Irani   
*Satyendra Kapoor   
*Jagdeep    Mehmood   
*Joginder Shelly 

==External links==
*  

 
 
 
 
 
 