Gopal Krishna
 
{{Infobox film
| name           = Gopal Krishna
| image          = Gopal Krishna.jpg
| image_size     = 
| caption        = 
| director       = Vijay Sharma
| producer       = 
| writer         =
| narrator       = 
| starring       =
| music          = 
| cinematography = 
| editing        = 
| distributor    = 
| released       = 1979
| runtime        = 
| country        = India Hindi
| budget         = 
| gross          = 
| preceded_by    = 
| followed_by    = 
| website        = 
}}
 1979 Bollywood fantasy film directed by Vijay Sharma.

==Cast== Sachin ...  Krishna - Adult 
*Zarina Wahab ...  Radha  Satyajeet ...  Balraam
*Manher Desai ...  Maharaj Kans 
*Master Sandeep ...  Krishna - Child 
*Rita Bhaduri ...  Yashoda 
*Jeevan ...  Narad Muni 
*Mahipal ...  Bhagwan Vishnu 
*Paintal
* Surender Sharma....Nanda -Krishnas Foster Father

==External links==
*  

 
 
 
 
 
 