Jai Dwarkadheesh
{{Infobox film
| name           = Jai Dwarkadheesh
| image          = 
| image_size     = 
| caption        = 
| director       = Sushil Gupta
| producer       = 
| writer         =
| narrator       = 
| starring       =
| music          = 
| cinematography = 
| editing        = 
| distributor    = 
| released       = 1977
| runtime        = 
| country        = India Hindi
| budget         = 
| gross          = 
| preceded_by    = 
| followed_by    = 
| website        = 
}}

Jai Dwarkadheesh is a 1977 Bollywood film directed by Sushil Gupta. 

==Cast==
*Ramesh Deo ...  Shatdhanwa 
*Manher Desai ...  Balram 
*Anita Guha ...  Revati 
*Hercules ...  Hanuman (archive footage) 
*Kanan Kaushal ...  Devi Satyabama / Chandrasena 
*Ashish Kumar ...  Lord Krishna (as Asis Kumar) 
*Moolchand ...  Dwarpal 
*Polson ...  Dwarpal 
*Radha Saluja ...  Devi Rukmani 
*Jayshree T. ...  Jamvanti 
*B.M. Vyas ...  Kritavarma 

==External links==
*  

 
 
 
 