Do Aankhen
{{Infobox film
| name           = Do Aankhen
| image          = 
| image_size     = 
| caption        = 
| director       = Ajoy Biswas
| producer       = 
| writer         =
| narrator       = 
| starring       =Rekha
| music          = 
| cinematography = 
| editing        = 
| distributor    = 
| released       = 1974
| runtime        = 
| country        = India Hindi
| budget         = 
| gross          = 
| preceded_by    = 
| followed_by    = 
| website        = 
}}
 1974 Bollywood drama film directed by Ajoy Biswas. The film stars Rekha.

==Cast==
*Rekha   
*Biswajeet   
*Deb Mukherjee   
*Kumari Naaz   
*Jankidas   
*I. S. Johar   
*Ashok Kumar

==External links==
*  

 
 
 
 


 
 