Damaad
{{Infobox film
| name           = Damaad
| image          =Damaad.jpg 
| image_size     =
| caption        = 
| director       = Rajat Rakshit
| producer       = Pari A V Mohan Anand Bhosle
| writer         =
| narrator       = 
| starring       =
| music          = 
| cinematography = 
| editing        = 
| distributor    = 
| released       = 1978
| runtime        = 
| country        = India Hindi
| budget         = 
| gross          = 
| preceded_by    = 
| followed_by    = 
| website        = 
}}
 1978 Bollywood film directed by Rajat Rakshit. It is a comedy. 

==Cast==
*Amol Palekar   
*Ranjeeta Kaur   
*Shreeram Lagoo   
*Keshto Mukherjee   
*Preeti Ganguli   
*Pinchoo Kapoor   
*Ashok Saraf

==External links==
*  

 
 
 
 