Lal Kothi
{{Infobox film
| name           = Lalkuthi
| image          = 
| image_size     = 
| caption        = 
| director       = Kanak Mukherjee
| producer       = 
| writer         =
| narrator       = 
| starring       =
| music          = 
| cinematography = 
| editing        = 
| distributor    = 
| released       = 1978
| runtime        = 
| country        = India Bengali
| budget         = 
| gross          = 
| preceded_by    = 
| followed_by    = 
| website        = 
}}
 1978 Bollywood thriller film directed by Kanak Mukherjee.

The Original Music was by Sapan Jagmohan. 	 	

==Cast==
*Danny Denzongpa   
*Anil Dhawan   
*Utpal Dutt   
*Ranjit Mullik   
*Joyojeet Pal   
*Tanuja

==References==
 

==External links==
*  

 
 
 


 