Chambal Ki Raani
{{Infobox film
| name           = Chambal Ki Raani
| image          = Chambal Ki Rani.jpg
| image_size     = 
| caption        = 
| director       = Radhakant
| producer       = 
| writer         =
| narrator       = 
| starring       =Mahendra Sandhu and Dara Singh 
| music          = 
| cinematography = 
| editing        = 
| distributor    = 
| released       = 1979
| runtime        = 
| country        = India Hindi
| budget         = 
| gross          = 
| preceded_by    = 
| followed_by    = 
| website        = 
}}
 1979 Bollywood action film directed by Radhakant. The film stars Mahendra Sandhu and Dara Singh .

==Cast==
*Mahendra Sandhu   
*Dara Singh   
*Chand Usmani   
*Amjad Khan    Bindu   
*Kamal Kapoor   
*Urmila Bhatt   
*Narendra Nath   
*Jagdeep

==External links==
*  

 
 
 
 
 


 
 