Ram Bharose
{{Infobox film
| name           = Ram Bharose
| image          = 
| image_size     = 
| caption        = 
| director       = Anand Sagar
| producer       = 
| writer         =
| narrator       = 
| starring       =Nazir Hussain Randhir Kapoor
| music          = 
| cinematography = 
| editing        = 
| distributor    = 
| released       = 1977
| runtime        = 
| country        = India Hindi
| budget         = 
| gross          = 
| preceded_by    = 
| followed_by    = 
| website        = 
}}
 1977 Bollywood comedy film directed by Anand Sagar.

==Cast==
*Randhir Kapoor ...  Rampratap
*Rekha ...  Kiran
*Amjad Khan ...  Bhanupratap
*Dara Singh ...  Sardar Vikram Singh
*Keshto Mukherjee
*Kanan Kaushal
*Madan Puri...  The boss
*Nazir Hussain ...  Ratanchand (as Nazir Hussain)
*Sujit Kumar
*Raza Murad
*Tom Alter ...  Tom
*Sailesh Kumar
*Jagirdar  (as Jagirdir)
*Jagdish Raj
*Chaman Puri

==External links==
*  

 
 
 
 


 
 