Freelance Samurai
{{Infobox Film
| name           = Freelance Samurai
| image          =
| caption        = Japanese movie poster
| director       = Kenji Misumi
| producer       = 
| writer         = Fuji Yahiro
| starring       = 
| music          = 
| cinematography = 
| editing        = 
| distributor    = Daiei Film 1957 
| runtime        = 87 minutes
| country        = Japan
| awards         = 
| language       = Japanese
| budget         = 
| preceded_by    = 
| followed_by    = 
| 
}} Japanese film directed by Kenji Misumi.

== Cast ==
* Ichikawa Raizō VIII as Momotarō aka Shinnosuke Wakagi
* Yoko Uraji as Yuri
* Seizaburo Kawazu as Hankuro Iga
* Michiyo Kogure as Kosuzu Hanabusa
* Shunji Sakai as Inosuke

== References ==
 

== External links ==
*   http://www.raizofan.net/link4/movie2/momo.htm
*  

 

 
 
 
 


 