Puberun
{{Infobox Film
| name           = Puberun
| image          = 
| image_size     = 
| caption        = 
| director       = Prabhat Mukherjee
| producer       = 
| writer         = 
| narrator       = 
| starring       = Gyanada Kakoti   Tassaduck Yusuf   Margaret Anderson
| music          =  Tarikuddin Ahmed
| cinematography = 
| editing        = 
| distributor    = 
| released       = 1959
| runtime        = 
| country        = India
| language       = Assamese
}}

Puberun is an Assamese language film directed by Prabhat Mukherjee of Kolkata and released in 1959.

==Awards== National Film Awards (India) 1959 – National Film Award for Best Feature Film in Assamese|Presidents Silver Medal for Best Feature Film in Assamese   

==See also==
*Jollywood

==References==
 

==External links==
* 
* 

 
 
 
 


 