A Girl Isn't Allowed to Love
{{Infobox film
| name           = A Girl Isn&#39;t Allowed to Love
| image          = Bara ikutabika poster.jpg
| caption        = Japanese movie poster
| director       = Teinosuke Kinugasa
| producer       =
| writer         = Teinosuke Kinugasa Jun Sagara
| starring       =
| music          =
| cinematography =
| editing        =
| studio         = Daiei Film
| distributor    =
| released       =  
| runtime        = 135 minutes
| country        = Japan
| awards         =
| language       = Japanese
| budget         =
}}
 Japanese film directed by Teinosuke Kinugasa.

== Cast ==
* Kazuo Hasegawa
* Ayako Wakao
* Raizo Ichikawa as Sofu Yamamura

== References ==
 

== External links ==
*  
*  
* http://www.raizofan.net/eng/emovie1/emovie9.htm

 

 
 
 
 
 
 


 