Shūu
{{Infobox film
| name           = Shūu
| image          = Shuu poster.jpg
| caption        = Japanese movie poster
| director       = Mikio Naruse
| producer       = Sanezumi Fujimoto Keikichi Kakeshita
| writer         =
| starring       =
| music          = Ichirō Saitō
| cinematography = Masao Tamai
| editing        =
| distributor    = Toho
| studio         = Toho
| released       =  
| runtime        = 91 min.
| country        = Japan
| awards         = Japanese
| budget         =
}} Japanese film directed by Mikio Naruse.

== Cast ==
* Setsuko Hara as Fumiko
* Shūji Sano as Ryōtarō
* Kyōko Kagawa as Ayako
* Keiju Kobayashi
* Akemi Negishi
* Chieko Nakakita

== References ==
 

== External links ==
*  

 
 
 
 
 
 
 
 

 

 