Mōjū Tsukai no Shōjo
 
{{Infobox Film
| name           = Mōjū Tsukai no Shōjo
| image          = 
| caption        = Japanese movie poster
| director       = Kozo Saeki
| producer       = 
| writer         = Toshirō Ide Umetsugu Inoue
| starring       = 
| music          = 
| cinematography = Tomohiro Akino
| editing        = 
| studio         = Daiei Film
| distributor    =  1952 
| runtime        = ? min.
| country        = Japan
| awards         =  Japanese
| budget         = 
| preceded_by    = 
| followed_by    = 
| 
}} Japanese film directed by Kōzō Saeki.

== Overview ==
Chiemi Eri sings in the film.

  had the leading role in the film.]]

== Cast ==
* Chiemi Eri
* Jun Negami
* Kazuko Fushimi
* Jōji Oka
* Minoru Chiaki
* Ayako Wakao

==See also==
* List of films in the public domain

== References ==
 

== External links ==
*  

 
 
 
 
 
 


 