The Monster (1954 film)
{{Infobox film
| name           = The Monster
| image          = 
| caption        = 
| director       = Salah Abu Seif
| producer       = 
| writer         = Salah Abu Seif El Sayed Bedeir Naguib Mahfouz
| starring       = Mahmoud El-Meliguy
| music          = 
| cinematography = Abdelhalim Nasr
| editing        = 
| distributor    = 
| released       = 1954
| runtime        = 115 minutes
| country        = Egypt
| language       = Arabic
| budget         = 
}}

The Monster ( ,  ) is a 1954 Egyptian crime film directed by Salah Abouseif. It was entered into the 1954 Cannes Film Festival.   

==Cast==
* Anwar Wagdi
* Mahmoud El-Meliguy as Ell Wahsh
* Samia Gamal
* Abbas Fares

==References==
 

==External links==
* 

 
 
 
 
 
 
 


 
 