Seven Years in Tibet (1956 film)
 
{{Infobox film
| name           = Seven Years in Tibet
| image          = 
| caption        = 
| director       = Hans Nieter
| producer       = Hans Nieter Walter Ulbrich
| writer         = Heinrich Harrer Walter Ulbrich
| narrator       = Heinrich Harrer
| starring       = 
| music          = 
| cinematography = Basil Gould Heinrich Harrer Peter Hennessy
| editing        = Michael Orrom
| distributor    = 
| released       =  
| runtime        = 79 minutes
| country        = United Kingdom
| language       = English
| budget         = 
}}
 same name. It was entered into the 1956 Cannes Film Festival.   

==References==
 

==External links==
* 

 
 
 
 
 
 

 
 