Odoru ryū kyūjō
{{Infobox Film
| name           = Odoru ryū kyūjō
| image          = Odoru ryu kyujo poster.jpg
| caption        = Japanese movie poster
| director       = Yasushi Sasaki
| producer       = Shochiku
| writer         = Juntarō Hozumi (story) Yoshiro Tsuji (screenplay)
| starring       = 
| music          = Takaaki Asai Tadashi Manjome Yoshi Tashiro
| cinematography = 
| editing        = 
| distributor    =  1949 
| runtime        = ? min.
| country        = Japan
| awards         =  Japanese
| budget         = 
| preceded_by    = 
| followed_by    = 
| 
}} Japanese film directed by Yasushi Sasaki.

== Cast ==
* Hibari Misora Masuda Takashi
* and others

== References ==
 

== External links ==
*  

 
 
 
 
 
 


 