Sakon torimonochō: senketsu no tegata
{{Infobox film
| name           = Sakon torimonochō: senketsu no tegata
| image          = Sakon torimonocho senketsu no tegata poster.jpg
| caption        = Japanese movie poster
| director       = Kenkichi Hara
| producer       = Shochiku
| writer         =
| starring       =
| music          =
| cinematography =
| editing        =
| distributor    = 1950 
| runtime        = 91 min.
| country        = Japan
| awards         = Japanese
| budget         =
| preceded_by    =
| followed_by    =
| imdb_id        =  
|
}} Japanese film directed by 原研吉.

==Cast==
* Kodayū Ichikawa (市川小太夫)
* Hibari Misora
* and others

==References==
 

==External links==

 
 
 
 
 
 


 