B420
 
 
{{Infobox film
| name           = B420
| image          = 
| alt            = 
| caption        = 
| director       = Matthew Tang
| producer       = Philip Lee
| writer         = Matthew Tang Sam Lee
| music          = 
| cinematography = 
| editing        = 
| studio         = 
| distributor    = 
| released       =  
| runtime        = 85 minutes
| country        = Hong Kong
| language       = Cantonese
| budget         = 
| gross          = 
}} set in Macau. 

==Cast==
* Ben Hung - Simon Sam Lee - Willy
* Miki Yeung - Koey
* Zeni Wong

 

==References==
 

==External links==
*  
*  

 
 
 


 