Bawa Duka
{{Infobox film
| name           = Bawa Duka
| image          = 
| image_size     = 
| caption        = 
| director       = Dharmasiri Bandaranayake
| producer       = 
| writer         = 
| narrator       = 
| starring       =
| music          = 
| cinematography = 
| editing        = 
| distributor    = 
| released       = 1997
| runtime        = 
| country        = Sri Lanka Sinhala
| budget         = 
| gross          = 
| preceded_by    = 
| followed_by    = 
}}
 1997 Sri Lankan drama film directed by Dharmasiri Bandaranayake.

==Cast==
*Jackson Anthony ... Peduru 
*W. Jayasiri   
*Hemasiri Liyanage ... Nona Hamis father 
*Swarna Mallawarachchi ... Nona Hami 
*Ravindra Randeniya ... Muhandiram 
*Somy Ratnayake ... Arachchi 
*Lalitha Sarachchandra ... Nona Hamis mother 
*Suwinitha Weerasinghe ... Arachchi hamine

==External links==
*  

 
 
 
 


 