Ataweni Pudumaya
{{Infobox film
| name           = Ataweni Pudumaya
| image          =
| image size     =
| caption        =
| director       = S. Mastan
| producer       =
| writer         =S. Mastan
| narrator       =
| starring       =
| music          =
| cinematography =
| editing        =
| distributor    =
| released       = 1968
| runtime        =
| country        = Sri Lanka Sinhala
| budget         =
| gross          =
| preceded by    =
| followed by    =
}}
 1968 Sri Lankan film directed by S. Mastan.

==Cast==
*Joe Abeywickrama
*Clarice de Silva
*Sandhya Kumari
*Shanthi Lekha
*D.R. Nanayakkara
*Senadeera Rupasinghe

==External links==
*  

 
 
 


 