Last Night (1964 film)
 
{{Infobox film
| name           = Last Night
| image          = 
| caption        = 
| director       = Kamal El Sheikh
| producer       = Gamal Ellythi
| writer         = Youssef El Sebai
| starring       = Faten Hamama
| music          = 
| cinematography = Abdelhalim Nasr
| editing        = 
| distributor    = 
| released       =  
| runtime        = 
| country        = Egypt
| language       = Arabic
| budget         = 
}}

Last Night ( , Transliteration|translit.&nbsp;Al-Laylah al-Akheera) is a 1964 Egyptian mystery film directed by Kamal El Sheikh. It was entered into the 1964 Cannes Film Festival.     

==Cast==
* Faten Hamama - Nadia and her sister Fawzya
* Ahmed Mazhar - Dr. Ahmed
* Mahmoud Moursy - Shoukry
* Madiha Salem - Daughter of Nadia
* Abdel Khalek Saleh

==References==
 

==External links==
* 

 
 
 
 
 
 

 
 