Sick Animals
{{Infobox film
| name           = Sick Animals
| image          = 
| image_size     = 
| caption        = 
| director       = Nicolae Breban
| producer       = 
| writer         = Nicolae Breban
| starring       = Mircea Albulescu
| music          = 
| cinematography = Aurel Kostrachievici
| editing        = 
| distributor    = 
| released       = 1970
| runtime        = 
| country        = Romania
| language       = Romanian
| budget         = 
}}

Sick Animals ( ) is a 1970 Romanian film directed by Nicolae Breban. It was entered into the 1971 Cannes Film Festival.   

==Cast==
* Mircea Albulescu
* Ion Dichiseanu
* Emilia Dobrin
* Dan Nutu

==References==
 

==External links==
* 

 
 
 
 
 