Lady Marion's Summer Flirtation
 
{{Infobox film
| name           = Lady Marions Summer Flirtation
| image          =
| caption        =
| director       = Victor Sjöström
| producer       =
| writer         = Algot Sandberg
| starring       = Hilda Borgström
| cinematography = Julius Jaenzon
| editing        =
| distributor    =
| released       =  
| runtime        = 18 minutes
| country        = Sweden Silent Swedish intertitles
| budget         =
}}
 silent drama film directed by Victor Sjöström.   

==Cast==
* Hilda Borgström as Lady Marion Victor Lundberg as Viktor
* Richard Lund as Lord Handsome
* Axel Ringvall as Axel Pärzon

==References==
 

==External links==
* 
* 

 

 
 
 
 
 
 
 
 
 
 


 
 