Daughter of the Peaks
 
{{Infobox film
| name           = Daughter of the Peaks
| image          = 
| caption        = 
| director       = Victor Sjöström
| producer       = 
| writer         = 
| starring       = Greta Almroth
| music          = 
| cinematography = Henrik Jaenzon
| editing        = 
| distributor    = 
| released       =  
| runtime        = 32 minutes
| country        = Sweden Silent Swedish intertitles
| budget         = 
}}
 silent drama film directed by Victor Sjöström.   

==Cast==
* Greta Almroth as Waina
* Lili Bech as Nurse
* John Ekman as Nordman
* Arvid Englind as Werners Friend
* William Larsson as Werners Friend
* Victor Sjöström as Doctor Karl Werner
* Jenny Tschernichin-Larsson as Weners Mother

==References==
 

==External links==
* 
* 

 

 
 
 
 
 
 
 
 
 
 
 


 
 