De Familie van mijn Vrouw
 
{{Infobox film
| name           = De Familie van mijn Vrouw
| image          = 
| image_size     = 
| caption        = 
| director       = Jaap Speyer
| producer       = 
| writer         = A. Duprez (play), Cor Hermus (writer)
| narrator       = 
| starring       = 
| music          =   
| cinematography = 
| editing        = 
| distributor    = 
| released       = 22 February 1935
| runtime        = 93 minutes
| country        = Netherlands Dutch
| budget         = 
}} 1935 Netherlands|Dutch comedy film directed by Jaap Speyer. 

==Cast==
*Johan Kaart	... 	Dr. Nix
*Sylvain Poons	... 	Josef Goedhart
*Gusta Chrispijn-Mulder	... 	Arabella
*Mary Smithuysen	... 	Peggie
*Loesje Bouwmeester	... 	Fietje
*Adolphe Hamburger	... 	Max
*Cruys Voorbergh	... 	Wim
*Cissy Van Bennekom	... 	Mientje
*Tilly Perin-Bouwmeester	... 	Dolly de Raadt
*Clara Vischer-Blaaser		(as Clara Vischer)
*Nico De Jong		
*Jan Blok		
*A. Burgerdorffer		(as Anton Burgerdoffer)
*Jan van Dommelen		
*Lena Kemler	
== External links ==
*  

 
 
 
 
 
 
 

 
 