Luchtkastelen
 
{{Infobox film
| name           = Luchtkastelen
| image          = 
| image_size     = 
| caption        = 
| director       = Louis H. Chrispijn
| producer       = 
| writer         = 
| narrator       = 
| starring       = 
| music          =   
| cinematography = 
| editing        = 
| distributor    = 
| released       = September 14, 1914
| runtime        = 60 minutes
| country        = Netherlands
| language       = Silent
| budget         = 
| amg_id         = 
}} 1914 Netherlands|Dutch silent drama film directed by Louis H. Chrispijn.

==Cast==
*Willem van der Veer	... 	Jack
*Annie Bos	... 	Alice Stanton
*Jan van Dommelen	... 	Visser / Fisherman
*Theo Frenkel		
*Eugenie Krix	... 	Mevrouw Stanton / Mrs. Stanton
*Koba Kinsbergen		
*Alex Benno		
*Fred Homann	... 	Visser / Fisherman

== External links ==
*  

 
 
 
 
 
 


 