Blonde Dolly (film)
 

{{Infobox film
| name           = Blonde Dolly 
| image          = 
| image_size     = 
| caption        = 
| director       = Gerrit van Elst
| producer       = 
| writer         = Alma Popeyus, Hein Schütz 
| narrator       = 
| starring       = 
| music          =   
| cinematography = 
| editing        = 
| distributor    = 
| released       = 19 February, 1987 
| runtime        =102  minutes
| country        = Netherlands Dutch
| budget         = 
}} 1987 Netherlands|Dutch drama film about a prostitute who co-finances the purchase of a Vermeer painting, directed by Gerrit van Elst. 

==Cast==
*Hilde Van Mieghem	... 	Dolly / Sylvia / Kitty
*Peter Tuinman	... 	Eddy Cremer
*Fred Vaassen	... 	Vaclav
*Adrian Brine	... 	Baron Tuft
*Piet Kamerman	... 	Debrie
*Herbert Flack	... 	Ambassadeur
*Wilbert Gieske	... 	Karel
*Priscilla Visser	... 	Anita
*Con Meyer	... 	Adje
*Celia Nufaar	... 	Moeder
*Suzanne Colin	... 	Galeriehoudster Steve Field	... 	Fietser
*Laus Steenbeke	... 	Jongen met mes

== External links ==
*  

 

 
 
 