Vrouwenoogen
 
{{Infobox film
| name           = Vrouwenoogen
| image          = 
| image_size     = 
| caption        = 
| director       = Caroline van Dommelen
| producer       = 
| writer         = 
| narrator       = 
| starring       = 
| music          =   
| cinematography = 
| editing        = 
| distributor    = 
| released       = March 18, 1912
| runtime        =  
| country        = Netherlands
| language       =Silent
| budget         = 
| amg_id         = 
}} 1912 Netherlands|Dutch silent drama film directed by Caroline van Dommelen.

==Cast==
*Caroline van Dommelen		
*Louis van Dommelen		
*Jan van Dommelen		
*Ansje van Dommelen-Kapper		
*Cato Mertens-de Jaeger

== External links ==
*  

 
 
 
 
 
 


 