Bezeten, Het Gat in de Muur
 
{{Infobox film
| name           = Bezeten, Het Gat in de Muur
| image          = 
| image_size     = 
| caption        = 
| director       = Pim de la Parra
| producer       = Dieter Geissler
| writer         = Martin Scorsese, Wim Verstappen 
| narrator       = 
| starring       = 
| music          =  Bernard Herman 
| cinematography = 
| editing        = 
| distributor    = Scorpio Films-producties
| released       = 15 August 1969 (West Germany), 9 October 1969 (Netherlands)
| runtime        = 91 minutes
| country        = Netherlands Dutch
| budget         = 
}} 1969 Netherlands|Dutch Donald Jones.

== External links ==
*  

 
 
 
 

 
 