Kees, de zoon van de Stroper
 
{{Infobox film
| name           = Kees, de zoon van de Stroper
| image          = 
| image_size     = 
| caption        = 
| director       = Ernst Winar
| producer       = 
| writer         = Inge van Eyck 
| narrator       = 
| starring       = 
| music          =   
| cinematography = 
| editing        = 
| distributor    = 
| released       = December 20, 1950
| runtime        =70 minutes
| country        = Netherlands Dutch
| budget         = 
}} 1951 Netherlands|Dutch film directed by Ernst Winar. 

==Cast==
*Sjoerd van Driel	... 	Kees Schippers
*Jaap Kallenborn		
*Ankie de Meyer	... 	Joke van Dalen
*Dick Visser	... 	Arie
*Paul Kallenborn	... 	Jaap van Dalen
*Aleid van Rhein	... 	Father van Dalen
*Lex de Koning	... 	Piet
*Wim Rhemrev	... 	Henk
*Hylke van der Zee	... 	Jan
*Bart van Mourik	... 	Wim
*Frans Merkelij	... 	Wim

== External links ==
*  

 
 
 

 