De Boezemvriend (film)
 
{{Infobox film
| name           = De Boezemvriend
| image          = 
| image_size     = 
| caption        = 
| director       = 
| producer       = 
| writer         = 
| narrator       = 
| starring       = 
| music          =   
| cinematography = 
| editing        = 
| distributor    = 
| released       = 1982
| runtime        = 95 minutes
| country        = Netherlands Dutch
| budget         = 
}} 1982 Netherlands|Dutch film directed by Dimitri Frenkel Frank. 

==Cast==
 
== External links ==
*  

 
 
 
 

 

 