Merijntje Gijzens Jeugd
 
{{Infobox film
| name           = Merijntje Gijzens Jeugd
| image          = 
| image_size     = 
| caption        = 
| director       = Kurt Gerron
| producer       = 
| writer         = A.M. De Jong 
| narrator       = 
| starring       = 
| music          =   
| cinematography = 
| editing        = 
| distributor    = 
| released       =17 September 1936
| runtime        =101 minutes
| country        = Netherlands Dutch
| budget         = 
}} 1936 Netherlands|Dutch drama film directed by Kurt Gerron. 

==Cast==
*Marcel Krols	... 	Merijntje Gijzen
*Piet Bron	... 	Goort Perdams, de Kruik
*Mimi Boesnach	... 	Janekee
*A.M. De Jong	... 	Pastoor
*Frida Gonissen	... 	Nelleke - Blozekriekske
*Bill Benders... 	Grensjager
*Aaf Bouber	... 	Janske
*Harry Boda	... 	Flierefluiter
*Johan Elsensohn		
*Joekie Broedelet	... 	Moeder gijzen
*Kees Brusse	... 	Arjaan Gijzen
*Frits Van Dijk	... 	Walter, de schrijver
*Jeanne Verstraete	... 	Mevrouw Walter
*Pierre Balledux	... 	Veldwachter
== External links ==
*  

 
 
 
 

 
 