Gekkenbriefje
 
{{Infobox film
| name           = Gekkenbriefje
| image          = 
| image_size     = 
| caption        = 
| director       = Olga Madsen
| producer       = 
| writer         = 
| narrator       = 
| starring       = 
| music          = Jakob Klaase
| cinematography = 
| editing        = 
| distributor    = 
| released       = 10th of September, 1981
| runtime        =  minutes
| country        = Netherlands Dutch
| budget         = 
}} 1981 Netherlands|Dutch film directed by Olga Madsen. It is based upon the book "Zorg dat je een gekkenbriefje krijgt" by Ger Verrips. It was the first movie that Olga Madsen directed. 

==Cast==

* Esgo Heil
* Porgy Franssen 
* Hans Veerman 
* John Smit 
* Marijke Conijn 
* Wim Dröge 
* Paul Gieske 
* Rietje Konings 
* Moniek Kramer 
* Gijs de Lange
* Cor Witschge 

== External links ==
*  

 
 
 

 