De Omweg
 
{{Infobox film
| name           = De Omweg
| image          = 
| image_size     = 
| caption        = 
| director       =  Frouke Fokkema
| producer       = 
| writer         = 
| narrator       = 
| starring       = 
| music          =   
| cinematography = 
| editing        = 
| distributor    = 
| released       = 2000
| runtime        = 
| country        = Netherlands Dutch
| budget         = 
}} 2000 Netherlands|Dutch film directed by Frouke Fokkema. 

==Cast==
 
== External links ==
*  

 
 
 
 

 