Ulbo Garvema
 
{{Infobox film
| name           = Ulbo Garvema
| image          = 
| image_size     = 
| caption        = 
| director       = Maurits Binger
| producer       = 
| writer         = Ernest Scheidius
| narrator       = 
| starring       = 
| music          =   
| cinematography = 
| editing        = 
| distributor    = 
| released       = 2 November 1917
| runtime        = 
| country        = Netherlands
| language       = Silent
| budget         = 
| amg_id         = 
}} 1917 Netherlands|Dutch silent film directed by Maurits Binger.

==Cast==
* Frederick Vogeding - Baron van Walden / Alfred
* Cor Smits - Jan van Oort
* Annie Bos - Jan van Oorts dochter / Jonge Anna
* Jan van Dommelen - Hendrik
* Antoinette Sohns - Gravin
* Paula de Waart - Jan van Oorts vrouw
* Lily Bouwmeester - Anna als kind
* Pierre Perin - Annas verloofde
* Lola Cornero - Meid
* Fred Homann - Dokter
* Ernst Winar

== External links ==
*  

 
 
 
 
 


 