Bloedverwanten
{{Infobox film
| name           = Bloedverwanten
| image          = 
| image_size     = 
| caption        = 
| director       = Wim Lindner
| producer       = 
| writer         = Belcampo (short story), John Brason (adaptation)
| narrator       = 
| starring       = 
| music          =   
| cinematography = 
| editing        = 
| distributor    = 
| released       = 10 February 1977
| runtime        =97 minutes
| country        = Netherlands Dutch
| budget         = 
}} 1977 Netherlands|Dutch comedy film directed by Wim Lindner.

==Cast==
*Sophie Deschamps	... 	Maria
*Maxim Hamel	... 	Dr. Julius Steiger
*Ralph Arliss... 	Peter Steiger
*Grégoire Aslan	... 	Rudolphe De Guys
*Eric Beekes... 	Jason
*Ronnie Bierman... 	Olive
*Eddie Constantine	... 	Priest
*Robert Dalban	... 	Mr. Zandvoort
*Frits Emmerik	... 	Vampire
*Simone Ettekoven	... 	Lydia Martin
*Jacqueline Huet	... 	Sister
*Wim Kouwenhoven	... 	Claude Martin
*Huib Rooymans	... 	Hugo
*Will Van Selst	... 	Dr. Liedke
*Elly Van Stekelenburg	... 	Gertrud Cornelius

== External links ==
*  

 
 
 
 


 
 