Was She Guilty?
{{Infobox film
| name           = Was She Guilty?
| image          = 
| image_size     = 
| caption        = 
| director       = George Beranger
| producer       = 
| writer         = 
| narrator       = 
| starring       = 
| music          =   
| cinematography = 
| editing        = 
| distributor    = Hollandia
| released       = August 1922
| runtime        = 65 minutes
| country        = United Kingdom Netherlands
| language       = Silent
| budget         = 
}} Dutch silent silent crime film directed by George Beranger.

==Cast==
* Gertrude McCoy - Ruth Herwood
* Zoe Palmer - Mary (17 year)
* Louis Willoughby - George Midhurst, lawyer (as Lewis Willoughby)
* William Freshman - Bobby (19 year)
* Pierre Balledux - Ling Soo
* Paul de Groot - John Herwood
* Norman Doxat-Pratt - Bobby (5 year)
* Fred Homann
* Kitty Kluppell - Palmyra Hawks
* Joan Midwinter - Mary (3 year)
* Mari van Warmelo - The parson

== External links ==
*  

 
 
 
 
 
 
 
 


 
 