The Province (film)
 
{{Infobox film
| name           = De Provincie
| image          = 
| image_size     = 
| caption        = 
| director       = Jan Bosdriesz
| producer       = 
| writer         = Jan Brokken (novel), Hugo Heinen (writer)
| narrator       = 
| starring       = 
| music          =   
| cinematography = 
| editing        = 
| distributor    = 
| released       = September 20, 1991
| runtime        = 105 minutes
| country        = Netherlands Dutch
| budget         = 
}} 1991 Netherlands|Dutch drama film directed by Jan Bosdriesz.

==Cast==
*Thom Hoffman (Frank)
*Pierre Bokma (Peter)
*Gijs Scholten van Aschat (Koos)
*Tamar van den Dop (Lili)
*Peter Oosthoek (Father of Frank)
*Gerard Thoolen (Sartorius)
*Gusta Gerritsen (Jenny)
*Camilla Braaksma (Nathalie)
*Els Ingeborg Smits (Mother of Frank)
*Rudolf Lucieer (Psychiatrist)
*Joss Flühr (Mrs. van Strijen)
*Rifka Lodeizen (Girl, working at bank)

== External links ==
*  

 
 
 
 
 


 