Fietsen naar de Maan
 
{{Infobox film
| name           = Fietsen naar de Maan
| image          = Fietsen naar de maan (1962).jpg
| image_size     = 
| caption        =   (as Evert Egmond), Lex Goudsmit (r.) as pianist
| director       = 
| producer       = 
| writer         = Jef van der Heyden
| narrator       = 
| starring       = 
| music          =   
| cinematography = 
| editing        = 
| distributor    = 
| released       = 1963
| runtime        = 
| country        = Netherlands Dutch
| budget         = 
}} 1963 Netherlands|Dutch film directed by  Jef van der Heyden.

It was the first movie to star Jeroen Krabbé.

The storyline concerns three brothers who have problems dealing with their fathers heritage. 

==Cast==
 
== External links ==
*  

 
 
 
 

 