Ergens in Nederland
 
{{Infobox film
| name           = Ergens in Nederland
| image          = 
| image_size     = 
| caption        =  Ludwig Berger
| producer       =  Ludwig Berger, Jan de Hartog
| narrator       = 
| starring       = 
| music          =   
| cinematography = 
| editing        = 
| distributor    = 
| released       = 12 April 1940
| runtime        = 109 minutes
| country        = Netherlands
| language       = Dutch
| budget         = 
}} 1940 Dutch Ludwig Berger.

==Cast==
* Lily Bouwmeester as Nellie van Loon
* Jan de Hartog as lawyer Frans van Loon, Nellies husband
* Fien de la Mar as a society lady
* Cruys Voorbergh as the actor Erik Detmar
* Matthieu van Eysden as Beyer, the driver
* Max Croiset		
* Rini Otte
* Eduard Verkade as an old music teacher
* Piet Köhler		
* Aaf Bouber (as Aaf Bouber-ten Hoope) as the Zeelandic farmer
* Chris Baay		
* Harry Boda

== External links ==
*  

 

 
 
 
 

 