Vigor (film)
 
{{Infobox film
| name           = Kracht
| image          = Vigor90.jpg
| image_size     = 
| caption        = 
| director       = Frouke Fokkema
| producer       = 
| writer         = 
| narrator       = 
| starring       = 
| music          =   
| cinematography = 
| editing        = 
| distributor    = 
| released       =September 21, 1990
| runtime        = 100 minutes
| country        = Netherlands Dutch
| budget         = 
}} 1990 Netherlands|Dutch drama film directed by Frouke Fokkema. 

==Cast==
*Theu Boermans	 ... 	Bert
*Anneke Blok	... 	Roos
*Dave van Dinther	... 	Thomas
*Khaldoun Elmecky	... 	Jeu
*Bert Geurkink	... 	Jo
*Jaap Spijkers	... 	Slager
*Marisa Van Eyle	... 	Slagersvrouw
*Ivo Jacobs	... 	Slagerszoon
*Rogier Gerardu	... 	Slagerszoon
*Mieke Verheyden	... 	Moeder
*Marieke Heebink	... 	Maria
*Eelco Vellema	... 	Hubert
*Dea Koert	... 	Marie-Louise
*Myranda Jongeling	... 	Marktvrouw
*Rik Launspach	... 	Sjors

== External links ==
*  

 

 
 
 
 