Een danstragedie
 
{{Infobox film
| name           = Een danstragedie
| image          = 
| image_size     = 
| caption        = 
| director       = Johan Gildemeijer
| producer       = 
| writer         = 
| narrator       = 
| starring       = 
| music          =   
| cinematography = 
| editing        = 
| distributor    = 
| released       = 1916
| runtime        =  Netherlands
| language       = Silent
| budget         = 
| amg_id         = 
}} 1916 Netherlands|Dutch silent film directed by Johan Gildemeijer.

==Cast==
* Adelqui Migliar - Mario
* Meina Irwen - Marios vrouw / Marios wife
* Piety Wigman - Hun dochter / Their daughter
* Jo Wigman - Hun dochter / Their daughter
* Christine Poolman - Marios moeder / Marios mother
* Louis Gimberg - Gentleman
* Caroline van Dommelen - Barones / Baroness

== External links ==
*  

 
 
 
 
 


 