Last Call (1995 film)
 
{{Infobox film
| name           = Hoogste Tijd
| image          = 
| image_size     = 
| caption        = 
| director       = Frans Weisz
| producer       = 
| writer         = Jan Blokker (writer), Harry Mulisch (novel)
| narrator       = 
| starring       = 
| music          =   
| cinematography = 
| editing        = 
| distributor    = 
| released       = 1995
| runtime        = 
| country        = Netherlands, Belgium
| language       = Dutch
| budget         = 
}} Belgian drama film directed by Frans Weisz. 

==Cast==
*Rijk de Gooyer	... 	Willem Uli Bouwmeester
*Josse De Pauw	... 	Caspar Vogel
*Kitty Courbois	... 	Berta Bouwmeester
*Camilla Siegertsz	... 	Stella Middag
*Bart Slegers	... 	Max / Ariel
*Edwin de Vries	... 	Bram Polak

== External links ==
*  

 
 
 
 
 
 
 