Mijn nachten met Susan, Olga, Julie, Piet en Sandra
 
{{Infobox film
| name           = Mijn nachten met Susan, Olga, Julie, Piet en Sandra
| image          = 
| image_size     = 
| caption        = 
| director       = Pim de la Parra
| producer       = 
| writer         = 
| narrator       = 
| starring       = 
| music          =   
| cinematography = 
| editing        = 
| distributor    = 
| released       = 1975
| runtime        =  
| country        = Netherlands Dutch
| budget         = 
}} 1975 Netherlands|Dutch film directed by Pim de la Parra. 

==Cast==
 
== External links ==
*  

 
 
 

 