Dandelion Game
 
{{Infobox film
| name           = Blazen tot Honderd
| image          = Blazen tot Honderd.jpg
| image_size     = 
| caption        = 
| director       = Peter van Wijk
| producer       = 
| writer         = Geert van Beek (novel), Peter van Wijk (writer)
| narrator       = 
| starring       = 
| music          =   
| cinematography = 
| editing        = 
| distributor    = 
| released       = May 20, 1998
| runtime        = 80 minutes
| country        = Netherlands   Belgian Dutch  Flemish
| budget         = 
}} 1998 Netherlands|Dutch-Belgium|Flemish film directed by Peter van Wijk. 

==Cast==
*Olivier Tuinier	... 	Maurits
*Marie Vinck	... 	Moniek
*Herbert Flack	... 	Vader
*Hilde Van Mieghem	... 	Moeder
*Wouter ten Pas	... 	Pompbediende
*Dora van der Groen	... 	Kerkkoorleidster
== External links ==
*  

 
 
 

 