Revelations of an Insomniac
 
{{Infobox film
| name           = Openbaringen van een Slapeloze
| image          = 
| image_size     = 
| caption        = 
| director       = Pim de la Parra
| producer       = 
| writer         = Paul Ruven, J.P. Vernu 
| narrator       = 
| starring       = 
| music          =   
| cinematography = 
| editing        = 
| distributor    = 
| released       = 1991
| runtime        = 
| country        = Netherlands Dutch
| budget         = 
}} 1991 Netherlands|Dutch drama film directed by Pim de la Parra. 

==Cast==
*Miguel Stigter	... 	Prof. Mr. Dr. Drs. J.A. Wierook
*Marian Mudder	... 	Anna Wierook (as Marian Morée)
*Liz Snoyink	... 	Lydia
*Bart Oomen	... 	1st Research assistant
*Bodil de la Parra	... 	2nd Research assistant
*Joanna Swaan	... 	3rd Research assistant
*Johan Leysen	... 	Visitor
*Camilla Braaksma	... 	Visitor
*Jacob Smolders	... 	Truck driver

== External links ==
*  

 
 
 
 

 