Old Tongues
 
{{Infobox film
| name           = Oude Tongen
| image          = 
| image_size     = 
| caption        = 
| director       = Gerardjan Rijnders
| producer       = 
| writer         = Gerardjan Rijnders
| narrator       = 
| starring       = 
| music          =   
| cinematography = 
| editing        = 
| distributor    = 
| released       = 1994
| runtime        = 90 minutes
| country        = Netherlands Dutch
| budget         = 
}} 1994 Netherlands|Dutch film directed by Gerardjan Rijnders.

==Cast==
*Jasper Kraaij	... 	Bartje Mossel
*Fred Goessens	... 	Ab Mossel
*Lieneke le Roux	... 	Ria Mossel
*Hannah Risselada	... 	Babs
*Rosa Risselada	... 	Nicole
*Mark Rietman	... 	Dokter Peter Ligt
*Catherine ten Bruggencate	... 	Dokter Jannie Ligt
*Nora Kretz	... 	Oma Ligt
*Celia Nufaar	... 	Heike int Veld
*Damien Hope	... 	Florisje Delevita
*Pierre Bokma	... 	Richard Delevita
*Lineke Rijxman	... 	Mary Delevita
*Hayo Bruins	... 	Hans Godhelp
*Marjon Brandsma	... 	Truus Godhelp
*Hein van der Heijden	... 	Theo Klein

== External links ==
*  

 
 
 
 


 