Love Hurts (1993 film)
 
{{Infobox film
| name           = Hartverscheurend
| image          = 
| image_size     = 
| caption        = 
| director       = Mijke de Jong
| producer       = 
| writer         = Jan Eilander. Mijke de Jong
| narrator       = 
| starring       = 
| music          =   
| cinematography = 
| editing        = 
| distributor    = 
| released       = 11 November 1993
| runtime        = 85 minutes
| country        = Netherlands Dutch
| budget         = 
}} 1993 Netherlands|Dutch drama film directed by Mijke de Jong.

==Cast==
*Marieke Heebink	... 	Loe
*Mark Rietman	... 	Bob
*André Arend van de Noord	... 	Johnny
*Tanar Catalpinar	... 	Kemal
*Roef Ragas	... 	Maarten
*Gerrit Albada	... 	Cameraman
*Karina De Koning	... 	Judge
*Jan Eilander	... 	Interviewer
*Javier Hidalgo	... 	Ricardo
*Mientje Kleijer	... 	Marcia
*Jerónimo Molero	... 	Waiter
*Ruud Van der Heyde	... 	Soundman

== External links ==
*  

 
 
 
 


 