1000 Convicts and a Woman
 {{Infobox Film
| name           = 1000 Convicts and a Woman
| image          = 1000convictsposter.jpg
| image_size     = 
| caption        = Theatrical release poster Ray Austin
| producer       = Philip N. Krasne
| writer         = Oscar Brodney
| narrator       =  Harry Baird
| music          = Peter J. Elliott
| cinematography = Gerald Moss
| editing        = Philip Barnikel
| distributor    = Scotia-Barber
| released       = 1971
| runtime        = 92 minutes
| country        = United Kingdom English
| budget         = 
| gross          = 
| preceded_by    = 
| followed_by    = 
}} Ray Austin, Harry Baird.

==External links==
*  

 
 
 
 
 
 


 
 