Irene (2009 film)
{{Infobox film
| name           = Irene
| image          = 
| alt            =  
| caption        = 
| director       = Alain Cavalier
| producer       = 
| writer         = 
| screenplay     = 
| story          = 
| starring       = 
| music          = 
| cinematography = 
| editing        = 
| studio         = 
| distributor    = 
| released       =   
| runtime        = 83 minutes
| country        = France
| language       = French
| budget         = 
| gross          = 
}}

Irene ( ) is a 2009 French drama film directed by Alain Cavalier. It competed in the Un Certain Regard section at the 2009 Cannes Film Festival.   

==References==
 

==External links==
* 

 
 
 
 
 
 