Jūdai no yūwaku
{{Infobox Film
| name           = Jūdai no yūwaku
| image          = Judai no yuwaku poster.jpg
| caption        = Japanese movie poster
| director       = Seiji Hisamatsu
| producer       = 
| writer         =
| starring       = 
| music          = 
| cinematography = 
| editing        = 
| studio         = Daiei Film
| distributor    =  1953 
| runtime        = ? min.
| country        = Japan
| awards         = 
| language       = Japanese
| budget         = 
| preceded_by    = 
| followed_by    = 
| 
}}
  is a 1953 black-and-white Japanese film directed by Seiji Hisamatsu.

== Cast ==
* Ayako Wakao
* Fujiko Yamamoto
* Yōko Minamida
* Kazuko Fushimi ( )
* Mitsuko Kimura ( )
* Kyōko Aoyama ( )
* Kenji Sugawara ( )
* Jun Negami
* Eiji Funakoshi
* Ken Hasebe ( )
* Tatsuyoshi Ehara ( )

== References ==
 

== External links ==

 
 
 
 
 
 


 