Shores of Silence
{{Infobox film
| name           = Shores of Silence
| image          = Shores of Silence (film poster).jpg
| image_size     = 
| caption        = 
| director       = Mike Pandey
| producer       = Mike Pandey
| writer         = 
| narrator       = 
| starring       = 
| music          = 
| cinematography = 
| editing        = 
| studio         = Riverbanks Studios
| distributor    = 
| released       = 
| runtime        = 
| country        = India
| language       = 
| budget         = 
| gross          = 
| preceded_by    = 
| followed_by    = 
}}
 Indian government Green Oscar.  Recently, the film received four stars from the Hindustan Times. 

==See also==
* Mike Pandey

==References==
 

==External links==
* 
* 
*  

 
 
 
 
 


 