Jigyaku no Uta
{{Infobox animanga/Header
| name            = Jigyaku no Uta
| image           = 
| caption         = 
| ja_kanji        = 自虐の詩
| ja_romaji       = 
| genre           = 
}}
{{Infobox animanga/Print
| type            = manga
| author          = Yoshiie Gouda
| publisher       = Kobunsha Takeshobo
| demographic     = 
| magazine        = Weekly Hōseki
| first           = 1985
| last            = 1990
| volumes         = 5
| volume_list     = 
}}
{{Infobox animanga/Video
| type            = live film
| title           = Happily Ever After
| director        = Yukihiko Tsutsumi
| producer        = 
| writer          = 
| music           = 
| studio          = 
| licensor        = 
| released        = October 27, 2007
| runtime         = 
}}
 
 VIZ Pictures licensed the film for release in the United States.

The series follows husband and wife   and  . Yukie works at a noodle shop for long hours while Isao is a lazy gangster. Yukies friends ask her to leave her husband, but Yukie feels an obligation to him because Isao had initially saved her from misery.

The film aired in a selection of theaters in the United States.  

==References==
 

==External links==
*   - VIZ Pictures
*    
*    
*  

 

 
 
 
 
 
 
 
 


 