El Diablo también llora
 
{{Infobox film
| name           = El Diablo también llora
| image          =
| image_size     =
| caption        =
| director       =José Antonio Nieves Conde
| producer       =
| writer         =
| narrator       =
| starring       =
| music          =
| cinematography =
| editor       =
| distributor    =
| released       = 1965
| runtime        =
| country        = Spain and Italy Spanish
| budget         =
}}
 Spanish and Italian film directed by José Antonio Nieves Conde.

==Cast==
 

==External links==
*  

 
 
 
 
 


 