Da Istanbul ordine di uccidere
{{Infobox film
| name           = Da Istanbul ordine di uccidere
| image          =
| image_size     =
| caption        =
| director       =Carlo Ferrero
| producer       =
| writer         =
| narrator       =
| starring       =
| music          =
| cinematography =
| editor       =
| distributor    =
| released       = 1965
| runtime        =
| country        = Italy Italian
| budget         =
}}
 1965 Italy|Italian Eurospy film directed by Carlo Ferrero.

==Cast==
 

==External links==
*  

 
 
 
 

 