Peppino e Violetta
{{Infobox film
| name           =Never Take No for an Answer   Peppino e Violetta
| image          =
| image_size     =
| caption        =
| director       =Maurice Cloche
| producer       =
| writer         = Maurice Cloche, Diego Fabbri
| narrator       =
| starring       =
| music          = Nino Rota
| cinematography =
| editor       =
| distributor    =
| released       = 1950
| runtime        =
| country        = Italy Italian
| budget         =
}}
 1950 Italy|Italian film directed by Maurice Cloche

==Cast==
*Roberto Adamina – Gianni
*Nerio Bernardi – Father Superior
*Guido Celano – Strotti
*Frank Coulson – Doctor Bartolo
*Arnoldo Foà
*Vittorio Manunta – Peppino John Murphy – Father OBrien
*Denis ODea – Father Damico

==External links==
*  
*  

 
 
 
 
 
 