Modena, città dell'Emilia Rossa
{{Infobox film
| name           =Modena, città dell&#39;Emilia Rossa
| image          =
| image_size     =
| caption        =
| director       = Carlo Lizzani
| producer       =
| writer         =
| narrator       =
| starring       =
| music          =
| cinematography =
| editor       =
| distributor    =
| released       = 1950
| runtime        =
| country        = Italy Italian
| budget         =
}}
 1950 Italy|Italian documentary film directed by  Carlo Lizzani.

==Cast==
 

==External links==
*  

 

 
 
 
 

 