Die Letzten drei der Albatross
{{Infobox film
| name           =Die Letzten drei der Albatross
| image          =
| image_size     =
| caption        =
| director       =  
| producer       = Wolf C. Hartwig
| writer         =  
| narrator       =
| starring       =
| music          =
| cinematography =
| editor       =
| distributor    =
| released       = 1965
| runtime        = 105 minutes
| country        = Germany Italy France German
| budget         =
}}
 1965 Germany|German-Italy|Italian-France|French film directed by  .

==Cast== Joachim Hansen
*Harald Juhnke
*Horst Niendorf
*Gisella Arden
*Jacques Bézard
*Horst Frank
*Philippe Guégan
*Eva Montes
*Alfredo Varelli

==External links==
*  

 
 
 
 
 
 
 
 
 

 