Forbidden Temptations
 
{{Infobox film
| name           =Tentazioni proibite
| image          =
| image_size     =
| caption        =
| director       =Osvaldo Civirani
| producer       =
| writer         = Osvaldo Civirani
| narrator       =
| starring       =
| music          =
| cinematography =
| editor       =
| distributor    =
| released       = 1965
| runtime        = 88 minutes
| country        = Italy Italian
| budget         =
}}
 1965 Italy|Italian documentary film directed by Osvaldo Civirani.

==External links==
*  

 
 
 
 
 
 


 
 