L' Ospedale del delitto
{{Infobox film
| name           =L&#39; Ospedale del delitto
| image          =
| image_size     =
| caption        =
| director       =
| producer       =
| writer         =
| narrator       =
| starring       =
| music          =
| cinematography =
| editor       =
| distributor    =
| released       = 1950
| runtime        =
| country        = Italy Italian
| budget         =
}}
 1950 Italy|Italian short documentary film directed by Luigi Comencini.

==External links==
*  

 
 
 
 

 