Fire Over Rome
 

{{Infobox film
| name           =L&#39;incendio di Roma
| image          =Fire Over Rome.jpg
| image_size     =
| caption        =
| director       = Guido Malatesta
| producer       =
| writer         =
| narrator       =
| starring       =
| music          =
| cinematography =
| editor       =
| distributor    =
| released       = 1965
| runtime        =
| country        = Italy Italian
| budget         =
}}
 1965 Italy|Italian Land of the Monsters.

==Cast==
* Lang Jeffries	as 	Marcus Valerius
* Cristina Gaioni	as 	Giulia
* Moira Orfei	as 	Poppaea
* Mario Feliciani	as 	Seneca
* Luciano Marin	as 	Fulvius
* Evi Maltagliati	as 	Livia Augusta, Marcuss Mother
* Franco Fantasia	as 	Clodius

==External links==
* 

 
 
 
 
 

 