Black Fire (film)
{{Infobox film
| name           =Black Fire
| image          =
| image_size     =
| caption        =
| director       =Silvio Siano
| producer       =
| writer         =
| narrator       =
| starring       =
| music          =Franco Langella 	
| cinematography =Romolo Garroni 
| editor       =
| distributor    =
| released       = 1951
| runtime        =
| country        = Italy Italian
| budget         =
}}
 1951 Italy|Italian film. It was released as Black Fire in the U.S.

==Cast==
*Otello Toso
*Franca Marzi
*Delia Scala
*Saro Urzì
*Renato Valente Charles Rutherford
*Giovanna Scotto
*Attilio Dottesio (credited as Aldo Dottesio)
*Checco Durante
*Elio Steiner
*Renato Malavasi
*Marilyn Buferd

==External links==
*  

 
 
 
 

 