Il Cammino di una grande amica
{{Infobox film
| name           =Il Cammino di una grande amica
| image          =
| image_size     =
| caption        =
| director       =Lino Lionello Ghirardini
| producer       =
| writer         =
| narrator       =
| starring       =
| music          =
| cinematography =
| editor       =
| distributor    =
| released       = 1951
| runtime        =
| country        = Italy Italian
| budget         =
}}
 1951 Italy|Italian documentary film directed by Lino Lionello Ghirardini.

==External links==
*  

 
 
 
 

 