Amore rosso (Marianna Sirca)
{{Infobox film
| name           = Amore rosso (Marianna Sirca)
| image          =
| caption        =
| director       =Aldo Vergano
| producer       =
| writer         =
| starring       =
| music          =Franco Casavola
| cinematography =
| editor         =
| distributor    =
| released       =  
| runtime        =
| country        = Italy
| language       = Italian
| budget         =
}}
Amore rosso (Marianna Sirca) is a 1952 Italian drama film directed by Aldo Vergano.

== Cast ==
* Marina Berti	as	Marianna Sirca
* Massimo Serato	as	Simone Sole
* Guido Celano	as	Fera
* Arnoldo Foà	as	Sebastiano
* Marcella Rovena	as	Fudera
* Mario Corte	as	Papà Berto
* Mario Terribile	as	Padre Perlo 
* Walter Chiari

==External links==
*  

 
 
 
 
 
 


 