Il Blues della domenica sera
{{Infobox film
| name           =Il Blues della domenica sera
| image          =
| image_size     =
| caption        =
| director       = Valerio Zurlini
| producer       =
| writer         =
| narrator       =
| starring       =
| music          =Mario Nascimbene
| cinematography =
| editor       =
| distributor    =
| released       = 1951
| runtime        =
| country        = Italy Italian
| budget         =
}}
 1951 Italy|Italian short documentary film directed by Valerio Zurlini.

==External links==
*  

 
 
 
 

 