Night Journey (film)
 
{{Infobox film
| name           = Night Journey
| image          = NightJourneyFilm.jpg
| caption        = Theatrical film poster
| director       = Ömer Kavur
| producer       =  
| writer         = Ömer Kavur
| starring       =  
| cinematography = Salih Dikişçi
| music          = Atilla Özdemiroğlu
| editing        =
| studio         = Alfa Film
| distributor    = 
| released       =  
| runtime        = 100 minutes
| country        = Turkey
| language       = Turkish
| budget         = 
| gross          = 
}}
 41st Cannes Film Festival and was screened in competition at the 25th Antalya Golden Orange Film Festival, where it won Golden Oranges for Best Film, Best Director, Best Actor and Best Cinematography.   

==Cast==
* Aytaç Arman
* Osman Alyanak
* Orhan Basaran
* Orhan Çagman
* Nurseli Çamlibel
* Erol Durak
* Mehmet Esen
* Nurseli Idiz
* Aslan Kaçar
* Macit Koper
* Zuhal Olcay
* Ergun Özcan
* Sahika Tekand

==References==
 

==External links==
* 

 

 
 
 
 
 
 
 
 
 
 
 

 
 