How Yukong Moved the Mountains
 
{{Infobox film
| name           = How Yukong Moved the Mountains
| image          = 
| alt            = 
| caption        = 
| director       = Joris Ivens
| producer       = 
| writer         = 
| screenplay     = 
| story          = 
| narrator       = 
| starring       = 
| music          = 
| cinematography = 
| editing        = 
| studio         = 
| distributor    = 
| released       =   {{cite book
|last=Schoots
|first=Hans
|title=Living dangerously: a biography of Joris Ivens
|url=http://books.google.com/books?id=PFzhhqVUq90C&pg=PA328
|accessdate=15 October 2010
|date=1 June 2000
|publisher=Amsterdam University Press
|isbn=978-90-5356-388-5
|page=328}} 
| runtime        = 763 minutes
| country        = France
| language       = 
| budget         = 
| gross          = 
}}
How Yukong Moved the Mountains ( ) is a 1976 French documentary film directed by Joris Ivens, about the last days of the Cultural Revolution.  At 763 min it is one of the longest films by running time.

==See also==
*List of longest films by running time

==References==
 

==External links==
*  

 

 
 
 
 
 
 
 
 
 


 