Nowhere to Run (1989 film)
{{Infobox film
| name           = Nowhere to Run
| image          = Nowhere to Run (1989 film).jpg
| caption        =
| director       = Carl Franklin
| producer       = Julie Corman
| writer         =
| narrator       =
| starring       = David Carradine
| music          =
| cinematography =
| editing        =
| distributor    =
| released       = March 1989
| runtime        = 86 minutes
| country        = United States
| language       = English
| budget         =
| gross          =
| website        =
| amg_id         =
}}
Nowhere to Run is a 1989 film directed by Carl Franklin. Chris Nashawaty, Crab Monsters, Teenage Cavemen and Candy Stripe Nurses - Roger Corman: King of the B Movie, Abrams, 2013 p 206 

==Plot==
Rural Texas, 1960 -- An age of good times and innocence, when growing up was supposed to be easy. Six high school seniors know the terrible secret that will make the difference in the biggest election in the countys history. Now they must make the most difficult decision of their lives. They must become adults.

==References==
 

==External links==
* 

 

 
 
 
 
 
 
 
 


 