Heart of a Champion: The Ray Mancini Story
{{Infobox Film
| name           = Heart of a Champion: The Ray Mancini Story
| image          = 
| image_size     = 
| caption        = 
| director       = Richard Michaels
| writer         = 
| narrator       =  Robert Blake
| music          = 
| cinematography = 
| editing        = 
| distributor    =  
| released       = May 1, 1985
| runtime        = 94 min.
| country        = United States
| language       = English
| budget         = 
| gross          = 
| preceded_by    = 
| followed_by    = 
| website        = 
| amg_id         = 
}}
Heart of a Champion: The Ray Mancini Story is a 1985 film directed by Richard Michaels.

==External links==
* 

 

 
 


 