Night Life in Reno
{{Infobox film
| name           = Night Life in Reno
| image          =
| image_size     =
| caption        = Raymond Cannon
| producer       =
| writer         = Gloria Stiratt (story) Arthur Hoerl (scenario)
| narrator       =
| starring       = See below
| music          =
| cinematography = M.A. Anderson Mike Santacrosse
| editing        = W. Donn Hayes Martha Dresback
| distributor    =
| released       = 2 November 1931
| runtime        = 58 minutes
| country        = USA
| language       = English
| budget         =
| gross          =
| preceded_by    =
| followed_by    =
| website        =
}}
 Raymond Cannon.

== Plot summary ==
 

== Cast ==
*Virginia Valli as June Wyatt
*Jameson Thomas as John Wyatt
*Dorothy Christy as Gwen Maynard
*Arthur Housman as Roy Carlton
*Dixie Lee as Dorothy Clarence Wilson as Adrian Garrett
*Carmelita Geraghty as Rita Carlton Pat OMalley as Red

== Soundtrack ==
 

== External links ==
* 
* 

 

 
 
 
 
 
 
 
 


 