Eierdiebe
{{Infobox Film
| name           = Eierdiebe
| image          = 
| image_size     = 
| caption        = 
| director       = Robert Schwentke
| writer         = 
| narrator       = 
| starring       = Wotan Wilke Möhring
| music          = 
| cinematography = 
| editing        = 
| distributor    =  
| released       = January 22, 2004
| runtime        = 87 mins.
| country        = Germany
| language       = German
| budget         = 
| gross          = 
| preceded_by    = 
| followed_by    = 
| website        = 
| amg_id         = 
}}
Eierdiebe (The Family Jewels in USA) is a 2003 film written and directed by Robert Schwentke. The film deals with testicular cancer, a form of disease director Robert Schwentke suffered through and survived.

==External links==
* 

 

 
 
 

 