Wind Echoing in My Being
 
{{Infobox film
| name           = Wind Echoing in My Being
| image          = WindEchoingInMyBeing1997Poster.jpg
| alt            =  
| caption        = US film poster
| director       = Jeon Soo-il
| producer       = 
| writer         = Jeon Soo-il
| starring       = Choi Hu-gon
| music          = 
| cinematography = Hwang Cheol-hyeon 
| editing        = Park Gok-ji
| studio         = Dongnyuk Film
| distributor    = 
| released       =   
| runtime        = 40 minutes
| country        = South Korea
| language       = Korean
| budget         = 
| gross          = 
}}

Wind Echoing in My Being ( ) is a 1997 South Korean short film directed by Jeon Soo-il.  It was screened in the Un Certain Regard section at the 1997 Cannes Film Festival.   

==Cast==
* Choi Hu-gon as Crazy man
* Cho Jae-hyun as Young man
* Kim Myung-gon as Tramp
* Kim Myung-jo as Young girl
* Lee Choong-in as Child

==References==
 

==External links==
* 

 
 
 
 
 
 
 


 