To Stay Alive
 
{{Infobox film
| name           = To Stay Alive
| image          = 
| caption        = 
| director       = Dariush Mehrjui
| producer       = Dariush Mehrjui
| writer         = Dariush Mehrjui Vahidéa Mohammadi
| starring       = Neda Aghaei
| music          = 
| cinematography = Bahram Badakshani
| editing        = Dariush Mehrjui
| distributor    = 
| released       =  
| runtime        = 95 minutes
| country        = Iran
| language       = Persian
| budget         = 
}}

To Stay Alive ( , Transliteration|translit.&nbsp;Bemani) is a 2002 Iranian drama film directed by Dariush Mehrjui. It was screened in the Un Certain Regard section at the 2002 Cannes Film Festival.   

==Cast==
* Neda Aghaei
* Masoumeh Bakhshi
* Shadi Heydari

==References==
 

==External links==
*  

 

 
 
 
 
 
 