Mae Ombao Meas
 
{{Infobox film
| name           = The Golden Butterfly
| image          =
| caption        = The Cambodian film Poster.
| director       = Parn Puong Bopha
| producer       =
| writer         =
| starring       = Suos Sotheara
| music          =
| cinematography =
| editing        =
| distributor    = Angkorwat
| released       =  
| runtime        =
| country        = Cambodia
| language       = Khmer
| budget         =
}}
The Golden Butterfly is a 2004 Khmer romance film directed by Parn Puong Bopha. The film was distributed by Angkorwat production. It stars Suos Sotheara.

==Cast==
*Suos Sotheara

 
 
 


 
 