Carnival Rock
 
{{Infobox film
| name           = Carnival Rock
| image          =
| image_size     =
| caption        =
| director       = Roger Corman
| producer       = Roger Corman
| writer         = Leo Lieberman
| narrator       =
| starring       = Susan Cabot
| music          =
| cinematography =
| editing        =
| distributor    =
| released       =  
| runtime        = 75 min.
| country        = United States
| language       = English
| budget         =
| gross          =
| website        =
| amg_id         =
}}
Carnival Rock is a 1957 film directed by Roger Corman with musical performances by the Platters, David Houston, Bob Luman and His Shadows, and the Blockbusters.

==Production==
Roger Corman made the film for syndicates of theatre owners. Ed. J. Philip di Franco, The Movie World of Roger Corman, Chelsea House Publishers, 1979 p 84 

== References ==
 

==External links==
* 

 

 
 
 
 
 


 