La Vengeance d'une blonde
{{Infobox film
| name           = La Vengeance dune blonde
| image          =
| image_size     =
| caption        =
| director       = Jeannot Szwarc
| writer         = Michel Delgado Valentine Albin Marie-Anne Chazel Bernard Murat
| narrator       =
| starring       = Christian Clavier Marie-Anne Chazel Clémentine Célarié Thierry Lhermitte Annie Cordy Antoine Duléry
| music          =
| cinematography =
| editing        =
| distributor    =
| released       = January 26, 1994
| runtime        =
| country        = France
| language       = French
| budget         =
| gross          = $12,236,220 
| website        =
| amg_id         =
}}
La Vengeance dune blonde is a 1994 French comedy film directed by Jeannot Szwarc, starring Christian Clavier, Marie-Anne Chazel, Clémentine Célarié, Thierry Lhermitte, Annie Cordy, Antoine Duléry.

== References == 
 

==External links==
* 

 

 
 
 
 
 


 
 