Scenes of City Life
{{Infobox film
| name           = Scenes of City Life
| image          = 
| image_size     = 
| caption        = 
| director       = Yuan Muzhi
| producer       = 
| writer         = Yuan Muzhi
| narrator       = 
| starring       = 
| music          = 
| cinematography = Wu Yinxian
| editing        = 
| distributor    = 
| released       = 1935
| studio         = Diantong Film Company
| runtime        =  China
| Mandarin
| budget         = 
| gross          = 
| preceded_by    = 
| followed_by    = 
| website        = 
|
}}
 |t= |p=Dūshì Fēngguāng|w=Tu-shi Feng-kuang|l=Metropolitan Scenes}}
Scenes of City Life is a 1935 Chinese film directed by Yuan Muzhi.  It is also translated as Cityscape.

== Cast ==
*Bai Lu
*Lan Ping (Jiang Qing)
*Tang Na Wu Yin
*Zhou Boxun
*Wu Yinxian

== References ==
 

== External links ==
* 
* 

 
 
 
 


 