Stray Cats (film)
{{multiple issues|
 
 
}}

{{Infobox film
| name         = Stray Cats
| writer       = Lee Cheol-ha
| starring     =  
| director     = Lee Cheol-ha
| producer     = Kim Hyo-jung
| released     =  
| runtime      = 31 mins.
| country      = South Korea
| language     =  
| budget       =  
}}
Stray Cats ( ) is a 2009 South Korean short film directed by Lee Cheol-ha and starring Kim Byul.

==Cast==
* Kim Byul
* Choi Jin-ho
* Jung Gyae-soon
* Cho Jae-yoon

 
 
 
 
 

 
 