Down Liberty Road
{{Infobox film
| name           = Down Liberty Road
| image          =
| image_size     =
| caption        =
| director       = Jerry Fairbanks
| producer       =
| writer         =
| narrator       =
| starring       = Tommy Kirk
| music          = Charles Koff Clarence Wheeler
| cinematography =
| editing        =
| distributor    =
| released       = 3 July 1956
| runtime        =
| country        = United States
| language       = English
| budget         =
| gross          =
| preceded_by    =
| followed_by    =
}}
Down Liberty Road is a 1956 American film directed by Jerry Fairbanks.

The film is also known as Freedom Highway in the USA.

==Plot summary==
 

==Cast==
*Morris Ankrum
*Angie Dickinson
*Tommy Kirk
*Tex Ritter
*Marshall Thompson
*Charles Koff
*Clarence Wheeler

==External links==
* 
* 

 

 
 
 
 
 
 


 