Satyam Shivam
{{Infobox film
| name           = Satyam Shivam
| image          =
| caption        =
| director       = K. Raghavendra Rao
| producer       =
| writer         =
| starring       = Nandamuri Taraka Rama Rao Akkineni Nageswara Rao Sridevi Kapoor Rati Agnihotri
| music          = K. Chakravarthy 
| cinematography =
| editing        =
| distributor    =
| released       = 1981
| runtime        =
| country        = India
| language       = Telugu
| budget         =
}} Telugu film directed by K. Raghavendra Rao. The film stars Nandamuri Taraka Rama Rao, Akkineni Nageswara Rao, Sridevi Kapoor, and Rati Agnihotri. It is a remake of the Hindi hit film Suhaag (1979 film)|Suhaag.

 
 
 
 
 
 
 