White King, Red Queen
{{Multiple issues|
 
 
}}

{{Infobox film
| name           = White King, Red Queen
| image          = 
| image size     = 
| alt            = 
| caption        = 
| director       = Sergei Bodrov
| producer       = 
| writer         = Sergei Bodrov Ganna Slutsky
| starring       = Tatyana Vasilyeva André Dussollier Aleksei Zharkov Armen Dzhigarkhanyan
| music          = Isaak Schwarz
| cinematography = 
| editing        = 
| studio         = 
| distributor    = 
| released       = 1992
| runtime        = 86 minutes
| country        = Russia
| language       = Russian
}} Russian film. The composer Isaak Schwarz won a Nika Award from the Russian Academy of Cinema Arts and Sciences for the films music.

==References==
* .  

==External links==
* 
 

 
 
 


 