No Time for Flowers
{{Infobox film
| name           = No Time for Flowers
| image          =
| caption        =
| director       = Don Siegel
| writer         =
| starring       = Viveca Lindfors
| music          =
| cinematography =
| editing        =
| distributor    =
| released       =   |ref2= }}
| runtime        = 83 minutes
| country        = United States
| language       = English
| budget         =
| gross          =
}}
No Time for Flowers is a 1952 film directed by Don Siegel.

==Plot==
A young girls loyalty to the Communist Party is tested in Prague when she falls in love with an attache who has just arrived from the United States.

==Cast==
* Viveca Lindfors as Anna Svoboda Paul Christian as Karl Marek
* Ludwig Stossel as Papa
* Adrienne Gessner as Mama

== References ==
 

==External links==
* 
* 
* 

 

 
 
 
 
 
 
 
 


 