China Venture
{{Infobox film
| name           = China Venture
| image_size     =
| image	         = China Venture FilmPoster.jpeg
| caption        =
| director       = Don Siegel Richard Collins
| narrator       =
| starring       = Edmond OBrien
| music          =
| cinematography =
| editing        =
| distributor    =
| released       =  
| runtime        = 83 min.
| country        = United States
| language       = English
| budget         =
| gross          =
| website        =
| amg_id         =
}}
China Venture is a 1953 film directed by Don Siegel. The plot concerns an American patrol sent into South China during World War II to rescue an important prisoner held by Chinese guerrillas.

==External links==
* 

 

 
 
 
 
 
 
 

 