The River with No Bridge
{{Infobox film
| name           = The River with No Bridge
| image          = 
| image_size     = 
| caption        = 
| kanji          = 橋のない川
| kana           = 
| romaji         = 
| director       = Yōichi Higashi
| producer       = 
| writer         = 
| narrator       = 
| starring       = 
| music          = 
| cinematography = 
| artdirector    = 
| editing        = 
| studio         = 
| distributor    = 
| released       = 1992
| runtime        = 
| country        = Japan
| language       = Japanese
| budget         = 
| gross          =
| preceded_by    = 
| followed_by    = 
}}
  is a 1992 Japanese film directed by Yōichi Higashi.

==Awards and nominations==
17th Hochi Film Award 
* Won: Best Director - Yōichi Higashi

==References==
 

 

 
 
 
 
 


 

 