Mahjong hōrōki
{{Infobox film
| name           = Mahjong hōrōki
| image          = 
| caption        = 
| film name = {{Film name| kanji          = 麻雀放浪記
| kana           = まーじゃんほうろうき}}
| director       = Makoto Wada
| producer       = 
| writer         = 
| starring       = Takeshi Kaga Kaku Takashina Sam Sloan
| music          = 
| cinematography = 
| editing        = 
| studio         = 
| distributor    = 
| released       =  
| runtime        = 
| country        = Japan
| language       = Japanese
| budget         = 
| gross          = 
}} Japanese film directed by Makoto Wada.

==Awards and nominations==
6th Yokohama Film Festival 
* Won: Best Film
* Won: Best Actor - Takeshi Kaga
* Won: Best Supporting Actor - Kaku Takashina

==References==
 

 

 
 
 
 


 

 