No More Easy Life
{{Infobox film
| name           = No More Easy Life
| image          = No More Easy Life.jpg
| caption        = Poster for No More Easy Life.
| film name =  
| director       = Yōichi Higashi
| producer       = 
| writer         = 
| starring       = Kaori Momoi Eiji Okuda
| music          = Michi Tanaka 
| cinematography = Kôichi Kawakami 
| editing        = 
| studio         = 
| distributor    = 
| released       =  
| runtime        = 
| country        = Japan
| language       = Japanese
| budget         = 
| gross          = 
}}
 Japanese film directed by Yōichi Higashi.

==Awards and nominations==
22nd Blue Ribbon Awards 
* Won: Best Actress - Kaori Momoi

==References==
 

==External links==
* 

 

 
 
 
 


 