The Crazy Family
{{Infobox film
| name           = The Crazy Family
| image          = 
| caption        = 
| film name =  
| director       = Sōgo Ishii
| producer       = 
| writer         = 
| starring       = Mitsuko Baisho Youki Kudoh
| music          = 
| cinematography = Masaki Tamura
| editing        = 
| studio         = Directors Company
| distributor    = 
| released       =  
| runtime        = 
| country        = Japan
| language       = Japanese
| budget         = 
| gross          = 
}} Japanese film directed by Sōgo Ishii.

==Awards and nominations==
6th Yokohama Film Festival  
* Won: Best Newcomer - Youki Kudoh
*8th Best Film 

==References==
 

 

 
 
 
 
 


 