The Mandrake (1975 film)
{{Infobox film
| name           = The Mandrake
| image          = 
| image_size     = 
| alt            = 
| caption        = 
| director       = Fereydun Gole
| producer       = Dariush Kooshan
| writer         = Fereydun Gole
| narrator       = 
| starring       = Ali Nassirian Pouri Banai Dariush Iran Nezhad Ezatallah Ramezanifar
| music          = 
| cinematography = Amir Eshraghi Fereydun Reypoor
| editing        = Fereydun Gole
| studio         = 
| distributor    = Pars Film
| released       =  
| runtime        = 
| country        = Iran Persian
| budget         = 
| gross          = 
| preceded_by    = 
| followed_by    = 
}} Iranian film.

==External links==
 

 
 
 
 
 