Riphouse 151: Could've Been's & Wanna Be's
 
{{Infobox film
| name           = Riphouse 151: Couldve Beens & Wanna Bes
| image          =  
| image size     =
| caption        = Promotional film poster Peter OBrien Peter OBrien, Sean Magaletta, Jim DeMaria, Joe Galvin
| writer         =
| narrator       =
| starring       =
| music          = Riphouse
| cinematography = Peter OBrien (as Dignan A. Pink)
| studio         =
| distributor    = Neddih Yllausiv
| released       = 27 March 2008
| runtime        = 106 minutes
| country        = United States English
| budget         =
| gross          =
}}
 Peter OBrien and features interviews with Rob Dukes (current lead singer of Exodus (band)|Exodus), Don La Greca of ESPN radio, Rob Moschetti (M.O.D. and Pro Pain), and several others.

==External links==
*  
*  

 
 
 
 
 

 