The Flaw (1955 film)
 
 
{{Infobox film
| name           = The Flaw
| image          = 
| image_size     = 
| caption        = 
| director       = Terence Fisher
| writer         = 
| narrator       =  John Bentley
| music          = 
| cinematography = 
| editing        = 
| distributor    =  
| released       = October 1955
| runtime        = 61 min.
| country        = United Kingdom
| language       = English
| budget         = 
| gross          = 
| preceded_by    = 
| followed_by    = 
| website        = 
| amg_id         = 
}} John Bentley and Donald Houston. 

==Cast== John Bentley as Paul Oliveri
* Donald Houston as John Millway
* Rona Anderson as Monica Oliveri
* Tonia Bern as Vera
* Doris Yorke as Mrs. Bower
* J. Trevor Davies as Sir George Bentham  
* Cecilia Cavendish as Lady Bentham

==References==
 

==External links==
* 

 
 
 
 
 
 