The Desert Island
{{Infobox film
| name           = The Desert Island
| image          =
| image_size     =
| caption        =
| director       = Wu Yonggang
| producer       =
| writer         =
| narrator       =
| starring       = See below
| music          =
| cinematography = Hung Weilie
| editing        =
| distributor    =
| released       =
| runtime        = 68 minutes (China) China
| language       = Mandarin
| budget         =
| gross          =
}}

The Desert Island ( ) is a 1936 Chinese film directed by Wu Yonggang.

== Plot summary ==
 

== Cast ==
*Jin Yan
*Zhang Zhizhi

== Soundtrack ==
 

== External links ==
* 
* 

 
 
 
 
 
 
 

 