Ten Gentlemen from West Point
{{Infobox film
| name           = Ten Gentlemen from West Point
| image          = 
| image_size     = 
| caption        = 
| director       = Henry Hathaway
| writer         = Richard Maibaum
| narrator       =  George Montgomery
| music          = 
| cinematography = 
| editing        = 
| distributor    =  
| released       = June 26, 1942
| runtime        = 102 min.
| country        = United States
| language       = English
| budget         = 
| gross          = 
| preceded_by    = 
| followed_by    = 
| website        = 
| amg_id         = 
}} George Montgomery John Payne ho was suffering an emotional upset at the time.  The story tell a fictional story of the first class of the United States Military Academy in the early 1800s.

==Cast== George Montgomery as Joe Dawson
*Maureen OHara as Carolyn Brainbridge John Sutton as Howard Shelton
*Laird Cregar as Maj. Sam Carter
*Shepperd Strudwick as Henry Clay

==References==
 

==External links==
* 

 

 
 
 
 
 
 
 