Return of a Stranger (1961 film)
{{Infobox film
| name           = Return of a Stranger 
| image          = 
| image_size     =
| caption        =
| director       = 
| producer       = Edward J. Danziger Harry Lee Danziger
| writer         = 
| narrator       =
| starring       = 
| music          = 
| cinematography = 
| editing        =
| studio         = 
| distributor    = 
| released       =1961 
| runtime        = 
| country        = United Kingdom
| language       = English
| budget         =
| gross          =
| preceded_by    =
| followed_by    =
| website        =
}}
 British thriller John Ireland, Susan Stephen, Cyril Shaps and Timothy Beaton. 

==Cast== John Ireland - John Allen
* Susan Stephen - Pam Allen
* Cyril Shaps - Homer Trent
* Timothy Beaton - Tommy Allen
* Patrick McAlinney - Whittaker
* Kevin Stoney - Wayne Ian Fleming - Meecham
* Raymond Rollett - Somerset
* Frederick Piper - Fred
* Martin Carthy - Lift Boy

==References==
 

==External links==
*  

 
 
 
 
 


 
 