Tsukue no Nakami
{{Infobox film
| name           = Tsukue no Nakami
| image          = 
| caption        = 
| film name          = 机のなかみ
| director       = Keisuke Yoshida
| producer       = 
| writer         = 
| starring       = Kōji Abe Mio Suzuki Ai Higa Sō Sakamoto Natsumi Kiyoura Yutaka Mishima
| music          = 
| cinematography = 
| artdirector    = 
| editing        = 
| studio         = 
| distributor    = 
| released       =  
| runtime        = 
| country        = Japan
| language       = Japanese
| budget         = 
| gross          = 
}} Japanese film directed by Keisuke Yoshida. 

==Reception==
Mark Schilling of The Japan Times gave the film a positive review. 

==References==
 

==External links==
*  

 

 
 
 
 


 