The Secret Tent
{{Infobox film
| name           = The Secret Tent
| image          = 
| image_size     = 
| caption        = 
| director       = Don Chaffey
| writer         = 
| narrator       = 
| starring       = Donald Gray
| music          = 
| cinematography = 
| editing        = 
| studio         = 
| distributor    = 
| released       = February 1956
| runtime        = 69 minutes
| country        = United Kingdom
| language       = English
| budget         = 
| gross          = 
| preceded_by    = 
| followed_by    = 
}}
The Secret Tent is a 1956 film directed by Don Chaffey. It stars Donald Gray and Andrée Melly.  

==Cast==
*Donald Gray as Chris Martyn
*Andree Melly as Ruth Martyn
*Jean Anderson as Mrs. Martyn
*Sonia Dresdel as Miss Mitchum-Browne
*Andrew Cruickshank as Inspector Thornton

==References==
 

==External links==
* 

 

 

 
 
 
 
 

 