Foster Child
 
{{Infobox film
| name           = Foster Child
| image          = 
| image_size     = 
| alt            = 
| caption        = 
| director       = Gil Cardinal
| producer       = Jerry Krepakevich
| writer         = 
| narrator       = 
| starring       = 
| music          = 
| cinematography = James Jeffrey
| editing        = Alan Bibby
| studio         = National Film Board of Canada
| distributor    = 
| released       = 1987
| runtime        = 43 min 05 s 
| country        = Canada 
| language       = English
| budget         = 
| gross          = 
| preceded_by    = 
| followed_by    = 
}}
Foster Child is a 1987 documentary film by Gil Cardinal, exploring the filmmakers search, at age thirty-five, for biological family. Cardinal often meets with frustration during his search, but eventually finds his natural family and discovers his Métis people (Canada)|Métis roots.   
 Man Alive series.    

==See also==
* 

==References==
 

==External links==
* 
* 

 
 
 
 
 
 
 
 
 

 
 