Traces of a Black Haired Girl
{{Infobox film
| name           = Traces of a Black Haired Girl
| image          = 
| image_size     = 
| caption        = 
| director       = Zdravko Randić
| producer       = 
| writer         = Dragoljub Ivkov Zivojin Pavlovic
| starring       = Pavle Vujisic
| music          = 
| cinematography = Milorad Jaksic-Fandjo
| editing        = Olga Skrigin
| distributor    = 
| released       = 7 June 1972
| runtime        = 86 minutes
| country        = Yugoslavia
| language       = Serbo-Croatian
| budget         = 
}}
 1972 Cinema Yugoslav film directed by Zdravko Randić. It was entered into the 22nd Berlin International Film Festival.   

==Cast==
* Pavle Vujisic - Paja
* Boris Dvornik
* Neda Spasojevic - Slavica
* Ruzica Sokic
* Velimir Bata Zivojinovic - Sinter

==References==
 

==External links==
* 

 
 
 
 
 