Bobby's War
{{Infobox film
| name           = Bobbys War
| image          = 
| image size     = 
| caption        = 
| director       = Arnljot Berg
| producer       = 
| writer         = Arnljot Berg
| narrator       =  Erik Andersson
| music          = 
| cinematography = Knut Gløersen
| editing        = Bente Kaas
| distributor    = 
| released       = 1974
| runtime        = 89 minutes
| country        = Norway
| language       = Norwegian
| budget         = 
| preceded by    = 
| followed by    = 
}}

Bobbys War ( ) is a 1974 Norwegian drama film directed by Arnljot Berg. It was entered into the 24th Berlin International Film Festival.   

==Cast== Erik Andersson - Bobby Lund
* Roy Bjørnstad - Robert Lund
* Morten Andresen - Hjemmefrontsmann
* Eilif Armand - Tusseladden
* Urda Arneberg - Serveringsdame
* Carsten Byhring - Hirdmann
* Geir Børresen - Lærer
* Bente Børsum - Fru Lund
* Detlev Eckstein - Werner

==References==
 

==External links==
* 

 
 
 
 
 
 
 