Habermann (film)
 


 
 
{{Infobox film
| name           = Habermann
| image          = Habermann2010Poster.jpg
| caption        = German poster
| director       = Juraj Herz
| producer       = 
| writer         = Jan Drbohlav Juraj Herz
| screenplay     = 
| story          = 
| based on       =  
| starring       = Karel Roden
| music          = 
| cinematography = Alexander Surkala
| editing        = 
| studio         = 
| distributor    = 
| released       =  
| runtime        = 
| country        = Czech Republic Germany
| language       = Czech German
| budget         = 
| gross          = 
}}
Habermann ( ) is a 2010 Czech-German-Austrian drama film directed by Juraj Herz. In the story, a German mill owner in the Sudetenland and his familys lives are changed as Europe heats up in 1938.

==Cast==
* Mark Waschke - August Habermann
* Hannah Herzsprung - Jana Habermann
* Wilson Gonzalez Ochsenknecht - Hans Habermann
* Karel Roden - Karel Březina
* Franziska Weisz - Martha Březina
* Ben Becker - Koslowski
* Erika Guntherova - Village Girl
* Andrej Hryc - Hartel
* Zuzana Kronerová - Eliška

==External links==
*  

 
 
 
 
 
 
 

 
 