Steel Town (1950 film)
 
{{Infobox film
| name           = Steel Town
| image          = 
| image size     = 
| caption        = 
| director       = Martin Frič
| producer       = 
| writer         = Otakar Kirchner
| starring       = Oldrich Lukes
| music          = 
| cinematography = Jaroslav Tuzar
| editing        = Jan Kohout
| distributor    = 
| released       =  
| runtime        = 85 minutes
| country        = Czechoslovakia
| language       = Czech
| budget         = 
}}
 Czech drama film directed by Martin Frič.    It was released in 1950.

==Cast==
* Oldrich Lukes as Franta
* Josef Chvalina as Starek
* Jana Dítetová as Marie
* Jaroslav Mares as Jan
* Frantisek Kovárík as Kolarik
* Marta Fricová as Secretary
* Jindra Hermanová as German Woman
* Frantisek Klika as Trade Unionist
* Stanislav Langer as Jauris
* Marie Nademlejnská
* Zdenek Savrda

==References==
 

==External links==
*  

 

 
 
 
 
 
 
 
 