Pro peníze
 
 
<!-- hide infobox until needed
{{Infobox film
| name           =Pro peníze
| image          = 
| image size     = 
| alt            = 
| caption        = 
| director       = Anthony Pech
| producer       = 
| writer         = 
| narrator       = 
| starring       = 
| music          = 
| cinematography = 
| editing        = 
| studio         = 
| distributor    = 
| released       =1912
| runtime        = 
| country        = 
| language       = 
| budget         = 
| gross          = 
| preceded by    = 
| followed by    = 
}}

 --> Czech silent drama film. It was made by Kinofa film company and directed by Anthony Pech. It was filmed in Prague and mostly used amateur actors.

==References==
* 

==External links==
*  

 
 
 
 
 


 