Pudr a benzín
 
<!-- Hide infobox until needed
{{Infobox film
| name           =
| image          = 
| image size     = 
| alt            = 
| caption        = 
| director       = Henry Honzl
| producer       = 
| writer         = 
| narrator       = 
| starring       =  George Voskovec , Werich , Ela Šárková , Bohus Záhorský , Vojta Shy - Tuma , Joseph Lark , Joe Jenčík , Milos Nedbal , John Svitak , Třebovský Alexander , Joseph Kotalík , Vladimir Majer , Emil Dlesk , Battling Mathare , Charles Steklý , Nina Jirsíková , Jaroslav Gradwohl , Vaclav Trégl , Jan Mikoto , Josef Kobík , George Srnka
| music          = Jaroslav Jezek
| cinematography = 
| editing        = 
| studio         = 
| distributor    = 
| released       =
| runtime        = 
| country        = 
| language       = 
| budget         = 
| gross          = 
| preceded by    = 
| followed by    = 
}}
---> Czech comedy film. It was released in 1931.

==External links==
*  

 
 
 
 
 


 
 