Family Affair (film)
 
{{Infobox film
| name           = Family Affair
| image          = family_affair.jpg
| image size     = 
| alt            = 
| caption        = Theatrical release poster
| director       = Chico Colvard
| producer       = Chico Colvard Liz Garbus Abigail Disney Dan Cogan
| writer         = Chico Colvard
| narrator       = 
| starring       = 
| music          = Miriam Cutler
| cinematography = Chico Colvard
| editing        = Rachel J. Clark
| studio         = C-LineFilms
| distributor    = 
| released       =  
| runtime        = 80 minutes
| country        = United States
| language       = English
| budget         = 
| gross          = 
| preceded by    = 
| followed by    = 
}}
Family Affair is a documentary film directed by Chico Colvard, exploring a history of abuse that had gone on inside his family, as a child. The movie was produced by Chico Colvard and   and Discovery Communications. 

==References==
 

==External links==
*  
*  
*  
*  
*  
*  
*  
*  

 
 
 
 
 
 
 
 
 


 