The Bride Was Beautiful
{{Infobox film
| name           =The Bride Was Beautiful
| image          = 
| alt            = 
| caption        = 
| director       = Pál Gábor
| producer       = 
| writer         = 
| starring       = 
| music          = Nicola Piovani
| cinematography = János Kende
| editing        =  
| studio         = 
| distributor    = 
| released       =  
| runtime        = 
| country        = Hungary-Italy
| language       = 
| budget         = 
| gross          = 
}}
The Bride Was Beautiful ( ,  ) is a 1986 Hungarian-Italian drama film directed by Pál Gábor. 

==Cast==

* Ángela Molina: Maria
* Massimo Ghini: Sergio
* Stefania Sandrelli: Carmela Simona Cavallari: Giovanna
* Marco Leonardi: Giuseppe 
* Guia Jelo: mother of Giovanna

==External links==
*  

 
 
 
 
 

 