She Knew What She Wanted
{{Infobox film
| name           = She Knew What She Wanted
| image          =
| image_size     =
| caption        =
| director       = Thomas Bentley
| producer       = Thomas Bentley Fred Thompson Frank Miller   Thomas J. Geraghty
| narrator       =
| starring       = Albert Burdon   Betty Ann Davies   Claude Dampier   Googie Withers
| music          = 
| cinematography = Curt Courant
| editing        = 
| studio         = John Argyle Productions
| distributor    = Wardour Films
| released       = June 1936
| runtime        = 74 minutes
| country        = United Kingdom English
| budget         =
| gross          =
| preceded_by    =
| followed_by    =
| website        =
}} British musical musical comedy Funny Face.

==Cast==
* Albert Burdon - Dugsie 
* Betty Ann Davies - Frankie 
* Claude Dampier - Jimmy Reeves 
* W.H. Berry - Herbert 
* Fred Conyngham - Peter Thurston 
* Ben Welden - Chester 
* Googie Withers - Dora 
* Hope Davy - June 
* Sybil Grove - Mme. Piccard 
* Albert le Fre - Butler

==References==
 

==External links==
* 

 

 
 
 
 
 
 


 
 