I'm All Good
 
 
<!-- Hide infobox until needed
{{Infobox film
| name           =
| image          = 
| image size     = 
| alt            = 
| caption        = 
| director       = 
| producer       = 
| writer         = 
| narrator       = 
| starring       = 
| music          = 
| cinematography = 
| editing        = 
| studio         = 
| distributor    = 
| released       =
| runtime        = 
| country        = 
| language       = 
| budget         = 
| gross          = 
| preceded by    = 
| followed by    = 
}}
---> 
Im All Good ( ) is a 2008 Czech comedy film directed by Jan Hřebejk.

== Cast == Boleslav Polívka – Mrklas alias Mr. Class
*Jiří Schmitzer – Tonda
*Lenka Vlasáková – Andula
*Josef Somr – Balun 
*Miroslav Vladyka – Kája
*Vladimír Javorský – Pepé
*Petr Forman – Láďa
*Dalibor Vinklát – Franta
*Simona Babčáková – Jitka, Kájas wife
*Boris Hybner 
*Jakub Kohák 

==External links==
*  

 
 
 
 

 