The Ruined Shopkeeper
 
{{Infobox film
| name           = The Ruined Shopkeeper
| image          = U snědeného krámu poster CS.jpg
| image size     = 
| caption        = 
| director       = Martin Frič
| producer       = 
| writer         = Václav Wasserman Ignát Herrmann
| starring       = Vlasta Burian
| music          = 
| cinematography = Václav Vích
| editing        = Martin Frič
| distributor    = 
| released       =  
| runtime        = 97 minutes
| country        = Czechoslovakia
| language       = Czech
| budget         = 
}}
 Czech comedy film directed by Martin Frič. It was released in 1933.   

==Cast==
* Vlasta Burian as Kyllian
* Frantisek Smolík as Martin Zemla
* Antonie Nedošinská as Katerina Sustrova
* Ela Poznerová as Pavlína

==References==
 

==External links==
*  

 

 
 
 
 
 
 
 
 
 
 

 
 