Abort (film)
{{Infobox film
| name           = Abort
| image          = 
| image size     =
| caption        = 
| director       = Vibeke Løkkeberg
| producer       = 
| writer         = Halvor Elvik   Vibeke Løkkeberg
| narrator       =
| starring       = 
| music          = 
| cinematography = 
| editing        = 
| distributor    = 
| released       = 1970
| runtime        = 
| country        = Norway
| language       = Norwegian
| budget         = 
| gross          =
| preceded by    =
| followed by    =
}}
 Norwegian drama film directed by Vibeke Løkkeberg. It follows a young girl from the moment she discovers that she is pregnant, to the point where a doctor makes the decision about whether she is granted an abortion.

==External links==
*  
*   at Filmweb.no (Norwegian)

 
 
 
 
 