Alt for Egil
{{Infobox film
| name           = Alt For Egil
| image          = 
| image size     =
| caption        = 
| director       = Tore Rygh
| producer       = 
| writer         = Tore Renberg   Tore Rygh
| narrator       =
| starring       = Kristoffer Joner   Trond Høvik 
| music          = 
| cinematography = 
| editing        = 
| distributor    = 
| released       = 20 August 2004
| runtime        = 90 minutes 
| country        = Norway
| language       = Norwegian
| budget         = 
| gross          =
| preceded by    =
| followed by    =
}}
 patriotic Norwegian motto dating to World War II.

==Reception== dice throw of four, and called it "a pretty nice love-story".    Inger Bentzrud of Dagbladet gave it five points, calling it "cheeky and different". She particularly appreciated the musical score, and the films local atmosphere.   

==References==
 

==External links==
*  
*   at Filmweb.no

 
 
 


 