1958 (film)
{{Infobox film
| name           = 1958
| image          = 
| image size     =
| caption        = 
| director       = Oddvar Bull Tuhus
| producer       = 
| writer         = Jan H. Jensen   Tore Torell
| narrator       =
| starring       = Rune Dybedahl   Cecilie Holter 
| music          = 
| cinematography = 
| editing        = 
| distributor    = 
| released       = 22 August 1980
| runtime        = 96 minutes 
| country        = Norway
| language       = Norwegian
| budget         = 
| gross          =
| preceded by    =
| followed by    =
}}
 Norwegian 1980 drama film directed by Oddvar Bull Tuhus, starring Rune Dybedahl and Cecilie Holter. It takes place in the year 1958, and deals with a group of teenagers in Sinsen, Oslo.

== External links ==

*  
*  

 
 
 
 
 


 