Pasáček z doliny
{{Infobox film
| name           = Pasáček z doliny
| image          = 
| image size     = 
| alt            = 
| caption        = 
| director       = Frantisek Vlácil
| producer       = 
| writer         = 
| narrator       = 
| starring       = Josef Kemr
| music          = 
| cinematography = 
| editing        = 
| studio         = 
| distributor    = 
| released       = 1983
| runtime        = 90 min
| country        = Czechoslovakia
| language       = Czech
| budget         = 
| gross          = 
| preceded by    = 
| followed by    = 
}}
 Czechoslovak film. The film starred Josef Kemr. 

==References==
 

==External links==
*  

 
 
 
 
 
 

 