The Bondman (film)
 
 
{{Infobox film
| name           = The Bondman
| image          = 
| image_size     = 
| caption        = 
| director       = Herbert Wilcox
| producer       = Herbert Wilcox
| writer         = Hall Caine (novel)   T.A. Innes
| starring       = Blanche Sweet Haddon Mason Cecil Humphreys   Louise Prussing
| music          = 
| cinematography = Freddie Young
| editing        = 
| studio         = British & Dominions Film Corporation
| distributor    = Woolf & Freedman Film Service
| released       = 21 May 1929 (US)
| runtime        = 
| country        = United Kingdom English Intertitles
| budget         = 
| gross          = 
| preceded_by    = 
| followed_by    = 
}} British silent adventure directed The Bondman by Hall Caine.

==Cast==
* Norman Kerry - Jason 
* Frances Cuyler - Greeba Fairbrother 
* Donald Macardle - Michael 
* Henry Vibart - Father Ferrati 
* H. Saxon-Snell - Testa 
* Judd Green - Adam Fairbrother 
* Florence Vie - Mrs. Fairbrother  Edward ONeill - Father 
* Dora Barton - Mother 
* Charles Emerald - Captain

==References==
 

==External links==
* 

 

 
 
 
 
 
 
 
 
 
 


 
 