The Death of Black King
{{Infobox film
| name           = The Death of Black King
| image          = 
| image size     = 
| alt            = 
| caption        = 
| director       = 
| producer       = 
| writer         = 
| narrator       = 
| starring       = 
| music          = 
| cinematography = 
| editing        = 
| studio         = 
| distributor    = 
| released       = 1971
| runtime        = 
| country        = Czechoslovakia
| language       = 
| budget         = 
| gross          = 
| preceded by    = 
| followed by    = 
}}
 Czechoslovak film. The film starred Josef Kemr. 

==References==
 

==External links==
*  

 
 
 
 
 
 