The Jubilee of Mr Ikel
{{Infobox film
| name           = The Jubilee of Mr Ikel
| image          = 
| image size     = 
| alt            = 
| caption        = 
| director       = Vatroslav Mimica
| producer       = 
| writer         = Vatroslav Mimica Antun Nalis
| narrator       = 
| starring       = Antun Nalis
| music          = Milo Cipra
| cinematography = Oktavijan Miletić
| editing        = Blaženka Jenčik Maja Marković
| studio         = Jadran Film
| distributor    = 
| released       =  
| runtime        = 77 minutes
| country        = Yugoslavia
| language       = Serbo-Croatian
| budget         = 
| gross          = 
| preceded by    = 
| followed by    = 
}}
 
The Jubilee of Mr Ikel ( ) is a 1955 Yugoslav feature film directed by Vatroslav Mimica.

==External links==
* 
*  at Filmski-Programi.hr  

 

 
 
 
 
 
 
 


 