Heaven Without Love
<!-- Hide infobox until needed
{{Infobox film
| name           =
| image          = 
| image size     = 
| alt            = 
| caption        = 
| director       = 
| producer       = 
| writer         = 
| narrator       = 
| starring       = 
| music          = 
| cinematography = 
| editing        = 
| studio         = 
| distributor    = 
| released       =
| runtime        = 
| country        = 
| language       = 
| budget         = 
| gross          = 
| preceded by    = 
| followed by    = 
}}
--->  Croatian film directed by Vladimir Pogačić. It was released in 1959.

==External links==
*  

 
 
 
 
 
 
 