Crazy Days (film)
 
<!-- Hide infobox until needed
{{Infobox film
| name           =
| image          = 
| image size     = 
| alt            = 
| caption        = 
| director       = 
| producer       = 
| writer         = 
| narrator       = 
| starring       = 
| music          = 
| cinematography = 
| editing        = 
| studio         = 
| distributor    = 
| released       =
| runtime        = 
| country        = 
| language       = 
| budget         = 
| gross          = 
| preceded by    = 
| followed by    = 
}}
--->  Croatian film. It was directed by Nikola Babić and was released in 1977.

==Plot==
 Yugoslavs who go abroad to earn money, a number of foreign workers have come back home for the holidays. When one of them taunts another with having done poorly abroad, the other fellow claims that he has enough money from his jobs to paper the other fellows ostentatious and expensive house. 

==References==
 

==External links==
*  

 
 
 
 


 