That Summer of White Roses
 
{{Infobox film
| name           = That Summer of White Roses
| image size     = 
| image	=	That Summer of White Roses FilmPoster.jpeg
| alt            = 
| caption        = 
| director       = Rajko Grlić
| producer       = 
| writer         = 
| narrator       =  Susan George Alun Armstrong John Gill Miljenko Brlečić Vanja Drach Stanka Gjuric
| music          = Junior Campbell Mike ODonnell Brane Živković
| cinematography = Tomislav Pinter
| editing        = 
| studio         = 
| distributor    = 
| released       =
| runtime        = 98 minutes
| country        = Yugoslavia United Kingdom
| language       = English
| budget         = 
| gross          = 
| preceded by    = 
| followed by    = 
}}

That Summer of White Roses ( ) is a 1989 Yugoslav-British film directed by Rajko Grlić.

==External links==
* 
*  at Filmski-Programi.hr  

 
 

 
 
 
 
 


 