Lost Homeland
 
<!-- Hide infobox until needed
{{Infobox film
| name           = Lost Homeland
| image          = 
| image size     = 
| alt            = 
| caption        = 
| director       = 
| producer       = 
| writer         = 
| narrator       = 
| starring       = 
| music          = 
| cinematography = 
| editing        = 
| studio         = 
| distributor    = 
| released       =
| runtime        = 
| country        = 
| language       = 
| budget         = 
| gross          = 
| preceded by    = 
| followed by    = 
}}
--->  Croatian film directed by Ante Babaja. It is based on Slobodan Novaks novel of the same name. 

In 1999, a poll of Croatian film critics found it to be one of the best Croatian films ever made. 

==References==
 

==External links==
*  

 

 
 
 
 
 
 
 
 