Visitors from the Galaxy
{{Infobox film
| name           = Visitors from the Galaxy
| image          = 
| image size     = 
| alt            = 
| caption        = 
| director       = Dušan Vukotić
| producer       = 
| writer         = Miloš Macourek Dušan Vukotić
| narrator       = 
| starring       = Žarko Potočnjak Lucie Zulová Ksenija Prohaska Rene Bitorajac Ljubiša Samardžić
| music          = Tomislav Simović
| cinematography = 
| editing        = 
| studio         = 
| distributor    = 
| released       = 1981
| runtime        = 
| country        = Yugoslavia Czechoslovakia
| language       = Serbo-Croatian
| budget         = 
| gross          = 
| preceded by    = 
| followed by    = 
}}

Visitors from the Galaxy ( ) is a 1981 Yugoslav-Czechoslovak film directed by Dušan Vukotić.

==External links==
* 
*  at Filmski-Programi.hr

 
 
 
 
 


 
 