Bunarman
 
 
{{Infobox film
| name           = Bunarman
| image          = 
| image size     = 
| alt            = 
| caption        = 
| director       = Branko Ištvančić
| producer       = 
| writer         = Davor Sismanovic
| narrator       = 
| starring       = 
| music          = 
| cinematography = 
| editing        = 
| studio         = 
| distributor    = 
| released       =
| runtime        = 
| country        = Croatia
| language       = 
| budget         = 
| gross          = 
}} Croatian documentary film directed by Branko Ištvančić. It was released in 2003.

==Synopsis== wells without using machines, relying only on hand tools. This approach is not just highly demanding physically, but also requires well-thought out methods and resourcefulness. 

==References==
 

==External links==
*  

 
 
 
 
 


 
 