Transatlantic (1998 film)
 
<!-- Hide infobox until needed
{{Infobox film
| name           = Transatlantic
| image          =
| image size     =
| alt            =
| caption        =
| director       =
| producer       =
| writer         =
| narrator       =
| starring       =
| music          =
| cinematography =
| editing        =
| studio         =
| distributor    =
| released       =
| runtime        =
| country        =
| language       =
| budget         =
| gross          =
| preceded by    =
| followed by    =
}}
--->  Croatian film directed by Mladen Juran. It was released in 1998. It was Croatias submission for the Academy Award for Best Foreign Language Film. 

==References==
 

==External links==
*  

 
 
 


 