Two Players from the Bench
{{Infobox film
| name           = Two Players from the Bench
| image          = 
| image size     = 
| alt            = 
| caption        = 
| director       = Dejan Šorak
| producer       = Ivan Maloca
| writer         = Dejan Šorak
| narrator       = 
| starring       = Goran Navojec
| music          = 
| cinematography = 
| editing        = 
| studio         = 
| distributor    = 
| released       = 22 July 2005
| runtime        = 112 minutes
| country        = Croatia
| language       = Croatian
| budget         = 
| gross          = 
| preceded by    = 
| followed by    = 
}} Croatian comedy film directed by Dejan Šorak. It was released in 2005.

==Cast==
* Goran Navojec - Ante Jukic
* Borko Perić - Dusko Katran
* Tarik Filipović - Antisa
* Dora Lipovčan - Stela
* Renne Gjoni - The Hague Investigator

==External links==
*  

 
 
 
 
 
 