The One Who Will Stay Unnoticed
{{Infobox film
| name           = The One Who Will Stay Unnoticed
| image          = 
| image size     = 
| alt            = 
| caption        = 
| director       = Zvonimir Jurić
| producer       = Boris T. Matić Hrvoje Osvadić
| writer         = 
| narrator       = 
| starring       = Nataša Dangubić
| music          = 
| cinematography = 
| editing        = Dubravka Turić
| studio         = 
| distributor    = 
| released       = 2003
| runtime        = 92 minutes
| country        = Croatia
| language       = Croatian
| budget         = 
| gross          = 
| preceded by    = 
| followed by    = 
}} Croatian drama film directed by Zvonimir Jurić. It was released in 2003.

==Cast==
* Nataša Dangubić
* Asja Jovanović - (as Asja Potočnjak)
* Daria Lorenci
* Krešimir Mikić - Kreso
* Bojan Navojec
* Rakan Rushaidat

==External links==
*  

 
 
 
 
 
 