Luang ta
{{Infobox film
| name           = Luang ta
| image          = 
| image size     = 
| caption        = 
| director       = Permphol Cheyaroon
| producer       = 
| writer         = Visuth Kemachiwa Yue Mai Prae
| narrator       = 
| starring       = Chatupol Bhuapirom
| music          = 
| cinematography = Permphol Cheyaroon
| editing        = 
| distributor    = 
| released       = 1980
| runtime        = 123 minutes
| country        = Thailand
| language       = Thai
| budget         = 
| preceded by    = 
| followed by    = 
}}

Luang ta is a 1980 Thai film directed by Permphol Cheyaroon. It was entered into the 31st Berlin International Film Festival.   

==Cast==
* Chatupol Bhuapirom
* Lotok
* Supansa Nuanbhirom

==References==
 

==External links==
* 

 
 
 
 
 