A Cargo to Africa
{{Infobox film
| name           = A Cargo to Africa
| image          = ACargoToAfrica2009Poster.jpg
| caption        = Theatrical Poster
| director       = Roger Cantin   
| producer       = Rock Demers Chantal Lafleur
| screenplay     = 
| story          = 
| starring       = Julien Adam Carl Alacchi Manuel Aranguiz Claude Aubin 
| music          = Ned Bouhalassa Oumar Ndiaye Xosluman
| cinematography = 
| editing        = 
| studio         = 
| distributor    = 
| released       =  
| runtime        = 90 minutes
| country        = Canada
| language       = English French
| budget         = 
| gross          = 
}}
A Cargo to Africa ( ) is a 2009 Canadian film directed by Roger Cantin.

==See also==
* Cinema of Quebec
* Cinema of Canada

==External links==
*  

 
 
 
 
 
 
 
 
 
 
 


 
 