Generał. Zamach na Gibraltarze
{{Infobox film
| name           =Generał. Zamach na Gibraltarze
| image          = 
| alt            = 
| caption        = 
| director       = Anna Jadowska
| producer       = TVN, Wiertnicza 
| writer         = Anna Jadowska 
| narrator       = 
| starring       = Krzysztof Pieczynski
| music          = Contemporary Noise Quintet, Robert Ciodyk 
| cinematography = Marek Gajczak & Robert Halas
| editing        = Robert Ciodyk PSM
| studio         = 
| distributor    = ITI Group
| released       =  
| runtime        = 
| country        = Poland
| language       = Polish
| budget         = 
| gross          = 
}} Polish historical film, based on the last days of General Wladyslaw Sikorski during World War II.  It was released in 2009;  it was directed by Anna Jadowska; Krzysztof Pieczynski plays General Sikorski.  

==References==
 

==External links==
*  
*  

 
 
 
 
 
 

 