Alchemik
 

{{Infobox film
| name           = Alchemik
| image          = 1989 Polish film Alchemik.jpg
| image size     = 
| alt            = 
| caption        = 
| director       = Jacek Koprowicz 
| producer       = 
| writer         = Jacek Koprowicz 
| narrator       = 
| starring       =  Olgierd Łukaszewicz
| music          = 
| cinematography = Tadeusz Myszorek
| editing        = 
| studio         = Filmowy Tor 
| distributor    = 
| released       = October 7, 1989
| runtime        = 117 min
| country        = Poland
| language       = Polish
| budget         = 
| gross          = 
| preceded by    = 
| followed by    = 
}}
 Polish historical film. It was released in 1988.  

An alchemist, Sendivius, comes to court, and transmutes base metal into gold. 

==References==
 

==External links==
*  

 
 
 
 


 