Wojewoda (film)
<!-- Hide infobox until needed
{{Infobox film
| name           =
| image          = 
| image size     = 
| alt            = 
| caption        = 
| director       = 
| producer       = 
| writer         = 
| narrator       = 
| starring       = 
| music          = 
| cinematography = 
| editing        = 
| studio         = 
| distributor    = 
| released       =
| runtime        = 
| country        = 
| language       = 
| budget         = 
| gross          = 
| preceded by    = 
| followed by    = 
}}
---> 
Wojewoda is a Polish silent historical film. It was released in 1912. 

==References==
 

==External links==
*  
 
 
 
 


 