The Heath Is Green (1932 film)
The German musical in 1951 in 1972.

==Main cast==
*  Camilla Spira  ...  Grete Lüdersen
*  Peter Voß ...  Walter - Ein junger Förster
*  Theodor Loos ...  Lüder Lüdersen
*  Fritz Kampers ...  Alois
*  Hugo Werner-Kahle ...  Der Oberförster
*  Paul Beckers  ...  Blümchen
*  Karl Blume ...  Nachtigall

==External links==
* 

 

 
 
 
 
 
 
 
 


 
 