Pułkownik Kwiatkowski
{{Infobox film
| name           = Pułkownik Kwiatkowski
| image          = 
| image size     = 
| alt            = 
| caption        = 
| director       = Kazimierz Kutz
| producer       = 
| writer         = Jerzy Stefan Stawiński
| narrator       = 
| starring       = Marek Kondrat, Zbigniew Zamachowski, Renata Dancewicz
| music          = Jan Kanty Pawluśkiewicz
| cinematography = Grzegorz Kędzierski
| editing        = 
| studio         = 
| distributor    = 
| released       =
| runtime        = 123 minutes
| country        = Poland Polish
| budget         = 
| gross          = 
| preceded by    = 
| followed by    = 
}} Polish historical film directed by Kazimierz Kutz. It was released in 1996. 

==References==
 

==External links==
*  

 
 
 
 
 


 