Dager fra 1000 år
{{Infobox film
| name           = Dager fra 1000 år
| image          = 
| image size     =
| caption        = 
| director       = Anja Breien   Egil Kolstø   Espen Thorstenson
| producer       = 
| writer         = Anja Breien, Egil Kolstø, Espen Thorstenson
| narrator       =
| starring       =  
| music          = 
| cinematography = 
| editing        = 
| distributor    = 
| released       = 1970
| runtime        = 107 minutes 
| country        = Norway
| language       = Norwegian
| budget         = 
| gross          =
| preceded by    =
| followed by    =
}}
 Norwegian anthology film written and directed by Anja Breien, Egil Kolstø and Espen Thorstenson. These three young directors got a chance to each contribute to a segment of a featured film. The three episodes take place in the past, the present, and the future.

==External links==
*  
*  
*   at the Norwegian Film Institute

 
 
 
 
 


 