Vienna (film)
{{Infobox film
| name           = Vienna
| image          =
| image size     =
| caption        =
| director       = Orson Welles
| producer       =
| writer         =
| narrator       =
| starring       = Orson Welles Arte Johnson Mickey Rooney Senta Berger
| music          =
| cinematography =
| editing        =
| filmed         =
| released       = 1968
| runtime        = 8 minutes (incomplete)
| country        = 
| language       = English
| budget         =
| preceded by    =
| followed by    =
}} 1968 short Munich Film Museum in 1999. 

==Plot== Prater amusement magician assistant.  The film concludes with a spy film spoof, as Welles becomes involved in the abduction of "the most beautiful woman in Vienna" (Senta Berger),  the kidnapper portrayed by Mickey Rooney. 

==References==
 

==External links==
*  

 

 
 
 
 
 
 

 