Strange Friends
{{Infobox film
| name           = Strange Friends
| image          = 
| image size     = 
| caption        = 
| director       = Xu Lei
| producer       = 
| writer         = Xu Lei Li Baoyuan Xu Tianxia Li Ling
| music          = 
| cinematography = Huang Xinyi 
| editing        = 
| distributor    = 
| released       = 1982
| runtime        = 80 minutes
| country        = China
| language       = Mandarin
| budget         = 
}}

Strange Friends ( ) is a 1982 Chinese film directed by Xu Lei. It was entered into the 33rd Berlin International Film Festival, where it won an Honourable Mention.   

==Cast== Li Ling
* Wang Yunxia
* Zhang Chao
* Zhan Jingbo

==References==
 

==External links==
* 

 
 
 
 