Le guêpier
{{Infobox film
| name           =Le guêpier
| image          =Le_guepier.jpg
| image_size     =
| caption        =
| director       = Roger Pigaut
| producer       =
| writer         =
| narrator       =
| starring       =
| music          =Giancarlo Chiaramello
| cinematography =Daniel Vogel
| editor       =
| distributor    =
| released       = 1976
| runtime        =
| country        = France Italy
| language       = French
| budget         =
}} 1976 French-Italy|Italian  film, directed by Roger Pigaut. It stars actor Gabriele Ferzetti. 

== Cast ==
* Claude Brasseur - Renaud 
* Marthe Keller - Melba 
* Gabriele Ferzetti - Gaspard 
* Vicky Messica - Vava 
* Vittorio Sanipoli : Fossetti 
* John Steiner : Fisher 
* Joëlle Bernard : Sarah 
* Fernand Guiot - Navarre  Jacques Richard - Miro 
* Hélène Manesse : Irène 
* Popeck - Hans (as Jean Herbert)
* Henri Czarniak - Director 

==References==
 

==External links==
* 

 
 
 
 
 

 