Incident In San Francisco
{{Infobox film
| name           =Incident In San Francisco
| image          =
| image_size     =
| caption        =
| director       =Don Medford
| producer       =
| writer         =J.E. Brown, Robert Dozier
| narrator       =
| starring       =Leslie Nielsen
| music          =
| cinematography =
| editor       =
| distributor    =
| released       = 1971
| runtime        =
| country        = United States English
| budget         =
}} American thriller film directed by Don Medford. It stars  Richard Kiley, Leslie Nielsen and Dean Jagger.

==External links==
* 

 
 
 
 
 


 