Grand Jury (1976 film)
{{Infobox film
| name           =Grand Jury 
| image          =
| image_size     =
| caption        =
| director       = Christopher Cain
| producer       = Christopher Cain (producer) Jim Ragan (associate producer) Jerry Rogers (executive producer)
| writer         = Christopher Cain
| narrator       = Barry Sullivan Sharon Thomas Meredith MacRae
| music          = Bob Summers
| cinematography = Hilyard John Brown
| editor         =
| studio         =
| distributor    = CBS
| released       =  
| runtime        = 100 minutes
| country        = United States
| language       = English
| budget         =
}}
Grand Jury is a 1976 American crime film. It stars Leslie Nielsen.

==External links==
* 

 
 
 
 


 