Entre onze heures et minuit
{{Infobox film
| name           =Entre onze heures et minuit
| image          =
| image_size     =
| caption        =
| director       =Henri Decoin
| producer       =
| writer         =
| narrator       =
| starring       =
| music          =
| cinematography =
| editor       =
| distributor    =
| released       = 1949
| runtime        =
| country        = France French
| budget         =
}} 1949 France|French  film directed by Henri Decoin. It stars Louis Jouvet and Madeleine Robinson; Yvette Etiévant appears in an early role.

==External links==
* 

 
 
 
 
 