Murder Among Friends
{{Infobox film
| name           =Murder Among Friends
| image          =
| image_size     =
| caption        = David Greene
| producer       =
| writer         =
| narrator       =
| starring       =Leslie Nielsen
| music          =
| cinematography =
| editor       =
| distributor    =
| released       = 1985
| runtime        =
| country        = United States English
| budget         =
}} American film. It stars  Leslie Nielsen.

==External links==
* 

 

 
 
 
 
 
 


 