Can Ellen Be Saved
{{Infobox film
| name           =Can Ellen Be Saved
| image          =
| image_size     =
| caption        =
| director       =
| producer       =
| writer         =
| narrator       =
| starring       =Leslie Nielsen
| music          =
| cinematography =
| editor       =
| distributor    =
| released       = 1974
| runtime        =
| country        = United States English
| budget         =
}} American  film. It stars  Leslie Nielsen.


==External links==
* 


 
 
 

 