Envy (2009 film)
{{Infobox film
| name           = Envy
| image          = EnvyTheatricalPoster.jpg
| alt            =
| caption        = Envy Theatrical Poster
| director       = Zeki Demirkubuz
| producer       =  
| writer         = Zeki Demirkubuz
| starring       =   
| music          = Tamer Çıray
| cinematography = Emre Erkmen
| editing        = Zeki Demirkubuz
| studio         =   
| distributor    = Medyavizyon
| released       =  
| runtime        = 96 minutes
| country        = Turkey
| language       = Turkish
| budget         =
| gross          = 
}}

Envy ( ) is an 2009 Turkish drama film, written and directed by Zeki Demirkubuz based on the novel of the same name by Nahit Sirri Orik, about a married woman who has an affair with the son of a rich man. The film, which went on nationwide general release across Turkey on  , has been screened at International film festivals in Adana and Istanbul.

==Production==
The film was shot on location in Zonguldak, Turkey.   

==Reception==
=== Awards === The Crossing)   

==See also==
* 2009 in film
* Turkish films of 2009

==References==
 

==External links==
*   
*  
*   page for the film

 
 
 
 
 

 