Tugumi
{{Infobox film
| name           = Tugumi
| image          = 
| image size     = 
| alt            = 
| caption        = 
| director       = Jun Ichikawa
| producer       = 
| writer         = 
| screenplay     = 
| story          =
| based on       =  
| narrator       = 
| starring       = 
| music          = 
| cinematography = 
| editing        = 
| studio         = 
| distributor    = 
| released       =  
| runtime        = 
| country        = Japan
| language       = Japanese
| budget         = 
| gross          = 
| preceded by    = 
| followed by    = 
}}
  is a 1990 Japanese film directed by Jun Ichikawa.

==Awards==
12th Yokohama Film Festival  
* Best Supporting Actress - Tomoko Nakajima
* 6th Best Film

==Cast==
*Riho Makise
*Tomoko Nakajima
*Yasuyo Shiratori 

==References==
 

 
 

 
 
 
 