The Love Song of Kang Ding
{{Infobox film
 | name           = The Love Song of Kang Ding
 | image          =
 | alt            =
 | caption        =
 | director       =
 | producer       =
 | writer         =
 | starring       = Alec Su, Wenpei Ju, Bajia Pu, Guangbei Zhang, Yiwei Lau, Daolin Chen, Wenting Yuan
 | music          =
 | cinematography =
 | editing        =
 | studio         =
 | distributor    =
 | released       =  
 | runtime        =
 | country        = China
 | language       = Mandarin
 | budget         =
 | gross          =
}}
The Love Song of Kang Ding (Chinese: 康定情歌; Pinyin: Kāng Dìng Qíng Gē) is a 2010 Chinese romance film starring Alec Su, Wenpei Ju, Bajia Pu, Guangbei Zhang, Yiwei Lau, Daolin Chen, and Wenting Yuan.  It was released on 5 November 2010 in China.

==External links==
* 

 

 
 
 
 


 
 