Little Big Shot (1952 film)
 
 1952 United comedy and directed by produced by Henry Halsted and Byron Film.

==Plot summary== crime comedy comedy shows 1936 film Where Theres A Will.

==References==
 

==External links==
*  
*  
*  

 

 
 
 
 
 
 
 
 


 
 
 