Muž z neznáma
{{Infobox film
| name           = Muž z neznáma
| image          = 
| caption        = 
| director       = Martin Frič
| producer       = 
| writer         = 
| starring       = Zdeněk Štěpánek
| music          = 
| cinematography = 
| editing        = Jan Kohout
| distributor    = 
| released       =  
| runtime        = 80 minutes
| country        = Czechoslovakia
| language       = Czech
| budget         = 
}}

Muž z neznáma is a 1939 Czech drama film directed by Martin Frič.   

==Cast==
* Zdeněk Štěpánek
* Jiřina Štěpničková
* Zvonimir Rogoz Karel Cerný
* Karel Dostal
* Jaroslav Průcha
* Božena Šustrová
* František Kreuzmann
* Jarmila Holmová
* Vladimír Šmeral
* Jaroslav Vojta

==References==
 

==External links==
*  

 

 
 
 
 
 
 
 
 
 
 