Dařbuján a Pandrhola
 
{{Infobox film
| name           = Dařbuján a Pandrhola
| image          = 
| caption        = 
| director       = Martin Frič
| producer       = 
| writer         = Jan Drda Martin Frič
| starring       = Jirí Sovák
| music          = 
| cinematography = Jan Novák
| editing        = Jan Kohout
| distributor    = 
| released       =  
| runtime        = 80 minutes
| country        = Czechoslovakia
| language       = Czech
| budget         = 
}}

Dařbuján a Pandrhola is a 1960 Czech fantasy film directed by Martin Frič.   

==Cast==
* Jirí Sovák as Kuba Darbuján
* Rudolf Hrusínský as Pandrhola
* Václav Lohniský as Smrták
* Josef Hlinomaz as Basta

==References==
 

==External links==
*  

 

 
 
 
 
 
 
 
 
 