¡Viva México! (El grito de Dolores)
{{Infobox film
| name           = ¡Viva México! - Alma insurgente, El grito de Dolores
| image          = 
| image size     =
| caption        =
| director       = Miguel Contreras Torres
| producer       =
| writer         = 
| narrator       =
| starring       =Sara García
| music          = 
| cinematography = 
| editing        =
| distributor    = 
| released       = 1934
| runtime        = 80 min
| country        = Mexico Spanish
| budget         =
| gross          =
| preceded by    =
| followed by    =
}} 1934 Mexico|Mexican film about the events that caused the Mexican War of Independence. It stars Sara García.  

==Cast==

* Paco Martínez
* Sara García
* Alberto Martí
* Joaquín Busquets
* José Cortés
* Rodolfo Navarrete
* Paquita Estrada
* Jesús Melgarejo
* Alfonso Patiño Gómez
* Emma Roldán

==External links==
*  
* .


 
 
 
 


 