Morir de pie
{{Infobox film
| name           =Morir de pie
| image          = 
| image size     =
| caption        =
| director       = Rafael Baledón
| producer       = Antonio del Castillo	
| writer         =  Janet Alcoriza, Luis Alcoriza
| narrator       =
| starring       =  Guillermo Cramer, Manuel Dondé, Chel López 
| music          = Sergio Guerrero
| cinematography = Enrique Wallace
| editing        = Juan José Marino	
| distributor    = 
| released       = 8 May 1957 (Mexico) 
| runtime        = 85 min
| country        = Mexico Spanish
| budget         =
| gross          =
| preceded by    =
| followed by    =
}} 1957 Mexico|Mexican film. It was written by Luis Alcoriza.

==External links==
*  

 
 
 


 