La Carne manda
{{Infobox film
| name           =La Carne manda
| image          = 
| image size     =
| caption        =
| director       =Chano Urueta
| producer       =
| writer         = 
| narrator       =
| starring       =
| music          = 
| cinematography = 
| editing        =
| distributor    = 
| released       = 1948
| runtime        =
| country        = Mexico Spanish
| budget         =
| gross          =
| preceded by    =
| followed by    =
}} 1948 Mexico|Mexican film. It was directed by 
Chano Urueta.

==Cast==

*Eva Calvo		
*Esther Fernández		
*Rosita Fornés		
*Alma Delia Fuentes		
*Max Langler		
*Pepe Martínez		
*José Morcillo		
*José Pulido		
*Juan Pulido
*José Eduardo Pérez		
*Emma Roldán		
*David Silva		
*Manuel Trejo Morales


==External links==
* 

 
 
 
 
 


 