Las mujeres mandan
{{Infobox film
| name           =Las mujeres mandan
| image          = 
| image size     =
| caption        =
| director       =Fernando de Fuentes
| producer       =
| writer         = 
| narrator       =
| starring       =
| music          = 
| cinematography = 
| editing        =
| distributor    = 
| released       = 1937
| runtime        =
| country        = Mexico Spanish
| budget         =
| gross          =
| preceded by    =
| followed by    =
}} 1937 Mexico|Mexican film. It was directed by 
Fernando de Fuentes.

==Plot==

Del Diestro plays Isidoro a bored bank teller,  who decides to leave his family to follow a young dancer, Chayito, played by Tamayo.  Once in Mexico City they become lovers and she asks him to rob the bank he used to work for. 

==Cast==

*Alfredo del Diestro
*Marina Tamayo
*Sara Garcia
*Joaquin Coss
*Manuel Buendia
*Carmen Conde

==References==
 

==External links==
*  
 
 
 
 
 


 