Cuando los hijos odian
{{Infobox film
| name           =Cuando los hijos odian
| image          = 
| image size     =
| caption        =
| director       = Joselito Rodríguez
| producer       = Alfonso Sánchez Tello	
| writer         = Carlos Orellana, Joselito Rodríguez
| narrator       =
| starring       =Carlos Orellana, Eusebio Aguilera, Miguel Bermejo, Lidia Franco
| music          = 
| cinematography = José Ortiz Ramos
| editing        = Fernando Martínez	
| distributor    = 
| released       =  9 February 1950 (Mexico)
| runtime        = 100 min
| country        = Mexico Spanish
| budget         =
| gross          =
| preceded by    =
| followed by    =
}} 1950 Mexico|Mexican film. It stars Carlos Orellana.

==Cast==

* 	 Eusebio Aguilera		
* 	 Miguel Bermejo		
* 	 Lidia Franco		
* 	 Antonio R. Frausto		
* 	 Pompín Iglesias		
* 	 Lupe Inclán		
* 	 Miguel Inclán		
* 	 Gloria Iturbe		
* 	 Amanda del Llano		
* 	 Salvador Lozano		
* 	 Delia Magaña		
* 	 Blanca Marroquín		
* 	 Inés Murillo		
* 	 Eduardo Noriega		
* 	 Carlos Orellana

==External links==
*  

 
 
 


 