El jefe máximo
{{Infobox film
| name           =El jefe máximo
| image          = 
| image size     =
| caption        =
| director       =Fernando de Fuentes
| producer       =
| writer         = 
| narrator       =
| starring       =
| music          = 
| cinematography = 
| editing        =
| distributor    = 
| released       = 1940
| runtime        =
| country        = Mexico Spanish
| budget         =
| gross          =
| preceded by    =
| followed by    =
}} 1940 Mexico|Mexican film. It was directed by Fernando de Fuentes.

==External links==
*  

 
 
 
 
 


 