El as de oros
{{Infobox film
| name           =El as de oros
| image          = 
| image size     =
| caption        =
| director       =Chano Urueta
| producer       =
| writer         = 
| narrator       =
| starring       = Manuel Capetillo Flor Silvestre Regina Torné Antonio Aguilar
| music          = 
| cinematography = 
| editing        =
| distributor    = 
| released       = 1968
| runtime        =
| country        = Mexico Spanish
| budget         =
| gross          =
| preceded by    =
| followed by    =
}} 1968 Mexico|Mexican film, directed by Chano Urueta, starring Manuel Capetillo, Flor Silvestre, Regina Torné, and Antonio Aguilar (as himself in a cameo role).

==External links==
*  

 
 
 
 
 


 