Tú, solo tú
{{Infobox film
| name           =Tú, solo tú
| image          = 
| image size     =
| caption        =
| director       =
| producer       =
| writer         = Luis Alcoriza
| narrator       =
| starring       =
| music          = 
| cinematography = 
| editing        =
| distributor    = 
| released       = 1950
| runtime        =
| country        = Mexico Spanish
| budget         =
| gross          =
| preceded by    =
| followed by    =
}} 1950 Mexico|Mexican film. It was written by Luis Alcoriza.

==Cast==
* Rosita Quintana		
* Luis Aguilar		
* Luis Alcoriza		
* Arturo Soto Rangel		
* Dolores Camarillo		
* Rina Valdarno		
* Freddie Romero		
* Roberto Y. Palacios		
* Eufrosina García	 ...	(as La Flaca)
* José Escanero		
* José Chávez (actor)|José Chávez		
* Ricardo Adalid		
* José Pardavé		
* Pascual García Peña		
* Edmundo Espino

==External links==
*  

 
 
 
 


 