Reina de reinas: La Virgen María
{{Infobox film
| name           =Reina de reinas: La Virgen María
| image          = 
| image size     =
| caption        =
| director       = Miguel Contreras Torres
| producer       = Miguel Contreras Torres
| writer         = 
| narrator       =
| starring       =Luis Alcoriza
| music          = 
| cinematography = 
| editing        =
| distributor    = 
| released       = 1948
| runtime        =
| country        = Mexico Spanish
| budget         =
| gross          =
| preceded by    =
| followed by    =
}} 1948 Mexico|Mexican film. It stars Luis Alcoriza.

==External links==
*  

 
 
 
 
 

 