Serenata en México
{{Infobox film
| name           =Serenata en México
| image          = 
| image size     =
| caption        =
| director       =Chano Urueta
| producer       =  Cinematográfica ABSA
| writer         = Alfredo Salazar
| narrator       =
| starring       = Luis Abadié, Luis Aguilar, Nacho Contla 
| music          = Rubén Fuentes, Rosalío Ramírez
| cinematography = Jack Draper
| editing        = Jorge Bustos	 
| distributor    = 
| released       =  5 July 1956 (Mexico) 
| runtime        =
| country        = Mexico Spanish
| budget         =
| gross          =
| preceded by    =
| followed by    =
}} 1956 Mexico|Mexican film. It was directed by 
Chano Urueta.

==Cast==

* Luis Abadié		
* 	 Luis Aguilar		
* 	 Nacho Contla		
* 	 Felipe de Flores		
* 	 Pompín Iglesias	 ...	(as Alfonso Pompin Iglesias)
* 	 Martha Lipuzcoa		
* 	 Francisco Meneses		
* 	 Marta Patricia		
* 	 Rosita Quintana		
* 	 Abel Salazar		
* 	 Manuel Sánchez Navarro		
* 	 Armando Velasco

==External links==
*  

 
 
 
 
 


 