Los Hermanos Diablo
{{Infobox film
| name           =Los Hermanos Diablo
| image          = 
| image size     =
| caption        =
| director       = Fernando Méndez, Chano Urueta
| producer       = Abel Salazar	
| writer         = Alfredo Salazar
| narrator       =
| starring       =  Rafael Baledón, José Castro, Mauricio Garcés 
| music          = Gustavo César Carrión
| cinematography = Raúl Martínez Solares
| editing        = Alfredo Rosas Priego
| distributor    = 
| released       =  18 November 1959 (Mexico) 
| runtime        = 75 min
| country        = Mexico Spanish
| budget         =
| gross          =
| preceded by    =
| followed by    =
}} 1959 Mexico|Mexican film. It was directed by 
Chano Urueta.

==Cast==
* 	 Rafael Baledón		
* 	 José Castro		
* 	 Mauricio Garcés		
* 	 Dacia González		
* 	 Carlos Nieto		
* 	 Tito Novaro		
* 	 Consuelo Oviedo		
* 	 Antonio Raxel		
* 	 David Reynoso		
* 	 Guillermo Rivas		
* 	 Carlos Robles Gil		
* 	 Abel Salazar		
* 	 Carlos Suárez		
* 	 Alfonso Torres
==External links==
*  

 
 
 
 
 


 