Sexo vs. sexo
{{Infobox film
| name           =Sexo vs. sexo
| image          = 
| image size     =
| caption        =
| director       =
| producer       =
| writer         = 
| narrator       =
| starring       =Sara García
| music          = 
| cinematography = 
| editing        =
| distributor    = 
| released       = 1983
| runtime        =
| country        = Mexico Spanish
| budget         =
| gross          =
| preceded by    =
| followed by    =
}} 1983 Mexico|Mexican film. It stars Sara García. It was directed by Víctor Manuel Castro and was releases on 24 February 1983. The screenplay was written by Jorge M. Isaac and Víctor Manuel Castro.

==External links==
*  

 
 
 


 