El baisano Jalil
{{Infobox film
| name           =El baisano Jalil
| image          = 
| image size     =
| caption        =
| director       = Joaquín Pardavé, Roberto Gavaldón
| producer       = Gregorio Walerstein	
| writer         = Adolfo Fernández Bustamante (story), Alberto Novión	 	 play "El gringo Baratieri", Joaquín Pardavé adaptation
| narrator       =
| starring       =Sara García
| music          = Mario Ruiz Armengol
| cinematography = Víctor Herrera
| editing        =
| distributor    = 
| released       = 1942
| runtime        =
| country        = Mexico Spanish
| budget         =
| gross          =
| preceded by    =
| followed by    =
}}
 1942 Mexico|Mexican film. It stars Sara García. Story about Lebanese-immigrants to Mexico in the earlier 19th century.

==External links==
*  
* 

 

 
 
 
 
 

 