Pobre diablo
{{Infobox film
| name           =Pobre diablo
| image          = Pobre diablo.jpg
| image size     =
| caption        =
| director       =José Benavides hijo
| producer       =
| writer         = José Benavides hijo, Carlos Orellana 	
| narrator       =
| starring       =Fernando Soler
| music          = 
| cinematography = 
| editing        =
| studio    = Rey Soria Films
| released       = 1940
| runtime        =
| country        = Mexico Spanish
| budget         =
| gross          =
| preceded by    =
| followed by    =
}} 1940 Mexico|Mexican film directed by José Benavides hijo. It stars Fernando Soler.

==Cast==
*Fernando Soler
*Pedro Armendáriz 			
*José Escanero 	
*Conchita Gentil Arcos 	 		
*Raúl Guerrero 	
*Agustín Isunza 			
*Tito Novaro 			
*Carlos Orellana 	
*Manuel Pozos 	
*Humberto Rodríguez 			
*Manolita Saval		
*Consuelo Segarra 		
*Virginia Serret 		 		
*Arturo Soto Rangel 			
*Paz Villegas

==External links==
*  

 
 
 


 