¡Suicídate, mi amor!
{{Infobox film
| name           =¡Suicídate, mi amor!
| image          = 
| image size     =
| caption        =
| director       =
| producer       =
| writer         = Luis Alcoriza
| narrator       =
| starring       =
| music          = 
| cinematography = 
| editing        =
| distributor    = 
| released       = 1961
| runtime        =
| country        = Mexico Spanish
| budget         =
| gross          =
| preceded by    =
| followed by    =
}} 1961 Mexico|Mexican film. It was written by Luis Alcoriza.

==External links==
*  

 
 
 
 


 