La grilla
{{Infobox film
| name           =La grilla
| image          = 
| image size     =
| caption        =
| director       =Gustavo Alatriste
| producer       =
| writer         = 
| narrator       =
| starring       =
| music          = 
| cinematography = 
| editing        =
| distributor    = 
| released       = 1979
| runtime        =
| country        = Mexico Spanish
| budget         =
| gross          =
| preceded by    =
| followed by    =
}} 1979 Mexico|Mexican film. It was directed by Gustavo Alatriste.

==External links==
*  

 
 
 
 
 


 