La barca de oro
{{Infobox film
| name           =La barca de oro
| image          = 
| image size     =
| caption        =
| director       = Joaquín Pardavé
| producer       = Óscar J. Brooks
| writer         = Leopoldo Baeza y Aceves (adaptation), Ernesto Cortázar	 	 (story), Tito Davison (adaptation), Jorge Ferretis, Carlos Orellana
| narrator       =
| starring       =Carlos Orellana
| music          = Manuel Esperón
| cinematography = Jorge Stahl Jr.
| editing        = Mario González
| distributor    = 
| released       = 1947
| runtime        =
| country        = Mexico Spanish
| budget         =
| gross          =
| preceded by    =
| followed by    =
}} 1947 Mexico|Mexican film. It stars Carlos Orellana.

==External links==
*  
* 

 

 
 
 
 


 