¡... Y murió por nosotros!
{{Infobox film
| name           =¡... Y murió por nosotros!
| image          = 
| image size     =
| caption        =
| director       =  Joselito Rodríguez
| producer       = Alfonso Sánchez Tello	
| writer         = 
| narrator       =
| starring       = Eduardo Arozamena, Jorge Arriaga, Felipe de Alba 
| music          = 
| cinematography = 
| editing        =
| distributor    = 
| released       = 15 March 1951 (Mexico)
| runtime        = 95 min 
| country        = Mexico Spanish
| budget         =
| gross          =
| preceded by    =
| followed by    =
}} 1951 Mexico|Mexican film. It stars Carlos Orellana.

==External links==
*  

 
 
 
 


 