Al son de la marimba
{{Infobox film
| name           = Al son de la marimba
| image          = 
| caption        =
| director       = Juan Bustillo Oro
| producer       =Grovas-Oro Films
| writer         = 
| starring       = Sara García, Ismael Aguilar, Carolina Barret, Dolores Camarillo.
| music          = 
| cinematography = 
| editing        =
| distributor    = 
| released       =  
| runtime        =
| country        = Mexico
| language       = Spanish
| budget         =
| gross          =
}}
Al son de la marimba ( }) is a 1940 Mexican film. It stars Sara García.
 
==External links==
*  
*  
 
 
 

 