Sawing Gantimpala
{{Infobox film
| name           = Sawing Gantimpala
| image          = 
| image size     =
| caption        =
| director       =Manuel Conde
| producer       =
| writer         = Susana C. de Guzman (screenplay)
| narrator       =
| starring       =
| music          = 
| cinematography = 
| editing        =
| distributor    = 
| released       = 1940
| runtime        =
| country        = Philippines Tagalog
| budget         =
| gross          =
| preceded by    =
| followed by    =
}} 1940 Philippines|Filipino film directed by Manuel Conde
and starring Ely Ramos, Mila del Sol and Dina Valle. 

==External links==
*  

 
 
 
 

 