La casa del ogro
{{Infobox film
| name           =La casa del ogro
| image          = 
| image size     =
| caption        =
| director       =Fernando de Fuentes
| producer       =
| writer         = 
| narrator       =
| starring       =
| music          = 
| cinematography = 
| editing        =
| distributor    = 
| released       = 1939
| runtime        =
| country        = Mexico Spanish
| budget         =
| gross          =
| preceded by    =
| followed by    =
}} 1939 Mexico|Mexican film.

==External links==
*  

 
 
 
 
 


 