El rayo del sur
{{Infobox film
| name           =El rayo del sur
| image          = 
| image size     =
| caption        =
| director       =  Miguel Contreras Torres
| producer       =
| writer         = 
| narrator       =
| starring       =
| music          = 
| cinematography = 
| editing        =
| distributor    = 
| released       =  
| runtime        =
| country        = Mexico Spanish
| budget         =
| gross          =
}}
El rayo del sur ("The Ray of the South") is a 1943 Mexican film. It stars Domingo Soler.

==External links==
*  

 
 
 
 


 