El Túnel 6
{{Infobox film
| name           =El Túnel 6
| image          = 
| image size     =
| caption        =
| director       =Chano Urueta
| producer       =
| writer         = 
| narrator       =
| starring       =
| music          = 
| cinematography = 
| editing        =
| distributor    = 
| released       = 1955
| runtime        =
| country        = Mexico Spanish
| budget         =
| gross          =
| preceded by    =
| followed by    =
}} 1955 Mexico|Mexican film. It was directed by 
Chano Urueta.

==Cast==
* Víctor Manuel Mendoza	 ...	Gustavo
* Víctor Parra	 ...	Pedro
* Carmen Montejo	 ...	Rosita
* Andrés Soler	 ...	don Luis
* Wolf Ruvinskis	 ... Ricardo Álvarez (as Wolf Rubinskis)
* Jorge Martínez de Hoyos	 ... José Jaime Fernández	 ... Rafael
* Alfonso Mejía	 ... Enrique
* Aurora Walker	 ... Mamá de Enrique
* Manuel Inclán		
* Genaro de Alba		 Guillermo Hernández		
* Ignacio Villalbazo		
* Guillermo Cramer		
* Lupe Inclán	 ...	Esposa de don Luis


==External links==
*  

 
 
 
 
 


 