¡Así se quiere en Jalisco!
{{Infobox film
| name           =¡Así se quiere en Jalisco!
| image          = 
| image size     =
| caption        =
| director       =Fernando de Fuentes
| producer       = Fernando de Fuentes and Jesús Grovas
| writer         = Carlos Arniches (novel), Fernando de Fuentes and 	 	
Antonio Guzmán Aguilera
| narrator       =
| starring       =
| music          = Manuel Esperón and Juan José Espinosa	
| cinematography = John W. Boyle and Agustín Martínez Solares
| editing        =
| distributor    = 
| released       = 1942
| runtime        =
| country        = Mexico Spanish
| budget         =
| gross          =
| preceded by    =
| followed by    =
}} 1942 Mexico|Mexican film. It was directed by Fernando de Fuentes. It was the first Mexican film to be shot in colour 

==Notes==
 

==External links==
*  
* 
 
 
 
 
 
 


 