Kotta Alludu
{{Infobox Film
| name           = Kotta Alludu
| image          = 
| image_size     = 
| caption        = 
| director       = P. Sambhasiva Rao
| producer       = M Satyanarayana, Suryanarayana
| writer         = 
| narrator       =  Krishna Jaya Prada Chiranjeevi Mohan Babu
| music          = 
| editing        = 
| studio         = 
| distributor    = 
| released       = 31 May 1979
| runtime        = 
| country        = India
| language       = Telugu
| budget         = 
}}
 Telugu film starring Krishna (actor)|Krishna, Jaya Prada, Chiranjeevi and Mohan Babu.  

==References==
 

==External links==
*  

 
 
 


 