Aaro Oral
{{Infobox film
| name           = Aaro Oral
| image          = 
| image size     = 
| alt            = 
| caption        = 
| director       = V. K. Pavithran
| producer       = 
| writer         = Pavithran
| narrator       = 
| starring       = Protima A. C. K. Raja T. Ravindranath Verma
| music          = G. Aravindan
| cinematography = Madhu Ambat
| editing        = 
| studio         = Saga Films
| distributor    = 
| released       = 1978
| runtime        = 111 minutes
| country        = India
| language       = Malayalam
| budget         = 
| gross          =
}}
Aaro Oral ( ) is a 1978 Malayalam film written and directed by V. K. Pavithran. It was his debut as a director. It introduced to Malayalam a genre of personal cinema, which is deliberately anti-realist. The films music is composed by acclaimed film director G. Aravindan.

==Cast==
*  Protima as Malathi
*  T. Ravindranath as Hari
*  Verma as Malathis First Husband
*  A. C. K. Raja as Moorthy, the artist

==References==
 

==External links==
*  

 
 
 
 


 