Tohfa Mohabbat Ka
 
 
{{Infobox Film
| name           = Tohfa Mohabbat Ka
| image          = 
| image_size     = 
| caption        = 
| director       = Ram Govind
| producer       = Maya Govind
| writer         = 
| narrator       =  Govinda Kimi Katkar Hema Malini
| music          = 
| Lyricist       =   
| cinematography = 
| editing        = 
| distributor    = 
| released       = 22 July 1988
| runtime        = 
| country        = India Hindi
| budget         = 
}} Indian film. 

==Cast== Govinda
*Kimi Katkar
*Preeti Ganguli
*Hema Malini - Herself 

==External links==
*  

 
 
 

 