Hey Taxi (2007 film)
{{Infobox film
| name           =Hey Taxi 
| image          = 
| image size     =
| caption        =
| director       =
| producer       =
| writer         = 
| narrator       =
| starring       =
| music          = 
| cinematography = 
| editing        =
| distributor    = 
| released       = 2007
| runtime        =
| country        = India Malayalam
| budget         =
| gross          =
| preceded by    =
| followed by    =
}}
Hey Taxi  is a Malayalam language film which is the dubbed version of 2004 Kannada movie Love. It was released in 2007. 

==References==
 

 
 
 


 