Mohitham
{{Infobox film
| name           =Mohitham
| image          = 
| image size     =
| caption        =
| director       = 
| producer       =
| writer         = 
| narrator       =
| starring       = 
| music          = 
| cinematography = 
| editing        = 
| distributor    = 
| released       = 2008
| runtime        = 
| country        = India Malayalam
| budget         =  
| gross          =   
| preceded by    =
| followed by    =
}}

Mohitham is a Malayalam language film. It was released in 2008. 

==References==
 

 
 
 

 