Melvilasam Sariyanu
{{Infobox film
| name           =Melvilasam Sariyanu
| image          = 
| image size     =
| caption        =
| director       =
| producer       =
| writer         = 
| narrator       =
| starring       =
| music          = 
| cinematography = 
| editing        =
| distributor    = 
| released       = 2003
| runtime        =
| country        = India Malayalam
| budget         =
| gross          =
| preceded by    =
| followed by    =
}}
Melvilasam Sariyanu is a Malayalam language film. It was released in 2003. 

==References==
 

 
 
 


 