Tilottama (film)
{{Infobox film
| name           =Tilottama 
| image          = 
| image size     =
| caption        =
| director       =Kunchacko
| producer       = M Kunchacko
| writer         = Vaikkom Chandrasekharan Nair,Vayalar
| narrator       =
| starring       =
| music          = G Devarajan
| cinematography = 
| editing        =
| distributor    = 
| released       =  22-12-1966
| runtime        =
| country        = India Malayalam
| budget         =
| gross          =
| preceded by    =
| followed by    =
}}
Tilottama is a 1966 Malayalam language film. It was directed by Kunchacko. 
 
==References==
 

==External links==
*http://www.malayalachalachithram.com/movie.php?i=194

 
 
 
 


 