Limbo (2010 film)
{{Infobox film
| name           = Limbo
| image          = Limbo 2010 film.jpg
| alt            =  
| caption        = Norwegian theatrical poster
| director       = Maria Sødahl
| producer       = Gudny Hummelvoll Petter J. Borgli
| writer         = Maria Sødahl
| starring       = Line Verndal Bryan Brown Lena Endre Henrik Rafaelsen Iben Iuel Hersoug Fredrik Frafjord
| music          = Johan Söderqvist
| cinematography = Manuel Alberto Claro
| editing        = Frida Eggum Michaelsen
| studio         = 
| distributor    = 
| released       =  
| runtime        = 107 minutes
| country        = Norway
| language       = Norwegian
| budget         = 
| gross          = 
}}
Limbo is a Norwegian drama film, written and directed by Maria Sødahl.
 oil industry.

== External links==
* 

 
 
 
 


 