Satan (1991 film)
{{Infobox film
| name           = Satan
| image          = 
| caption        =  Viktor Aristov
| producer       = Sergei Avrutin
| writer         = Viktor Aristov
| starring       = Maria Averbach
| music          = 
| cinematography = Yuri Vorontsov
| editing        = Irina Vigdortchik
| distributor    = 
| released       =  
| runtime        = 106 minutes
| country        = Soviet Union
| language       = Russian
| budget         = 
}}
 Viktor Aristov. Silver Bear - Special Jury Prize.   

==Cast==
* Maria Averbach
* Svetlana Bragarnik
* Sergei Kupriyanov

==References==
 

==External links==
* 

 
 
 
 
 
 


 
 