Wyscig pokoju – Warszawa-Berlin-Praga
{{Infobox film
| name           = Wyscig pokoju – Warszawa-Berlin-Praga
| image          = 
| image size     =
| caption        =
| director       =
| producer       =
| writer         = 
| narrator       =
| starring       =
| music          = 
| cinematography = 
| editing        =
| distributor    = 
| released       = 1952
| runtime        =
| country        = Poland, East Germany Polish
| budget         =
| gross          =
| preceded by    =
| followed by    =
}}
Wyscig pokoju – Warszawa-Berlin-Praga is a Polish-East German film based on the Peace Race. It was released in List of Polish films|1952.

==External links==
*  

 
 
 
 
 
 
 
 
 
 
 


 
 