Frauenschicksale
{{Infobox film
| name           =Frauenschicksale
| image          = 
| image size     =
| caption        =
| director       = Slatan Dudow
| producer       =
| writer         = 
| narrator       =
| starring       = Sonja Sutter   Lotte Loebinger
| music          = 
| cinematography = 
| editing        =
| distributor    = 
| released       = 1952
| runtime        =
| country        = East Germany
| language       = German
| budget         =
| gross          =
| preceded by    =
| followed by    =
}} East German film. It was released in List of East German films|1952, and sold more than 5,100,000 tickets. 

==References==
 

==External links==
*  

 
 
 

 