Bauern erfüllen den Plan
{{Infobox film
| name           = Bauern erfüllen den Plan
| image          = 
| caption        =
| director       =
| producer       =
| writer         = 
| starring       =
| music          = 
| cinematography = 
| editing        =
| distributor    = 
| released       =  
| runtime        =
| country        = East Germany
| language       = German
| budget         =
| gross          = 
}} East German film. It was released in List of East German films|1952.

==External links==
*  

 
 
 
 


 