Reifender Sommer
{{Infobox film
| name           =Reifender Sommer
| image          = 
| image size     =
| caption        =
| director       =
| producer       =
| writer         = 
| narrator       =
| starring       =
| music          = 
| cinematography = 
| editing        =
| distributor    = 
| released       = 1958
| runtime        =
| country        = East Germany German
| budget         =
| gross          =
| preceded by    =
| followed by    =
}}
Reifender Sommer is an East German film. It was released in List of East German films|1958.

==External links==
*  

 
 
 


 