No Place for Love
{{Infobox film
| name           = No Place for Love
| image          = 
| caption        =
| director       =
| producer       =
| writer         = 
| starring       =
| music          = 
| cinematography = 
| editing        =
| distributor    = 
| released       =  
| runtime        =
| country        = East Germany
| language       = German
| budget         =
| gross          =
}} East German film. It was released in 1947. 
 
==External links==
*  

 
 
 

 