Und wieder 48
{{Infobox film
| name           = Und wieder 48
| image          = 
| caption        =
| director       =
| producer       =
| writer         =
| starring       =
| music          = 
| cinematography = 
| editing        =
| distributor    = 
| released       =  
| runtime        =
| country        = East Germany
| language       = German
| budget         =
| gross          =
}} East German film. It was released in 1948.
 
==External links==
*  

 
 
 
 

 