Guests Wanted
{{Infobox film
| name           = Guests Wanted
| image          =
| image_size     =
| caption        =
| director       = Ralph Ceder
| producer       = Lew Lipton (supervising producer)
| writer         = Ewart Adamson
| narrator       =
| starring       = See below
| music          = Harry Jackson
| editing        = Russell Schoingarin
| distributor    = RKO Radio Pictures
| released       = 18 January 1932
| runtime        = 18 minutes
| country        = USA
| language       = English
}}

Guests Wanted is a 1932 American short subject directed by Ralph Ceder.

==Cast==
*Benny Rubin
*Nell Breen
*Louise Carver as Mrs. Carver
*Charles Dorety as Second Miner
*Billy Franey as First Miner
*Bud Jamison as Jimmy

==External links==
* 
* 

 
 
 
 
 
 
 
 
 


 