Balkan Bazar
 
{{Infobox film
| name           = Balkan Bazar
| caption        = Poster
| image	         = Balkan Bazar FilmPoster.jpeg
| director       = Edmond Budina
| producer       = 
| writer         = Edmond Budina
| starring       = 
| music          = 
| cinematography = 
| editing        = 
| distributor    = 
| released       =  
| runtime        = 
| country        = Albania
| language       = Albanian Greek
| budget         = 
}}
Balkan Bazar ( ) is an Albanian film directed by Edmond Budina. The film describes how Albanian graves were opened by Greeks and the contents moved and re-identified as being the bones of Greek soldiers from World War II.   

==References==
 

==External links==
*  

 
 
 


 