Rolls – 28
{{Infobox film
| name           = Rolls - 28
| image          =
| caption        =
| director       = Kalyan Gupta
| writer         = Kali Charan Pattanayak  Brundaban Mohapatra   Kalyan Gupta
| starring       =
| producer       = Ratikanta Padhi
| cinematography =
| released       = 1951
| country        = India
| runtime        = Oriya
| music          = Goura Goswami   Nrupendra Pal
| website        =
| amg_id         =
}}
 Ollywood / Oriya film directed by Kalyan Gupta

==Cast==
* Bimala Devi
* Kishori Devi
* Giridhari
* Ratikanta Padhi
* Pankaj
* Anima Pedini
* Rajendra 

==References==
 

 
 
 
 


 