Four Sons (1940 film)
{{Infobox film
| name           = Four Sons
| image          = 
| image_size     = 
| caption        = 
| director       = Archie Mayo
| writer         = 
| narrator       = 
| starring       = Don Ameche
| music          = 
| cinematography = 
| editing        = 
| studio         = 
| distributor    = 
| released       = June 14, 1940
| runtime        = 89 mins.
| country        = United States
| language       = English
| budget         = 
| gross          = 
| preceded_by    = 
| followed_by    = 
| website        = 
| amg_id         = 
}} film of the same name.  

==Cast==
*Don Ameche as Chris Bern
*Eugenie Leontovich as Frau Bern
*Mary Beth Hughes as Anna. Alan Curtis as Karl Bern
*George Ernest as Fritz Bern

==References==
 

==External links==
* 

 

 
 