Ernest Maltravers (1920 film)
{{Infobox film
| name           = Ernest Maltravers
| image          =
| caption        =
| director       = Jack Denton
| producer       = 
| writer         = Edward George Bulwer-Lytton  (novel)   Eliot Stannard Norman Partridge
| music          = 
| cinematography = 
| editing        = 
| studio         = Ideal Film Company
| distributor    = Ideal Film Company
| released       = 1920 
| runtime        = 
| country        = United Kingdom 
| awards         =
| language       = English
| budget         =
}} silent drama Ernest Maltravers Ernest Maltravers in 1914.

==Cast==
* Cowley Wright - Ernest Maltravers 
* Lillian Hall-Davis - Alice Darvil 
* Gordon Hopkirk - George Legard  Norman Partridge - Luke Darvil  George Bellamy - Mr Merton 
* Florence Nelson - Mrs Merton 
* Ernest A. Douglas - Lord Vargrave 
* Stella Wood-Sims - Evelyn 
* N. Watt-Phillips - Waters 

==References==
 

==External links==
* 

 

 
 
 
 
 
 
 
 
 
 
 
 
 