Lauderdale (film)
{{Infobox Film
| name           = Lauderdale
| image          = LauderdaleFilm.jpg
| image_size     = 
| caption        = DVD cover
| director       = Bill Milling
| producer       = Suzanne Migdall
| writer         = Bill Milling
| narrator       = 
| starring       = Renee Shugart Darrel Guilbeau Jeff Greenman
| music          = Rick Tell
| cinematography = Ken Gibb
| editing        = Bruce Spiegel
| distributor    = Omega Entertainment
| released       = 1989
| runtime        = 91 minutes
| country        = United States
| language       = English
| budget         = 
| preceded_by    = 
| followed_by    = 
}} 1989 comedy film directed by Bill Milling.  It is also known as Spring Break USA and Spring Fever USA.

==External links==
* 
*  

 
 
 
 
 
 


 