Jeevan Sathi
{{Infobox film
| name           = Jeevan Sathi
| image          =
| caption        =
| director       = Prabhat Mukherjee
| writer         =
| starring       = Geetanjali, Minati Mishra and Sarat Pujari
| producer       = Srinibasa
| cinematography =
| released       = 1963
| country        = India
| runtime        = Oriya
| music          = Balakrishna Das
| website        =
| amg_id         =
}}
 Ollywood / Oriya film directed by Prabhat Mukherjee

==Cast==
* Geetanjali
* Meenati
* Sarat Pujari
* Sahu Samuel
* Srinibasa

==References==
 

 
 
 


 