Adultery (film)
{{Infobox film
| name           = Adultery
| image          = 
| film name = {{Film name
 | hangul         =  
 | hanja          =  
 | rr             = Gantong
 | mr             = Kant‘ong }}
| director       = Park Yong-jun
| producer       = Kim Jeong-jo
| writer           =  Jo Chang-Ho
| starring       =  Bang Hee  Lee Moo-jung Jeong In-cheol
| music          =  Lee Jong-shik
| cinematography = Han Dong-hyeok
| editing        = Hyeon Dae-won
| distributor    =  Han Young Films Co., Ltd
| released       =  
| runtime        = 109 minutes
| country        = South Korea
| language       = Korean
| budget         = 
| gross          = 
}}
Adultery (Hangul|간통 Gantong) is a 1989 South Korean Lists of South Korean films by year|film.

==Plot==
A woman is raped on vacation while her husband is on a business trip. Soon she becomes obsessed and begins having an affair with her rapist.         

==Cast==
*Bang Hee
*Lee Moo-jung
*Jeong In-cheol
*Sim Eun-yeong
*Kwak Jung-hee
*Gwon Yeong-jin
*Jeon Shook
*Choe Sung-kwan
*Park Mi-na
*Jang Ae-hui

==References==
 

==External links==
*  
*  

 
 
 
 
 
 


 
 