Sir C. P.
 

{{Infobox film
| name           = Sir C. P.
| image          =
| caption        =
| alt            =
| director       = Shajoon Karyal
| producer       = M.K.Nassar & Stanley C S
| writer         = S. Suresh Babu Rohini  Seema  Vijayaraghavan
| music          = Sejo John
| cinematography = Azhagappan
| editing        = Sandeep Nandakumar
| distributor    = Good Line Release
| released       =  
| runtime        =
| country        = India
| language       = Malayalam
| budget         =
| gross          =
}}
Sir C. P. is an upcoming Malayalam film by Shajoon Karyal with Jayaram in the title role. Honey Rose is doing the role of lady lead in this film.

==Cast==
* Jayaram as Sir CP
* Honey Rose as Alice Rohini
* Seema
* Vijayaraghavan
* Hareesh Peradi
* Bhagath Manuel
* Rahul Madhav
* Mukundan
* Saadique

      

==References==
 

 
 
 


 