Haven't I Told You
 
 
{{Infobox film
| name           = Havent I Told You
| image          = 
| image size     = 
| border         = 
| alt            = 
| caption        = 
| director       = Stevo Crvenkovski
| producer       = 
| writer         = Rusomir Bogdanovski
| screenplay     = 
| story          = 
| based on       =  
| narrator       = 
| starring       = Nikola-Kole Angelovski, Petre Arsovski and Marin Babic
| music          = Ljupčo Konstantinov
| cinematography = Ljubomir Vaglenarov
| editing        = Kemal Demirovic
| studio         = Vardar Film
| distributor    = 
| released       =  
| runtime        = 85 minutes
| country        = Yugoslavia
| language       = Macedonian
| budget         = 
| gross          = 
}} Macedonian film that was produced in Yugoslavia in 1984. The original title is Neli Ti Rekov, meaning "Havent I told you",  Macedonia during the Ottoman era.
The plot revolves around a number of Macedonian revolutionaries battling against a large Ottoman-Turkish Army. The film can be seen with English subtitles.

==References==
 

==External links==
*  

 


 
 
 

 