Cry for Me, Billy
{{Infobox film
| name           = Cry for Me, Billy
| image          = 
| image_size     = 
| caption        =  William A. Graham
| writer         = 
| narrator       = 
| starring       = Cliff Potts
| music          = 
| cinematography = 
| editing        = 
| studio         = Brut Productions
| distributor    = Warner Bros.
| released       =  
| runtime        = 93 minutes
| country        = United States
| language       = English
| budget         = 
| gross          = 
}} William A. Graham. It stars Cliff Potts and Maria Potts. 

==Cast==
*Cliff Potts as Bills
*Maria Potts as Flower 
*Harry Dean Stanton as Luke Todd
*Don Wilbanks as Sergeant Woody Chambliss as Prospector

==References==
 

==External links==
* 

 

 
 
 
 
 
 