Modern Times Forever (Stora Enso Building, Helsinki)
{{Infobox film
| caption        ;#;##;#;##;#;#;#
| name           = Modern Times Forever (Stora Enso Building, Helsinki)
| image          =
| alt            =
| director       = Bjornstjerne Reuter Christiansen,
Jakob Fenger,
Rasmus Nielsen,
Superflex | producer       =
| writer         =
| screenplay     =
| story          =
| narrator       =
| starring       =
| music          =
| cinematography =
| editing        =
| studio         =
| distributor    =
| released       =  
| runtime        = 240 Hours
| country        = Denmark, Finland, Vietnam
| language       = Danish
| budget         =
| gross          =
}}
 longest film ever made, lasting 240 hours (10 days). The film shows how Helsinkis Stora Enso headquarters building would decay over the next few thousand years. The film was originally screened in front of the building itself on a   screen so people could see the actual building as well as the one on screen.    

==See also==
* List of longest films
* Film Festivals

 

==References==
 

 
 
 


 