Chingachgook, die große Schlange
{{Infobox film
| name           =Chingachgook, die große Schlange
| image          = 
| image size     =
| caption        =
| director       = Richard Groschopp
| producer       =
| writer         = 
| narrator       =
| starring       = Gojko Mitić   Rolf Römer
| music          = 
| cinematography = 
| editing        =
| distributor    = 
| released       = 1967
| runtime        =
| country        = East Germany
| language       = German
| budget         =
| gross          =
| preceded by    =
| followed by    =
}} East German film. It was released in List of East German films|1967,and sold 5,077,070 tickets.  The title translates to Chingachgook, the Great Serpent, and starred Gojko Mitić as Chingachgook.

==References==
 

==External links==
*  

 
 
 
 
 


 