Zeit zu leben
{{Infobox film
| name           =Zeit zu leben
| image          = 
| image size     =
| caption        =
| director       =
| producer       =
| writer         = 
| narrator       =
| starring       =
| music          = 
| cinematography = 
| editing        =
| distributor    = 
| released       = 1969
| runtime        =
| country        = East Germany German
| budget         =
| gross          =
| preceded by    =
| followed by    =
}} East German film. It was released in List of East German films|1969.   It was directed by Horst Seemann and 
written by Wolfgang Held  and Horst Seemann.
 
==External links==
*  

 
 
 

 