Eye of the Storm (1991 film)
 
{{Infobox film
| name           = Eye of the Storm
| image          = 
| image size     = 
| alt            = 
| caption        = 
| director       = Yuri Zeltser
| producer       = Oliver Eberle Michael Stewart
| screenplay     = 
| story          = 
| based on       = 
| narrator       = 
| starring       = Bradley Gregg Lara Flynn Boyle
| music          = Christopher Franke
| cinematography = Karl Walter Lindenlaub
| editing        = Michael J. Duthie
| studio         = Club Ed Film Set Mojave Desert New Line Cinema
| distributor    = Columbia TriStar Image Entertainment
| released       =  
| runtime        = 98 minutes
| country        = Germany USA
| language       = 
| budget         = 
| gross          =
}}
 German romantic thriller, directed by Yuri Zeltser.

==Plot==
 

==Cast==
*Lara Flynn Boyle ... Sandra Gladstone
*Bradley Gregg ... Steven
*Dennis Hopper ... Marvin Gladstone
* Adrian Arnold ... Young Steven
*Wilhelm von Homburg ... Killer
*Barbara Lindsay ... Mother
*Leon Rippy ... Sheriff
*Craig Sheffer ... Ray
* John Storey ... Deputy
*Ally Walker ... Killer Girl

==External links==
 

 
 
 
 
 
 
 


 
 