A Dear Fool
{{Infobox film
| name           = A Dear Fool
| image          =
| caption        =
| director       = Harold M. Shaw
| producer       =
| writer         = Arthur T. Mason Frank Miller
| screenplay     =
| story          =
| based on       =
| starring       = George K. Arthur Edna Flugrath Edward ONeill Bertie Wright
| cinematography =
| editing        =
| studio         =
| distributor    =
| released       =  
| runtime        =
| country        = United Kingdom
| language       =
| budget         =
| gross          =
}}
 silent comedy Edward ONeill.  It was based on a novel by Arthur T. Mason. An ambitious young Fleet Street reporter is sent to discover the identity of a reclusive new playwright.

==Cast==
* George K. Arthur - John Denison
* Edna Flugrath - Viva Hamilton Edward ONeill - Stephen Blair
* Bertie Wright - Sir John Boscatel
* Vera Tyndale - Lady Boscatel
* C. Tilson-Chowne - Oliver Chambers
* Mabel Archdale - Sylvia Polesworthy

==References==
 

==External links==
* 

 

 
 
 
 
 
 
 
 
 

 
 