ZTS: State of Entropy
 
{{Infobox film
| name           = ZTS: State of Entropy
| image          = 
| image size     = 
| border         = 
| alt            = 
| caption        = 
| director       = Stefanos Stefanidis
| producer       = Ulla Decken Shane Kavanagh
| writer         = Shane Kavanagh Stefanos Stefanidis
| screenplay     = 
| story          = 
| based on       = 
| narrator       = 
| starring       = Jai Koutrae Glen Davenport
| music          = Adrian Henderson
| cinematography = Peter Coleman
| editing        = Shane Kavanagh
| studio         = 
| distributor    = Entropy Films
| released       =  
| runtime        = 81 minutes
| country        = Australia
| language       = English
| budget         = $85,000 AUD
| gross          =
}}

ZTS: State of Entropy is a 2002 Australian drama film, directed by Stefanos Stefanidis.

==Plot==
 

==Cast==
*Jai Koutrae ... Glen
*Glen Davenport ... Mark
*David Gambin ... Colin
*Stacey Giaprakas ... Nick

==External links==
 

 
 
 

 