Happy Sixteen
 
 
{{Infobox film
| name           = Happy Sixteen
| image          = 
| image size     = 
| border         = 
| alt            = 
| caption        = 
| director       = Johnny Mak
| producer       = 
| writer         = 
| screenplay     = 
| story          = 
| based on       = 
| narrator       = 
| starring       = Irene Wan
| music          = 
| cinematography = 
| editing        = 
| studio         = 
| distributor    = 
| released       = 1982
| runtime        = 
| country        = Hong Kong
| language       = Cantonese
| budget         = 
| gross          = 
}}
Happy Sixteen (俏皮女學生, Chiu pei nui hok sang) is a 1982 Hong Kong film directed by Johnny Mak.

==Cast==
*Irene Wan

==Reception==

===Awards===
2nd Hong Kong Film Awards 
* Won: Best Original Film Song Best New Performer - Irene Wan

==References==
 

==External links==
*  

 
 


 