Daikaijū Tōkyō ni arawaru
{{Infobox film
| name           = Daikaijū Tōkyō ni arawaru
| image          = 
| image size     = 
| border         = 
| alt            = 
| caption        = 
| director       = Takeshi Miyasaka
| producer       = 
| writer         = 
| screenplay     = 
| story          = 
| based on       = 
| narrator       = 
| starring       = Kaori Momoi    Hirotarō Honda   Yumi Yoshiyuki
| music          = 
| cinematography = 
| editing        = 
| studio         = 
| distributor    = 
| released       =  
| runtime        = 
| country        = Japan
| language       = Japanese
| budget         = 
| gross          = 
}}
  is a 1998 Japanese film directed by Takeshi Miyasaka.

==Cast==
* Kaori Momoi
* Hirotarō Honda
* Yumi Yoshiyuki
* Oshima Yuko

==Reception==

===Awards===
20th Yokohama Film Festival 
* Won: Best Supporting Actress - Yumi Yoshiyuki

==References==
 

==External links==
*  

 
 
 
 
 


 