Mast Kalandar
 
{{Infobox film
| name           =Mast Kalandar
| image          = MastKalandarfilm.jpg
| image_size     = 
| caption        = 
| director       =
| producer       =
| writer         =
| narrator       = 
| starring       =Dharmendra
| music          =
| cinematography = 
| editing        = 
| distributor    = 
| released       = 1991
| runtime        = 
| country        = India Hindi
| budget         = 
| gross          = 
| preceded_by    = 
| followed_by    = 
| website        = 
}}

Mast Kalandar  is a 1991 Bollywood film starring Dharmendra.

The film is known for being the first Bollywood film picturing an open gay character, Pinkoo (or Pinku). Pinkoo is played by Anupam Kher.

==External links==
*  

 
 
 
 


 