Kohraam
 

  
{{Infobox film
| name           = Kohraam
| image          = Kohraam91film.jpg
| image_size     = 
| caption        = 
| director       = Kuku Kohli
| producer       =
| writer         =
| narrator       =  Sonam Amrish Puri Sadashiv Amrapurkar
| music          = Bappi Lahiri
| released       = 1991
| runtime        = 
| country        = India
| language       = Hindi language|Hindi}}

Kohraam  is a 1991 Bollywood film starring Dharmendra directed by Kuku Kohli. 

==Cast==
*Dharmendra
*Chunky Pandey Sonam
*Anil kapoor
*Sadashiv Amrapurkar

==References==
 

==External links==
*  

 
 
 

 