Bhai Thakur (film)
 
{{Infobox film
| name           =Bhai Thakur
| image          = Bhai_Thakur.jpg
| image_size     = 
| caption        = 
| director       =
| producer       =
| writer         =
| narrator       = 
| starring       =Dharmendra
| music          =
| cinematography = 
| editing        = 
| distributor    = 
| released       = 8 December 2000
| runtime        = 
| country        = India Hindi
| budget         = 
| gross          = 
| preceded_by    = 
| followed_by    = 
| website        = 
}}

Bhai Thakur  is a 2000 Bollywood film starring Dharmendra.

==External links==
*  

 
 
 


 