The Tale of a Shirt
 
{{Infobox film
| name           = The Tale of a Shirt
| image          = 
| image_size     =
| caption        = 
| director       = P.J. Ramster
| producer       = P.J. Ramster
| writer         = Charles Russell
| based on       = 
| narrator       =
| starring       = Charles Russell Thelma Newling 
| music          =
| cinematography = 
| editing        = 
| studio = P.J. Ramster Photoplays
| distributor    = 
| released       = 1922
| runtime        = two reels
| country        = Australia English intertitles
| budget         = 
| preceded_by    = 
| followed_by    = 
}}

The Tale of a Shirt is a 1922 Australian silent film directed by P.J. Ramster. It is a comedy about a man on holiday (Charles Russell) who learns he is not as old as he thought.  Only a few fragments of the film survive. 

==References==
 

==External links==
* 

 

 
 
 
 
 
 


 