Sleepwalker (2011 film)
 
 
{{Infobox film
| name           = Sleepwalker
| image          = Sleepwalker poster.jpg
| image size     = 
| border         = 
| alt            = 
| caption        = 
| director       = Oxide Pang
| producer       = 
| writer         = 
| screenplay     = 
| story          = 
| based on       =  
| narrator       = 
| starring       = Angelica Lee   Charlie Yeung   Huo Siyan
| music          = 
| cinematography = 
| editing        = 
| studio         = 
| distributor    = 
| released       =   
| runtime        = 
| country        = Hong Kong
| language       = 
| budget         = 
| gross          = 
}}

Sleepwalker is an 2011 Hong Kong film directed by Oxide Pang.  

==Cast==
* Angelica Lee
* Charlie Yeung
* Huo Siyan
* Li Zhonghan
* Paw Hee-ching
* Kent Cheng

==References==
 

 

 
 
 


 