A Mountain Goes to Sea
 
{{Infobox film
| name           = A Mountain Goes to Sea
| image          = 
| image_size     = 
| caption        =  Charles Chauvel
| producer       = Commonwealth Film Laboratories
| writer         = 
| narrator       = 
| starring       = 
| music          = 
| cinematography = George Heath
| editing        = 
| studio         = Commonwealth Office Of Information
| released       =  
| runtime        = 6 mins
| country        = Australia
| language       = English
| budget         = 
}} Charles Chauvel about the Australian shipbuilders during World War II.

==External links==
*  at Australian Screen Online
*  at National Film and Sound Archive

 

 
 
 

 