Crazy Love (1993 film)
 
 
{{Infobox film
| name           = Crazy Love
| image          = Crazy-love-poster.jpg
| image size     = 
| border         = 
| alt            = 
| caption        = 
| director       = Roman Cheung
| producer       = 
| writer         = Roman Cheung Vincent Kok
| screenplay     = 
| story          = 
| based on       =  
| narrator       = 
| starring       = Loletta Lee
| music          = 
| cinematography = 
| editing        = 
| studio         = 
| distributor    = 
| released       =   
| runtime        = 77 minutes
| country        = Hong Kong
| language       = Cantonese   
| budget         = 
| gross          = 
}}

Crazy Love (蜜桃成熟時) is a 1993 Hong Kong film directed by Roman Cheung.

==Cast==
* Loletta Lee
* Poon Jan-Wai
* Shing Fui-On
* Tommy Wong
* Joh Chung-Sing
* Lisa Chiao Chiao

==References==
 

==External links==
*  
*   at Hong Kong Cinemagic
*   at Love HK Film

 


 