People Mountain People Sea (film)
{{Infobox film
| name           = People Mountain People Sea
| image          = People Mountain People Sea (film).jpg
| image size     = 
| border         = 
| alt            = 
| caption        = 
| director       = Cai Shangjun
| producer       = 
| writer         = 
| screenplay     = 
| story          = 
| based on       =  
| narrator       = 
| starring       = {{Plain list|
* Chen Jianbin Tao Hong
* Wu Xiubo
}}
| music          = 
| cinematography = 
| editing        = 
| studio         = 
| distributor    = 
| released       =  
| runtime        = 90 minutes
| country        = China   Hong Kong
| language       = Mandarin
| budget         = 
| gross          = 
}}

People Mountain People Sea (人山人海, Ren shan ren hai) is a 2011 Chinese-Hong Kong film directed by Cai Shangjun. It was selected for the main competition at the 68th Venice International Film Festival. 

==Cast==
* Chen Jianbin Tao Hong
* Wu Xiubo

==References==
 

==External links==
*  

 
 
 


 
 