Doomed Love
{{Infobox film
| name           = Doomed Love
| image          = 
| image size     = 
| border         = 
| alt            = 
| caption        = 
| director       = Mario Barroso
| producer       = 
| writer         = 
| screenplay     = 
| story          = 
| based on       =  
| narrator       = 
| starring       = Tomás Alves   Ana Moreira   Rafael Morais   Patrícia Franco   Willion Brandão   Catarina Wallenstein
| music          = 
| cinematography = 
| editing        = 
| studio         = 
| distributor    = 
| released       =   23 April 2009  (Portugal) 
| runtime        = 
| country        = Portugal
| language       = Portuguese
| budget         = 
| gross          = 
}}

Doomed Love ( .

==Cast==
* Tomás Alves 
* Ana Moreira 
* Rafael Morais 
* Patrícia Franco 
* Willion Brandão 
* Catarina Wallenstein
* Ana Padrão
* Rui Morisson
* Virgílio Castelo

==Reception== Portuguese Golden Globe for Best Film. 

==References==
 

==External links==
*  
*  

 
 

 
 
 
 
 
 
 
 


 
 