Tsuge Yoshiharu World: Gensenkan Shujin
{{Infobox film
| name           = Tsuge Yoshiharu World: Gensenkan Shujin
| image          = 
| image size     = 
| border         = 
| alt            = 
| caption        = 
| director       = Teruo Ishii
| producer       = 
| writer         = 
| screenplay     = 
| story          = 
| based on       =   
| narrator       = 
| starring       = Kaoru Mizuki
| music          = 
| cinematography = 
| editing        = 
| studio         = 
| distributor    = 
| released       =   
| runtime        = 98 minutes
| country        = Japan
| language       = Japanese
| budget         = 
| gross          = 
}}

  is a 1993 Japanese film directed by Teruo Ishii.

==Cast==
* Kaoru Mizuki

==Reception==
It was chosen as the 6th Best Film at the 15th Yokohama Film Festival.  Kaoru Mizuki also won the Award for Best Supporting Actress. 

==References==
 

==External links==
*  

 

 
 
 


 