1. Mai – Helden bei der Arbeit
 
{{Infobox film
| name           =1. Mai – Helden bei der Arbeit
| image          = 
| caption        = 
| director       =
| producer       =
| writer         =
| starring       =
| music          =
| cinematography = 
| editing        = 
| distributor    = 
| released       =  
| runtime        = 
| country        = Germany
| language       = German
| budget         = 
| gross          = 
}}
1. Mai – Helden bei der Arbeit is a 2008 German film.

==External links==
*  

 
 
 
 
 


 