4 Schlüssel
 
{{Infobox film
| name           =4 Schlüssel
| image          = 
| image_size     = 
| caption        = 
| director       =Jürgen Roland
| producer       =
| writer         =
| narrator       = 
| starring       =Walter Rilla Hanns Lothar Hellmut Lange    
| music          =
| cinematography = 
| editing        = 
| distributor    = 
| released       =1965
| runtime        = 
| country        = West Germany
| language       = German
| budget         = 
| gross          = 
| preceded_by    = 
| followed_by    = 
| website        = 
}}

4 Schlüssel is a German crime film directed by Jürgen Roland. It was released in 1965.

==External links==
*  

 
 
 
 
 
 
 
 
 

 
 