Suhaag Raat
{{Infobox film
| name           = Suhaag Raat
| image          = 
| image_size     = 
| caption        = 
| director       = Kidar Sharma
| producer       = 
| writer         =
| narrator       = 
| starring       = Bharat Bhushan Begum Para Geeta Bali
| music          = Snehal Bhasker
| cinematography = 
| editing        = 
| distributor    = 
| released       = 1948
| runtime        = 
| country        = India Hindi
| budget         = 
| gross          = 
| preceded_by    = 
| followed_by    = 
| website        = 
}}
 1948 Indian Bollywood film directed by Kidar Sharma. It was the seventh highest grossing Indian film of 1948. 

==Cast==
* Bharat Bhushan
* Begum Para
* Geeta Bali
* Maruti

==References==
 

==External links==
*  

 

 
 
 