Jawab (1942 film)
{{Infobox film
| name           =Jawab
| image          = 
| image_size     = 
| caption        = 
| director       =P.C. Barua
| producer       =
| writer         =
| narrator       = 
| starring       =Ratin Banerjee  P.C. Barua   Ahindra Choudhury 
| music          =
| cinematography = 
| editing        = 
| distributor    = 
| released       = 1942
| runtime        = 
| country        = India Hindi
| budget         = 
| gross          = 
| preceded_by    = 
| followed_by    = 
| website        = 
}}
 1942 Indian Bollywood film. It was the fourth highest grossing Indian film of 1942. 

==References==
 

==External links==
*  

 

 
 
 