Bharthari (film)
{{Infobox film
| name           =Bharthari
| image          = 
| image_size     = 
| caption        = 
| director       =
| producer       =
| writer         =
| narrator       = 
| starring       =Jahan Ara Kajjan
| music          =Khemchand Prakash
| cinematography = 
| editing        = 
| distributor    = 
| released       = 1944
| runtime        = 
| country        = India Hindi
| budget         = 
| gross          = 
| preceded_by    = 
| followed_by    = 
| website        = 
}}
 1944 Indian Bollywood film. It was the fifth highest grossing Indian film of 1944. 

==References==
 

==External links==
*  

 

 
 
 