Achhut
{{Infobox film
| name           = Achhut
| image          =
| image_size     =
| caption        =
| director       =
| producer       =
| writer         =
| narrator       =
| starring       =
| music          =
| cinematography =
| editing        =
| distributor    =
| released       =  
| runtime        =
| country        = British Raj Hindi
| budget         =
| gross          =
| website        =
}}
 1940 Indian Bollywood film. It was the third highest grossing Indian film of 1940. 

==References==
 

==External links==
*  

 
 
 

 