Pyar Ki Jeet (1948 film)
{{Infobox film
| name           =Pyar Ki Jeet 
| image          = 
| image_size     = 
| caption        = 
| director       =
| producer       =
| writer         =
| narrator       = 
| starring       =
| music          =
| cinematography = 
| editing        = 
| distributor    = 
| released       = 1948
| runtime        = 
| country        = India Hindi
| budget         = 
| gross          = 
| preceded_by    = 
| followed_by    = 
| website        = 
}}
 1948 Indian Bollywood film. It was the third highest grossing Indian film of 1948. 

==References==
 

==External links==
*  

 

 
 
 