Body Temperature (film)
{{Infobox film
| name           = Body Temperature
| image          = 
| alt            = 
| caption        = 
| director       = Takaomi Ogata
| producer       = 
| writer         = 
| starring       = Chavetaro Ishizaki Rin Sakuragi
| music          = 
| cinematography = 
| editing        = 
| studio         = 
| distributor    = 
| released       =  
| runtime        = 72 minutes
| country        = Japan
| language       = Japanese
| budget         = 
| gross          = 
}}
  is a 2010 Japanese romantic drama film directed by Takaomi Ogata.   

==Cast==
* Chavetaro Ishizaki
* Rin Sakuragi

==References==
 

==External links==
*  

 
 
 
 
 
 


 
 