Lust (film)
 
{{Infobox film
| name           = Lust
| image          = Lust Poster.jpg
| caption        = Film poster
| director       = Khaled El Hagar
| producer       = 
| writer         = Sayed Ragab
| starring       = Ahmed Azmi
| music          = 
| cinematography = Néstor Calvo
| editing        = 
| distributor    = Arabic Movies
| released       =  
| runtime        = 130 minutes
| country        = Egypt
| language       = Arabic
| budget         = 
}}
 Best Foreign Language Film at the 84th Academy Awards,       but it did not make the final shortlist.   

==Cast== Ruby as Shoq
* Ahmed Azmi as Hussin
* Sawsan Badr as Fatma

==See also==
* List of submissions to the 84th Academy Awards for Best Foreign Language Film
* List of Egyptian submissions for the Academy Award for Best Foreign Language Film

==References==
 

==External links==
*  

 
 
 
 
 
 
 