Love & Loathing & Lulu & Ayano
{{Infobox film
| name           = Love & Loathing & Lulu & Ayano
| image          = Love&Loathing&Lulu&Ayano2010Poster.jpg
| alt            = 
| caption        = Japanese poster
| director       = Hisayasu Satō
| producer       = 
| screenplay     = Naoko Nishida
| based on       =  
| narrator       = 
| starring       = Norie Yasui   Mayu Sakuma
| music          = 
| cinematography = 
| editing        = 
| studio         = 
| distributor    = 
| released       =   
| runtime        = 105 minutes
| country        = Japan
| language       = Japanese
| budget         = 
| gross          = 
}}

  is a 2010 Japanese drama film directed by Hisayasu Satō and based on a book by Atsuhiko Nakamura.   

==Plot==
Lulu and Ayono are porn actresses who encounter issues that derive from working in that industry.

==Cast==
* Norie Yasui as Lulu
* Mayu Sakuma as Ayano

==References==
 

==External links==
*  
*   at Twitch Film

 

 
 
 
 
 
 
 


 