Enkiri Village: Dead End Survival
{{Infobox film
| name           = Enkiri Village: Dead End Survival
| image          = 
| image size     = 
| border         = 
| alt            = 
| caption        = 
| director       = Kōichi Tsubaki
| producer       = 
| writer         = 
| screenplay     = Kōichi Tsubaki
| story          = 
| based on       = 
| narrator       = 
| starring       = Reina Fujie   Ren Yagami   Mayuka Okada   Saori Yamamoto   Mitsuo Hamada   Midori Isomura   Shigeru Saiki
| music          = 
| cinematography = 
| editing        = 
| studio         = 
| distributor    = 
| released       =  
| runtime        = 90 minutes
| country        = Japan
| language       = Japanese
| budget         = 
| gross          = 
}}

  is a 2011 Japanese horror film written and directed by Kōichi Tsubaki  and starring Reina Fujie and Ren Yagami. 

==Cast==
* Reina Fujie 
* Ren Yagami
* Mayuka Okada
* Saori Yamamoto
* Mitsuo Hamada
* Midori Isomura
* Shigeru Saiki

==References==
 

==External links==
*    

 
 
 
 
 
 


 
 