Absolution (2007 film)
 
{{Infobox film
| name           =Absolution
| image          =
| caption        = 
| director       = Markus Sehr
| producer       = Moritz Grenzebach
| writer         = Markus Sehr
| starring       =
| music          = Dürbeck & Dohmen
| cinematography = Jens Nolte
| editing        = Stefen Schmitt
| distributor    = 
| released       =  
| runtime        = 15 minutes
| country        = Germany
| language       = German
| budget         = 
| gross          = 
}}
Absolution  is a German short film directed by Markus Sehr. It was released in 2007.

==External links==
*  

 
 
 
 

 