2030 – Aufstand der Jungen
 
{{Infobox film
| name           = 2030 – Aufstand der Jungen
| image          = 
| alt            =  
| caption        = 
| director       = Jörg Lühdorff
| producer       = 
| screenplay     = Jörg Lühdorff
| starring       = Bettina Zimmermann Lavinia Wilson Barnaby Metschurat Kathrin von Steinburg
| music          = 
| cinematography = Konstantin Kröning
| editing        = 
| studio         = 
| distributor    = 
| released       =  
| runtime        = 90 minutes
| country        = Germany
| language       = German
| budget         = 
| gross          = 
}}

2030 – Aufstand der Jungen is a German film directed by Jörg Lühdorff. It was released in 2010.

==External links==
*  

 
 
 
 


 