18:15 ab Ostkreuz
 
{{Infobox film
| name           = 18:15 ab Ostkreuz
| image          = 18-15AbOstkreuz2006Poster.jpg
| caption        = German poster
| director       = Jörn Hartmann
| producer       = Michael Huber Michael Reichenberg
| writer         = Jörn Hartmann
| starring       = Ades Zabel Andreja Schneider
| music          = Matthias Koeninger Stefan Kuschner
| cinematography = Thorsten Falk
| editing        = Jörn Hartmann
| distributor    = 
| released       =  
| runtime        = 110&nbsp;minutes
| country        = Germany
| language       = German
| budget         = 
| gross          = 
}}
18:15 ab Ostkreuz is a German film.

==Cast==
*Ades Zabel as Karin Hoene / Hürriyet Lachmann
*Andreja Schneider als Rosa Brathuhn / Verena Strunzig

==External links==
* 

 
 
 
 

 