Uneasy Money (film)
 
 
{{Infobox film
| name           =Die Abenteuer eines Zehnmarkscheines 
| image          = 
| image_size     = 
| caption        = 
| director       =Berthold Viertel
| producer       = German Club Film AG (DEFA German Fox)
| writer         = Béla Balázs
| narrator       = 
| starring       =
| music          =
| cinematography = 
| editing        = 
| distributor    = 
| released       = 12 November 1928
| runtime        = 
| country        = Germany, USA
| language       =Silent
| budget         = 
| gross          = 
| preceded_by    = 
| followed_by    = 
| website        = 
}}
Die Abenteuer eines Zehnmarkscheines(K. 13513 - The adventures of a ten-mark note) is a German silent film directed by Berthold Viertel. It was released in 1926. This film considered lost.

==External links==
*  
* 

 
 
 
 


 