Bloody Fight in Iron-Rock Valley
 

{{Infobox film
| name           = Bloody Fight in Iron-Rock Valley
| image          = Bloody_Fight_in_Iron-Rock_Valley_poster.jpg
| image size     = 
| border         = 
| alt            = 
| caption        = 
| director       = Ji Ha Jean
| producer       = 
| writer         = 
| screenplay     = 
| story          = 
| based on       = 
| narrator       = 
| starring       = Lee Moo Saeng
| music          = 
| cinematography = 
| editing        = 
| studio         = 
| distributor    = 
| released       =  
| runtime        = 89 minutes
| country        = South Korea
| language       = Korean
| budget         = 
| gross          = 
}}

Bloody Fight in Iron-Rock Valley is a 2011 South Korean film directed by Ji Ha Jean. 

==Cast==
* Lee Moo Saeng

==Reception==
The film won the award for Best Korean Independent Film at the 2011 Puchon International Fantastic Film Festival. 

==References==
 

 
 


 