Pygmalion (1983 film)
{{Infobox film
| name           = Pygmalion
| image          = KiddersPygmalion.jpg
| caption        = promotional still
| director       = Alan Cooke
| producer       = Margot Kidder Dan Redler
| writer         = George Bernard Shaw
| starring       = Margot Kidder Peter OToole
| music          =  Allan Kane
| cinematography = 
| editing        = 
| distributor    = Twentieth Century Fox
| released       =  
| runtime        = 107 minutes
| country        = United States
| language       = English
| budget         =
| gross          =
| preceded_by    = 
| followed_by    = 
}}
 Showtime  starring and produced by Margot Kidder as Eliza Doolittle and Peter OToole as Professor Henry Higgins.  

==References==
 

==External links==
 
*  
 

 
 
 
 
 
 
 


 