Tokyo Playboy Club
{{Infobox film
| name           = Tokyo Playboy Club
| image size     = 
| image	=	Tokyo Playboy Club FilmPoster.jpeg
| border         = 
| alt            = 
| caption        = 
| director       = Yosuke Okuda 
| producer       = Naoki Kai
| writer         = Yosuke Okuda
| screenplay     = 
| story          = 
| based on       =  
| narrator       = 
| starring       = Nao Ōmori   Ken Mitsuishi   Asami Usuda 
| music          = 
| cinematography = Takahiro Imai
| editing        = 
| studio         = 
| distributor    = 
| released       =  
| runtime        = 96 minutes
| country        = Japan
| language       = Japanese
| budget         = 
| gross          = 
}}

  is a 2012 Japanese film directed by Yosuke Okuda. 

==Synopsis==
A stoic drifter (Nao Omori) hiding out at his friends nightclub in Tokyo after blunt manslaughter.

==Cast==
* Nao Ōmori as Katsutoshi
* Ken Mitsuishi as Seikichi
* Asami Usuda as Eriko
* Masaaki Akahori as Takeo
* Takahiro Miura as Umezo
* Yasushi Fuchikami as Takahiro

==References==
 

==External links==
*    
*  

 
 
 

 

 