The Impossible (1966 film)
 
{{Infobox film
| name           = The Impossible
| image          = 
| caption        = 
| director       = Hussein Kamal
| producer       = 
| writer         = 
| starring       = Nadia Lutfi Kamal el-Shennawi
| music          = 
| cinematography = 
| editing        = 
| distributor    = 
| released       =  
| runtime        = 
| country        = Egypt
| language       = Arabic
| budget         = 
}}
 Best Foreign Language Film at the 38th Academy Awards, but was not accepted as a nominee. 

==Cast==
* Nadia Lutfi
* Kamal el-Shennawi
* Salah Mansour 

==See also==
* List of submissions to the 38th Academy Awards for Best Foreign Language Film
* List of Egyptian submissions for the Academy Award for Best Foreign Language Film

==References==
 

==External links==
*  

 
 
 
 
 
 
 
 