Speed Angels
{{Infobox film
| name           = Speed Angels
| image          = Speed Angels poster.jpg
| alt            = 
| caption        = 
| director       = Jingle Ma
| producer       = Tu Lili Hou Jidong Li Xiaoping
| writer         = Jingle Ma Chen Shu
| starring       = Tang Wei   Rene Liu   Han Jae-suk   Jimmy Lin   Cecilia Cheung   Cheng Pei-pei
| music          = Peter Kam  Han Feng
| cinematography = Jingle Ma Tony Cheung Chan Chi-ying Chan Kwok-hung
| editing        = 
| studio         = 
| distributor    = 
| released       =   
| runtime        = 117 minutes
| country        = China   
| language       = Mandarin
| budget         = 
| gross          = 
}}
Speed Angels (Chinese:极速天使) is a 2011 Chinese action film directed by Jingle Ma. 

==Plot==
Taxi driver Xiaoyi (Tang Wei) is discovered by a race car coach and becomes a member of the racing team Speed Angels.

==Cast==
* Tang Wei as Hong Xiaoyi
* Rene Liu as Han Bing
* Han Jae-suk as Gao Feng
* Jimmy Lin as Joe
* Cecilia Cheung as Yu Mei
* Cheng Pei-pei as Xiaoyis mother

==References==
 

==External links==
*  

 

 
 
 
 
 


 
 