A Woman and a Man (film)
 
{{Infobox film
| name           = A Woman and a Man
| image          = 
| caption        = 
| director       = Houssam Eddine Mostafa
| producer       = 
| writer         = 
| starring       = Nahed Sherif Rushdy Abaza
| music          = 
| cinematography = 
| editing        = 
| distributor    = 
| released       =  
| runtime        = 90 minutes
| country        = Egypt
| language       = Arabic
| budget         = 
}}
 Best Foreign Language Film at the 44th Academy Awards, but was not accepted as a nominee. 

==Cast==
* Nahed Sherif
* Rushdy Abaza
* Zizi Mostafa

==See also==
* List of submissions to the 44th Academy Awards for Best Foreign Language Film
* List of Egyptian submissions for the Academy Award for Best Foreign Language Film

==References==
 

 
 
 
 
 
 