My Wife and the Dog
 
{{Infobox film
| name           = My Wife and the Dog
| image          = 
| caption        = 
| director       = Said Marzouk
| producer       = 
| writer         = Said Marzouk
| starring       = Soad Hosny
| music          = 
| cinematography = 
| editing        = 
| distributor    = 
| released       =  
| runtime        = 90 minutes
| country        = Egypt
| language       = Arabic
| budget         = 
}}
 Best Foreign Language Film at the 45th Academy Awards, but was not accepted as a nominee. 

==Cast==
* Soad Hosny
* Nour El-Sherif 
* Mahmoud Moursy 
* Abdel Moneim Bahnassy 
* Zizi Mustafa

==See also==
* List of submissions to the 45th Academy Awards for Best Foreign Language Film
* List of Egyptian submissions for the Academy Award for Best Foreign Language Film

==References==
 

 
 
 
 
 
 