The Man Inside (1990 film)
{{Infobox film
| name           = The Man Inside
| image          = 
| image_size     = 
| caption        = 
| director       = Bobby Roth
| writer         = Bobby Roth, Günter Wallraff
| narrator       = 
| starring       = Jürgen Prochnow
| music          = 
| cinematography = 
| editing        = 
| studio         = 
| distributor    = 
| released       = October 26, 1990
| runtime        = 93 mins.
| country        = United States
| language       = English
| budget         = 
| gross          = 
| preceded_by    = 
| followed_by    = 
| website        = 
| amg_id         = 
}}
The Man Inside is a 1990 film directed by Bobby Roth. It stars Jürgen Prochnow and Peter Coyote.   It was nominated for a Mystfest award in 1990.

==Cast==
*Jürgen Prochnow as Günter Wallraff
*Peter Coyote as Henry Tobel
*Nathalie Baye as Christine
*Dieter Laser as Leonard Schroeter
*Monique van de Ven as Tina Wallraff

==References==
 

==External links==
* 

 

 
 
 
 
 
 
 
 
 
 


 