In the World Tonight
{{Infobox film
| name           = In the World Tonight
| image          =
| image size     =
| border         =
| alt            =
| caption        =
| director       = Geoff Wonfor
| producer       =
| writer         =
| screenplay     =
| story          =
| based on       =
| narrator       =
| starring       = Paul McCartney
| music          =
| cinematography =
| editing        =
| studio         =
| distributor    =
| released       = 1997
| runtime        =
| country        = United States
| language       = English
| budget         =
| gross          =
}}
In the World Tonight is a 1997 documentary about the making of Paul McCartneys Flaming Pie album.   

==References==
 

==External links==
* 

 

 
 
 


 