The Fighting Redhead
{{Infobox film
| name           =The Fighting Redhead
| image          =
| image_size     =
| caption        =
| director       =
| producer       =
| writer         =
| narrator       =
| starring       = Jim Bannon
| music          =
| cinematography =
| editor       =
| distributor    = Eagle-Lion Films
| released       = 1949
| runtime        =
| country        = United States English
| budget         =
}} American film directed by Lewis D. Collins starring Jim Bannon in the role of Red Ryder. 

==Cast==
 

==References==
 

==External links==
* 

 
 
 
 
 
 
 
 


 