Hunting (film)
 
 
{{Infobox film
| name           = Hunting
| image          = 
| image size     =
| caption        = 
| director       = Frank Howson
| producer       = Frank Howson
| writer         = Frank Howson
| based on = 
| narrator       = John Savage
| music          = 
| cinematography = 
| editing        = 
| studio =  Boulevard Films
| distributor    = 
| released       = 1991
| runtime        = 
| country        = Australia English
| budget         = AU$5 million 
| gross = 
| preceded by    =
| followed by    =
}} John Savage, AFI AACTA Best Actress) and Guy Pearce. 

==Plot==
An American tycoon, Michael Bergman, arrives in Melbourne and has an affair with Michelle, a married secretary. 

==Production== Wall Street (1987)". 

==Soundtrack==
Guy Pearce, as well as playing in the film recorded a single called The Promise. The music video featured scenes from the film.

==References==
 

==External links==
*  
 

 
 
 
 
 

 