Too Much (Little) Love
{{Infobox film
| name           = Too Much (Little) Love
| image          = 
| caption        = 
| director       = Jacques Doillon
| producer       = Alain Sarde
| writer         = Brune Compagnon Jacques Doillon
| starring       = Lou Doillon
| music          = 
| cinematography = Christophe Pollock
| editing        = 
| distributor    = 
| released       =  
| runtime        = 119 minutes
| country        = France
| language       = French
| budget         = 
}}

Too Much (Little) Love ( ) is a 1998 French comedy film directed by Jacques Doillon. It was entered into the 48th Berlin International Film Festival.   

==Cast==
* Lou Doillon as Camille
* Jérémie Lippmann as David
* Elise Perrier as Emma
* Alexia Stresi as Margot
* Lambert Wilson as Paul

==References==
 

==External links==
* 

 
 
 
 
 
 
 


 
 