Inazuma Eleven GO: Kyūkyoku no Kizuna Gurifon
{{Infobox film
| name           = Inazuma Eleven GO: Kyūkyoku no Kizuna Gurifon
| image          = 
| caption        = 
| director       = 
| producer       = 
| screenplay     =
| writer         = 
| narrator       = 
| starring       = 
| music          = 
| cinematography = 
| studio         = 
| editing        = 
| distributor    = Toho 
| released       =  
| runtime        =
| country        = Japan
| language       = Japanese
| gross          = 
| followed_by    = 
}} stereoscopic 3D. 

==References==
 

==External links==

 

 
 
 
 
 
 
 
 
 
 


 

 