Tokyo.sora
{{Infobox film
| name           = Tokyo.sora
| image          = 
| image size     = 
| border         = 
| alt            = 
| caption        = 
| director       = Hiroshi Ishikawa
| producer       = 
| writer         = 
| screenplay     = 
| story          = 
| based on       =  
| narrator       = 
| starring       = Yuka Itaya   Haruka Igawa   Ayano Nakamura 
| music          = Yoko Kanno
| cinematography = 
| editing        = 
| studio         = 
| distributor    = 
| released       =  
| runtime        = 127 minutes
| country        = Japan
| language       = Japanese
| budget         = 
| gross          = 
}}

Tokyo.sora is a 2002 Japanese drama film directed by Hiroshi Ishikawa.  

==Cast==
* Yuka Itaya
* Haruka Igawa
* Ayano Nakamura

==References==
 

==External links==
*  

 
 
 
 
 


 