Aya de Yopougon (film)
 
{{Infobox film
| name           = Aya de Yopougon
| image          = 
| image size     = 
| border         = 
| alt            = 
| caption        = 
| director       = Marguerite Abouet Clément Oubrerie
| producer       = 
| writer         = 
| screenplay     = 
| story          = 
| based on       = 
| narrator       = 
| starring       = Aïssa Maïga Eriq Ebouaney Emil Abossolo-Mbo Claudia Tagbo
| music          = 
| cinematography = 
| editing        = 
| studio         = 
| distributor    = 
| released       =  
| runtime        = 
| country        = France
| language       = French
| budget         = 
| gross          = 
}}
Aya de Yopougon is a 2012 French animated film directed by Marguerite Abouet and Clément Oubrerie and based on the graphic novel Aya of Yop City by the same authors. It was released on 23 May in France.  It has been nominated for the Best Animated Feature Film at the 39th César Awards.   

==References==
 

==External links==
* 

 
 
 
 
 
 
 
 