The Tramp and the Crap Game


 
{{Infobox film
| name           = The Tramp and the Crap Game
| image          = 
| image size     = 
| border         = 
| alt            = 
| caption        = 
| director       = 
| producer       = 
| writer         = 
| screenplay     = 
| story          = 
| based on       =  
| narrator       = 
| starring       = 
| music          = Silent film
| cinematography = 
| editing        = 
| studio         = Edison Mfg. Co.
| distributor    = Edison Mfg. Co. 
| released       = 1900 United States 
| runtime        = 
| country        = United States
| language       = 
| budget         = 
| gross          = 
}}
The Tramp and the Crap Game is a silent film from the year 1900.     Its unknown if a copy survives, but it could be lost.

==References==
 

==External links==
 
* 
 

 
 
 
 
 

 