Just in Time (film)
 
{{Infobox film
| name           = Just in Time
| image          = JustinTime1997.jpg
| image_size     = 
| border         = 
| alt            = 
| caption        = DVD cover
| director       = Shawn Levy
| producer       =  
| writer         = 
| screenplay     = Eric Tuchman
| story          = 
| based on       = 
| narrator       = 
| starring       =  
| music          = 
| cinematography = Matthew Williams
| editing        =  
| studio         = Leucadia Film Corporation
| distributor    = Feature Films for Families
| released       =  
| runtime        = 95 minutes
| country        = United States
| language       = English
| budget         = 
| gross          = 
}}

Just in Time is a 1997 American romantic comedy-drama film directed by Shawn Levy from a screenplay by Eric Tuchman. This was the first feature film directed by Levy, who went on to direct such hits as Night at the Museum (2006) and Date Night (2010). 

==References==
 

== External links ==
* 
*  at The Trailers Bay

 

 
 
 
 
 
 
 
 


 
 