Traveller's Joy
 
{{Infobox film
| name           = Travellers Joy
| image          = 
| image_size     = 
| border         = 
| alt            = 
| caption        = 
| director       = Ralph Thomas
| producer       = Antony Darnborough
| screenplay     = Arthur MacRae(play) Allan McKinnon
| story          = 
| based on       = 
| narrator       =  John McCallum Maurice Denham
| music          = Arthur Wilkinson
| cinematography = 
| editing        = 
| studio         = Gainsborough Pictures
| distributor    = General Film Distributors
| released       = 1949
| runtime        = 78 min
| country        = United Kingdom
| language       = English
| budget         = 
| gross          = 
}}
 1949 British John McCallum and Maurice Denham. Based on a play by Arthur MacRae, it was the last film released by the original Gainsborough Pictures.

==Plot== extensive restrictions foreign exchange British travellers can take outside the realm (then  £5), a variety of English men and women are trapped in expensive Sweden.

==External links==
* 

 

 
 
 
 
 
 
 
 


 
 