J'ai bu du café dans un café
{{multiple issues|
 
 
 
}}

{{Infobox film
| name           = Jai bu du café dans un café 
| image          = 
| caption        = 
| director       = Saïd Bouftass 
| producer       = Da Productions
| writer         = 
| starring       = 
| distributor    = 
| released       = 2005
| runtime        = 3
| country        = Morocco
| language       = 
| budget         = 
| gross          = 
}}

Jai bu du café dans un café  is a 2005 Moroccan film.

== Synopsis ==
An imaginary journey thorough the senses of a man having a cup of coffee. Transported by the taste of coffee, he faces himself.

== References ==
 

 
 
 


 