Camera de Afrique
{{multiple issues|
 
 
}}

{{Infobox film
| name           = Camera de Afrique
| image          =
| caption        =
| director       = Ferid Boughedir
| producer       = Ferid Boughedir
| writer         =
| narrator       =
| starring       =
| music          =
| cinematography =
| editing        =
| distributor    =  
| source         = Bernard Hayat 
| released       =  
| runtime        = 95 minutes
| country        = Tunisia
| language       = French + English with English subtitles
}}
Camera de Afrique Is a 1983 documentary.

== See also ==
*Cinema of Tunisia

 
 
 
 
 
 


 
 