Princesa de África
 
{{Infobox film
| name           = Princesa de África
| image          = 
| caption        = 
| director       = Juan Laguna
| producer       = Producciones Bereberia
| writer         = 
| starring       = Sonia Sampayo  Pap Ndiaye  Marem Ndiaye
| distributor    = 
| released       = 2008
| runtime        = 76 minutes
| country        = Spain
| language       = 
| budget         = 
| gross          = 
| screenplay     = Juan Laguna
| cinematography = Borja Pozueco  Gabriel Molera
| editing        = Juan Laguna
| music          = Manuel Sanz  Juan Laguna
}}

Princesa de África is a 2008 documentary film.

== Synopsis == Spanish dancer, two additional love story, full of music and dance, where nothing is what it seems and women are the main characters.

== Awards ==
* Festival de Cine Europeo “Vinos de Castilla-La Mancha” de Solana 2008
* Extremadocs 2008
* Festival Alcances 2008

== References ==
 

 
 
 
 
 
 
 


 
 