An Inaccurate Memoir
{{Infobox film
| name           = An Inaccurate Memoir
| image          = An Inaccurate Memoir poster.jpg
| image size     = 
| border         = 
| alt            = 
| caption        = 
| director       = Yang Shupeng
| producer       = 
| writer         = 
| screenplay     = 
| story          = 
| based on       =  
| narrator       = 
| starring       = Huang Xiaoming   Zhang Yi   Zhang Xinyi   Ni Jingyang   Wang Lie   Tino Bao   Sun Lei   Didi Zhang   Ma Zhiming
| music          = 
| cinematography = 
| editing        = 
| studio         = 
| distributor    = 
| released       =  
| runtime        = 
| country        = China
| language       = Mandarin
| budget         = 
| gross          = 
}}
 thriller film directed by Yang Shupeng.  

==Plot==
Gao, a Chinese soldier, seeking revenge from the Japanese with the help of bandits.

==Cast==
*Huang Xiaoming as Fang
*Zhang Yi as Gao
*Zhang Xinyi as Jen (Fangs sister)
*Ni Jingyang as Lady Dagger
*Wang Lie as Kuei
*Tino Bao as Chalatan
*Sun Lei as San Pao
*Zhang Yue as Lassie
*Didi Zhang 
*Ma Zhiming

==References==
 

 
 
 
 
 


 
 