Three Hearts for Julia
{{Infobox film
| name           = Three Hearts for Julia
| image          = 
| image size     = 
| border         = 
| alt            = 
| caption        = 
| director       = Richard Thorpe
| producer       = John W. Considine, Jr.
| writer         = 
| screenplay     = Lionel Houser
| story          = Lionel Houser
| starring       = Ann Sothern Melvyn Douglas
| music          = Herbert Stothart
| cinematography = George J. Folsey Irvine Warburton
| studio         = 
| distributor    = Metro-Goldwyn-Mayer
| released       =  
| runtime        = 83 mins.
| country        = United States
| language       = English
| budget         = 
| gross          =
}}

Three Hearts for Julia is a 1943 American romantic comedy film starring Ann Sothern and Melvyn Douglas. The film was directed by Richard Thorpe and distributed by Metro-Goldwyn-Mayer.

==External links==
*  
*  
*  

 

 
 
 
 
 
 
 

 