Ulta Seedha
{{Infobox film
| name           = Ulta Seedha
| image          = 
| image_size     = 
| border         = 
| alt            = 
| caption        = 
| director       = Subodh Mukherji
| producer       = Subodh Mukherji
| writer         = Subodh Mukherji
| screenplay     = Ranjan Bose
| story          = Subodh Mukherji
| based on       =  
| narrator       = 
| starring       = Raj Babbar Rati Agnihotri
| music          = Rajesh Roshan
| cinematography = N.V. Srinivas	
| editing        = Ravi Patnaik	
| studio         = 
| distributor    = 
| released       =  
| runtime        = 
| country        = 
| language       = 
| budget         = 
| gross          = 
}}
 Indian Bollywood film directed and produced by Subodh Mukherji. It stars Raj Babbar and Rati Agnihotri in pivotal roles.

==Cast==
* Raj Babbar...Ramesh Saxena
* Rati Agnihotri...Shobha Roy
* Deven Verma...Sapan Kumar
* Aruna Irani...Bahji
* Dalip Tahil...Dhanraj Singh
* Shubha Khote...Mrs. Robert
* Dinesh Hingoo...Doctor Malik

==External links==
* 

 
 
 

 