Khuda Kasam (1981 film)
{{Infobox film
| name           = Khuda Kasam 
| image          = 
| image_size     = 
| border         = 
| alt            = 
| caption        = 
| director       = Lekh Tandon
| producer       = Baldev Pushkarna	
| writer         = 
| screenplay     = Abrar Alvi
| story          = Lekh Tandon	
| based on       =  
| narrator       = 
| starring       = Vinod Khanna Tina Munim
| music          = Laxmikant-Pyarelal
| cinematography = Jehangir Choudhary
| editing        = Prabhakar Supare	 	
| studio         = 
| distributor    = 
| released       =    
| runtime        = 
| country        = India Hindi
| budget         = 
| gross          = 
}}
 Indian Bollywood film directed by Lekh Tandon and produced by Baldev Pushkarna. It stars Vinod Khanna and Tina Munim in pivotal roles.

==Cast==
* Vinod Khanna...Sumer Singh
* Tina Munim...Tina Hukamchand
* Ajit...Raiszada Hukamchand
* Pran (actor)|Pran...Girdhari Lal
* Nazneen...Geeta Singh
* Madan Puri...Kishan Lal
* Shakti Kapoor...Khanna
* Dharmendra...Maharaja Bhunam
==External links==
* 

 
 
 
 

 