Bill Bergson, Master Detective
{{Infobox film
| name           = Bill Bergson, Master Detective
| image          = 
| image_size     = 
| border         = 
| alt            = 
| caption        = 
| director       = Rolf Husberg
| producer       = 
| screenplay     = Rolf Husberg
| based on       =  
| starring       = Olle Johansson Sven-Axel "Akke" Carlsson Ann-Marie Skoglund
| music          = 
| cinematography = Rune Ericson
| editing        = 
| studio         = 
| distributor    = 
| released       =  
| runtime        = 91 minutes
| country        = Sweden
| language       = 
| budget         = 
| gross          = 
}} the novel with the same name, written by Astrid Lindgren.

==Cast==
* Olle Johansson as Kalle Blomkvist
* Sven-Axel "Akke" Carlsson as Anders Bengtsson
* Ann-Marie Skoglund as Eva-Lotta Lisander
* Bernt Callenbo as Sixten
* Ulf Törneman-Stenhammar as Benka
* Roberto Günther as Jonte

==External links==
*  
*  

 

 
 
 
 


 