Five Have a Mystery to Solve (film)
{{Infobox film
| name           = Five Have a Mystery to Solve
| image          =
| imagesize      =
| caption        =
| director       = Ernest Morris
| producer       = 
| writer         = Enid Blyton (novel), Michael Barnes
| based on       = Five Have a Mystery to Solve
| starring       = 
| cinematography = Douglas Ransom
| editing        = 
| distributor    = 
| released       =  
}}
 the novel of the same name by Enid Blyton.

==References==
 

==External links==
*  

 

 
 
 
 
 
 


 
 