Kaanch Ki Deewar
 
{{Infobox film
| name           = Kaanch Ki Deewar
| image          = KaanchKiDeewar.png
| image_size     = 
| border         = 
| alt            = 
| caption        = Promotional Poster
| director       = M.N. Yasin
| producer       = Kamal Chowdhary
| writer         = 
| screenplay     = 
| story          = 
| based on       =  
| narrator       = 
| starring       = Sanjeev Kumar Smita Patil
| music          = Shankar-Jaikishen
| cinematography = 
| editing        = 
| studio         = 
| distributor    = 
| released       =   
| runtime        = 
| country        = India Hindi
| budget         = 
| gross          = 
}}
 Indian Bollywood film directed by M.N. Yasin and produced by Kamal Chowdhary. It stars Sanjeev Kumar and Smita Patil in pivotal roles. 

==Cast==
* Sanjeev Kumar  as  Jaswant Jassu Singh / Durjan Singh
* Smita Patil  as  Nisha
* Amrish Puri  as  Bhoop Singh
* Shakti Kapoor  as  Vikram Singh
* Om Prakash  as  Durjans victim
* Jagdeep  as  Jaswants tutor
* Urmila Bhatt  as  Jaswants mother

==References==
 
==External links==
* 

 
 
 

 