Ego Trip (film)
 

{{Infobox film
| name           = Ego Trip
| image          =
| image_size     =
| caption        =
| director       =
| producer       =
| writer         =
| narrator       =
| starring       = Pam Brown Ron Oakes Mary Peel John Pierce Della Ross
| music          =
| cinematography =
| editing        =
| distributor    =
| released       = 1969
| runtime        =58 min.
| country        =  
| language       = English
| budget         =
| preceded_by    =
| followed_by    =
| website        =
}}
Ego Trip is an American film made in 1969 in film|1969.

==Cast== Pam Brown
*Ron Oakes
*Mary Peel John Pierce
*Della Ross

==External links==
* 

 
 
 
 
 
 


 