The Gateway of the Moon
 
{{Infobox film
| name           = The Gateway of the Moon
| image          = 
| image size     =
| caption        =  
| director       = John Griffith Wray
| producer       =
| writer         =
| narrator       =
| starring       = Dolores del Rio Walter Pidgeon
| music          = 
| cinematography = Chester A. Lyons
| editing        =
| distributor    = Fox Film Corporation
| released       =  
| runtime        = 60 min.
| country        = United States
| language       = 
| budget         =
}} lost 1928 silent film starring Dolores del Río and Walter Pidgeon.  

==Plot==
Arthur Wyatt, an American railroad conductor, is lost in the jungle of the Amazon in South America. He is rescued by Chela, the beautiful princess of an Indian tribe.

==Cast==
*Dolores del Río ...  Chela (Toni)
*Walter Pidgeon ...  Arthur Wyatt
*Leslie Fenton ...  Jim Mortlake

==References==
 

==External links==
* 
* 

 
 
 
 
 
 
 
 
 
 
 


 