Gnarr
 
{{Infobox film
| name           = Gnarr
| image          = Gnarr film poster.jpg
| caption        = Film poster
| director       = Gaukur Úlfarsson
| producer       = Sigvaldi J. Kárason Bjorn Ofeigsson
| writer         = 
| starring       = Jón Gnarr
| music          = 
| cinematography = Bjorn Ofeigsson
| editing        = 
| distributor    = 
| released       =  
| runtime        = 93 minutes
| country        = Iceland
| language       = Icelandic
| budget         = 
}}
 Best Party – and became the mayor of Reykjavík.

==Cast==
* Jón Gnarr as Gnarr

==References==
 

==External links==
*  
*  
*  

 
 
 
 
 
 
 
 
 

 
 