Week-End with Father
{{Infobox film
| name           = Weekend With Father
| image          = 
| image size     =
| caption        = 
| director       = Douglas Sirk
| producer       =
| writer         = 
| narrator       =
| starring       = Van Heflin Patricia Neal Tommy Rettig 
| music          = 
| cinematography = 
| editing        = 
| distributor    = 
| released       = 1952
| runtime        = 
| country        =   English
| budget         =
| gross = $1.25 million (US rentals) 
| preceded by    =
| followed by    =
}}
Week-End with Father is a 1951 film directed by Douglas Sirk.

==References==
 

==External links==
*  at IMDB

 
 
 
 
 


 