Khel Mohabbat Ka
{{Infobox film
| name           = Khel Mohabbat Ka
| image          = 
| image_size     = 
| border         = 
| alt            = 
| caption        = 
| director       = Satish Duggal
| producer       = Digvijay	
| writer         = Rajendra Krishan
| screenplay     = C.L. Kavish
| story          = Rajendra Krishan
| based on       =  
| narrator       = 
| starring       = Farooq Shaikh Poonam Dhillon
| music          = M. Hussain T.N. Mangeshkar G. Yash
| cinematography = Sharad Kadwe
| editing        = Shyam Ramsay	
| studio         = 
| distributor    = 
| released       =   
| runtime        = 
| country        = India Hindi
| budget         = 
| gross          = 
}}
 Indian Bollywood film directed by Satish Duggal and produced by Digvijay. It stars Farooq Shaikh and Poonam Dhillon in pivotal roles.

==Cast==
* Farooq Shaikh  as  Amit Verma
* Poonam Dhillon  as  Lily / Shyamoli
* Shakti Kapoor  as  Ranjeet
* Madan Puri  as  Rehman Khan
* Prema Narayan  as  Ranjeets Secretary
* Ramesh Deo  as  Seth Lala, Lilys Father
* Seema Deo  as  Shyama, Lilys Mother
* Birbal  as  Saxena

==External links==
* 

 
 
 

 