Gehra Zakhm
{{Infobox film
| name           = Gehra Zakhm
| image          = 
| image_size     = 
| border         = 
| alt            = 
| caption        = 
| director       = Deepak Bahry
| producer       = M.P. Jain	
| writer         = 
| screenplay     = 
| story          = 
| based on       =  
| narrator       = 
| starring       = Vinod Mehra  Ranjeeta Kaur
| music          = Rahul Dev Burman
| cinematography = 
| editing        = 
| studio         = 
| distributor    = 
| released       =  
| runtime        = 
| country        = India Hindi
| budget         = 
| gross          = 
}}
 Indian Bollywood film directed by Deepak Bahry and produced by M.P. Jain. It stars Vinod Mehra and Ranjeeta Kaur in pivotal roles.

==Cast==
* Vinod Mehra
* Ranjeeta Kaur
* Om Shivpuri
* Amjad Khan
* Kader Khan

==External links==
* 

 
 
 
 

 