Chehre Pe Chehra
 
{{Infobox film
| name           = Chehre Pe Chehra
| image          = 
| image_size     = 
| border         = 
| alt            = 
| caption        = 
| director       = Raj Tilak
| producer       = Raj Tilak
| writer         = 
| screenplay     = 
| story          = 
| based on       =  
| narrator       = 
| starring       = Sanjeev Kumar Vinod Mehra Shatrughan Sinha Rekha Sulakshana Pandit
| music          = Songs:  
| cinematography = K.K. Mahajan	
| editing        = Madhu Sinha	 
| studio         = 
| distributor    = 
| released       =  
| runtime        = 
| country        = India Hindi
| budget         = 
| gross          = 
}}
 Indian Bollywood film produced and directed by Raj Tilak. It stars Sanjeev Kumar, Vinod Mehra, Shatrughan Sinha, Rekha and Sulakshana Pandit in pivotal roles.

==Cast==
* Sanjeev Kumar...Dr. Wilson / Blackstone
* Vinod Mehra...David
* Shatrughan Sinha...Dr. Sinha
* Rekha...Daisy
* Sulakshana Pandit...Diana
* Amol Palekar...Peter
* Rajni Sharma...Martha
* Amjad Khan...Kanhus (Marthas brother)
* Iftekhar...Colonel (Dianas dad)
 Scottish author Robert Louis Stevenson.

==External links==
* 

 

 
 
 

 