Pyaar Ka Rishta
{{Infobox film
| name           = Pyaar Ka Rishta
| image          = 
| image_size     = 
| border         = 
| alt            = 
| caption        = 
| director       = Sultan Ahmed	 	
| producer       = 
| writer         = 
| screenplay     = 
| story          = 
| based on       =  
| narrator       =  Mumtaz
| music          = Shankar Jaikishan
| cinematography = 
| editing        = 
| studio         = 
| distributor    = 
| released       =  
| runtime        = 
| country        = India Hindi
| budget         = 
| gross          = 
}}
 Indian Bollywood Mumtaz in pivotal roles.

==Cast==
* Vinod Khanna
* Shatrughan Sinha Mumtaz
* Nirupa Roy
* Sameer Khan Nadira
* Johnny Walker
==External links==
* 

 
 
 
 

 