Shikari (1964 film)
 
 
}}
{{Infobox film
| name           = Shikari
| image          = 
| image_size     = 
| border         = 
| alt            = 
| caption        = 
| director       = 
| producer       = 
| writer         = 
| screenplay     = 
| story          = 
| based on       =  
| narrator       = 
| starring       = 
| music          = 
| cinematography = 
| editing        = 
| studio         = 
| distributor    = 
| released       = 1964 
| runtime        = 
| country        = India
| language       = Hindi
| budget         = 
| gross          = 
}}
Shikari is a black-and-white Hindi film released in 1964.  The main characters of the film are Ajit and Ragini.  It has a few good songs.  But was not a success in the box office.

 
 
 


 