Lover Boy (1985 film)
{{Infobox film
| name           = Lover Boy
| image          = 
| image_size     = 
| border         = 
| alt            = 
| caption        = 
| director       = Shomu Mukherjee
| producer       = Shomu Mukherjee
| writer         = 
| screenplay     = Shomu Mukherjee
| story          = Shomu Mukherjee
| based on       =  
| narrator       = 
| starring       = Rajiv Kapoor Meenakshi Seshadri Anita Raj
| music          = Bappi Lahiri
| cinematography = Nando Bhattacharya
| editing        = Keshav Hirani	 	
| studio         = 
| distributor    = 
| released       =   
| runtime        = 
| country        = India Hindi
| budget         = 
| gross          = 
}}
 Indian Bollywood film produced and directed by Shomu Mukherjee. It stars Rajiv Kapoor, Meenakshi Seshadri and Anita Raj in pivotal roles.

==Cast==
* Rajiv Kapoor...Kishan / Kanhaiya
* Meenakshi Seshadri...Radha
* Anita Raj...Bijli
* Tanuja...	Malti
* Om Shivpuri...Rai Saab
* Kader Khan...Sunder Lal
* Navin Nischol...Prakash
* Tun Tun...Phoolmati
==External links==
* 

 
 
 

 