The Personals (1982 film)
{{Infobox film
| name           = The Personals
| image          =
| image_size     =
| caption        =
| director       = Peter Markle
| producer       = Patrick Wells
| writer         = Peter Markle
| narrator       =
| starring       = Bill Schoppert
| music          =
| cinematography =
| editing        =
| studio         =
| distributor    = New World Pictures 
| released       =  
| runtime        =
| country        = United States
| language       = English
| budget         = $375,000 
| gross          = $2 million Christopher T Koetting, Mind Warp!: The Fantastic True Story of Roger Cormans New World Pictures, Hemlock Books. 2009 p 216-217 
| website        =
| amg_id         =
}}
The Personals is a 1982 romantic comedy written and directed by Peter Markle. It was shot in Minneapolis. The film was picked up for distribution by Roger Cormans New World Pictures.

==Plot==
A man whose wife has left him starts dating again by putting ads in the personals.

==References==
 

==External links==
*  at IMDB
*  at the New York Times

 

 
 
 
 


 