One Man's War
{{Infobox film
| name           = One Mans War
| image          =
| caption        =
| director       = Sérgio Toledo
| producer       = Ann Skinner
| writer         = Michael Carter Sérgio Toledo
| narrator       =
| starring       = Anthony Hopkins Norma Aleandro Fernanda Torres Rubén Blades
| music          = John E. Keane
| cinematography = Rodolfo Sánchez
| editing        = Laurence Méry-Clark
| studio         = Channel 4, HBO, Skreba Films, TVS Films
| distributor    =
| released       =  
| runtime        = 93 minutes 
| country        = United Kingdom
| language       = English
| budget         =
}}
 New York, 22 April 1991,   

==References==
 

==External links==
*  

 
 
 
 
 
 


 