Pets (film)
{{Infobox film
| name           = Pets
| image          =
| caption        =
| director       = Raphael Nussbaum
| producer       =
| writer         = Raphael Nussbaum
| starring       = Candice Rialson
| music          =
| cinematography =
| editing        =
| distributor    =
| released       =  
| runtime        =
| country        = United States English
| budget         =
| gross          =
}}
Pets is a 1974 film starring Candice Rialson as a runaway who has various adventures.

==Cast==
*Ed Bishop as Victor Stackman
*Joan Blackman as Geraldine Mills
*Candice Rialson as Bonnie

==External links==
* 

 
 
 

 