The Misfortunes of an Explorer
{{Infobox film
| name           = The Misfortunes of an Explorer
| image          = Méliès, Infortunes dun explorateur (frammento, Star Film 234, 1900).jpg
| caption        = A scene from the film
| director       = Georges Méliès
| producer       = 
| writer         = 
| starring       = 
| music          = 
| cinematography = 
| editing        = 
| distributor    = 
| released       =  
| runtime        = Short
| country        = France
| language       = Silent film
| budget         = 
}}
The Misfortunes of an Explorer ( ) was a short silent film created and released in 1900 and directed by Georges Méliès.

==External links==
* 
*  

 

 
 
 
 
 
 


 