2012: Kurse a di Xtabai
 
{{Infobox film
| name           = 2012: Kurse a di Xtabai
| image          = 
| alt            = 
| caption        = 
| director       = Matthiew Klinck
| producer       = Matthiew Klinck
| writer         = 
| starring       = Nehanda Higinio
| music          = Ricardo Galvez
| cinematography = 
| editing        = 
| studio         = Make-Belize Films
| distributor    = 
| released       =  
| runtime        = 80 minutes
| country        = Belize
| language       = Creole
| budget         = 
| gross          = 
}}
2012: Kurse a di Xtabai (Curse of the Xtabai) is an 80 minute Creole-language supernatural thriller and the first major feature length dramatic movie to be entirely made in Belize.  It was directed by Matthiew Klinck and selected as the opening night movie of the 2012 Belize International Film Festival.  It was then taken on a national tour around the country and projected for audiences on an inflatable screen.

== External links ==
* 
*  

 
 
 
 
 
 
 
 
 


 