Paras (film)
{{multiple issues|
 
 
}}

{{Infobox film
| name           = Paras
| image          = 
| caption        =
| director       = C.P Dixit
| producer       = N.N Sippy   M.A Madhu
| writer         = S.M Abbas
| narrator       = Mehmood Farida Jalal Shatrughan Sinha
| music          =
| cinematography = K.H Kapadia
| editing        = Waman Bhosle   Guru Dutt
| distributor    =
| released       = 1971
| runtime        =
| country        = India
| language       = Hindi
| budget         =
| preceded_by    =
| followed_by    =
| website        =
}}
Paras is a 1971 Hindi film starring: Sanjeev Kumar, Raakhee, Mehmood Ali|Mehmood, Farida Jalal, Shatrughan Sinha, Madan Puri.

==External links==
* 

 
 
 

 