Mera Punjab
 

{{Infobox film
| name           = Mera Punjab
| image          = 
| image_size     = 
| caption        = 
| director       = Krishna Dev Mehra
| producer       = 
| writer         =
| narrator       = 
| starring       =
| music          = 
| cinematography = 
| editing        = 
| distributor    = 
| released       = 1940
| runtime        = 
| country        = India Punjabi
| budget         = 
| gross          = 
| preceded_by    = 
| followed_by    = 
| website        = 
}}
 1940 Indian film directed by Krishna Dev Mehra. It stars Haider Bandi. The film is considered one of the best Punjabi films ever made, although it didnt earn much at the box office at the time of release in December 1940.   

==References==
 

==External links==
*  

 
 
 


 