Ghar Ki Rani
{{Infobox film
| name           = Ghar Ki Rani
| image          = 
| image_size     = 
| caption        = 
| director       = Master Vinayak
| producer       = 
| writer         =
| narrator       = 
| starring       =
| music          = 
| cinematography = 
| editing        = 
| distributor    = 
| released       = 1940
| runtime        = 
| country        = India Hindi
| budget         = 
| gross          = 
| preceded_by    = 
| followed_by    = 
| website        = 
}}
 1940 Bollywood film directed by and starring Master Vinayak.  
  
==Cast==
*Master Vinayak as Satyavan
*Meenakshi Shirodkar as Savitri
*Baburao Pendharkar		
*Damuanna Malvankar		
*Leela Chitnis as Arundhati

==References==
 

==External links==
*  

 

 
 
 