The Girl from Nowhere
 
{{Infobox film
| name           = The Girl from Nowhere
| image          = 
| border         = 
| alt            = 
| caption        = 
| director       = Jean-Claude Brisseau
| producer       = 
| writer         = Jean-Claude Brisseau Claude Morel 
| music          = 
| cinematography = David Chambille 
| editing        = Maria-Luisa Garcia Julie Picouleau 
| studio         = 
| distributor    = 
| released       =  
| runtime        = 91 minutes
| country        = France
| language       = French
| budget         = 
| gross          = 
}}
The Girl from Nowhere ( ) is a 2012 French drama film directed by Jean-Claude Brisseau.  It won the Golden Leopard at the 65th Locarno International Film Festival.  

==References==
 

 
 

 
 
 
 
 
 
 


 
 