Apna Ghar
{{Infobox film
| name           = Apna Ghar
| image          = 
| image_size     = 
| caption        = 
| director       = Debaki Bose
| producer       = 
| writer         =
| narrator       = 
| starring       =Shanta Apte  Mahesh Kaul   Chandra Mohan (Hindi film actor)| Chandra Mohan
| music          = 
| cinematography = 
| editing        = 
| distributor    = 
| released       = 1942
| runtime        = 
| country        = India Hindi
| budget         = 
| gross          = 
| preceded_by    = 
| followed_by    = 
| website        = 
}}

Apna Ghar is a Bollywood film. It was released in Bollywood films of 1942|1942.    

==References==
 

==External links==
*  

 
 
 

 