Ladaai Ke Baad
{{Infobox film
| name           =Ladaai Ke Baad
| image          = 
| image_size     = 
| caption        = 
| director       =  
| producer       = 
| writer         =
| narrator       = 
| starring       = Sharda 
| music          =  
| cinematography = 
| editing        = 
| distributor    = 
| released       =  
| runtime        = 
| country        = India Hindi
| budget         = 
| gross          = 
}}

Ladaai Ke Baad is a Bollywood film. It was released in 1943.    
  
==References==
 

==External links==
*  

 

 
 
 