Second Wife (1936 film)
{{Infobox film
| name           = Second Wife
| image          = 
| caption        = 
| director       = Edward Killy
| producer       =
| based on       = 
| screenplay     = 
| starring       = Gertrude Michael Walter Abel
| music          = 
| cinematography = 
| editing        = 
| distributor    = RKO Radio Pictures
| released       = August 21, 1936
| runtime        = 
| country        = United States
| language       = English
| budget         = $68,000 Richard Jewel, RKO Film Grosses: 1931-1951, Historical Journal of Film Radio and Television, Vol 14 No 1, 1994 p55 
| gross          = $197,000 
}}
Second Wife is a 1936 film.

==Reception==
It made a profit of $58,000. 

==References==
 

==External links==
*  at IMDB
*  at TCMDB

 
 
 
 


 