Too Many Wives
{{Infobox film
| name           = Too Many Wives
| image          =
| caption        =
| director       = Ben Holmes
| producer       =
| writer         = Anne Shirley
| music          =
| cinematography =
| editing        = RKO Radio Pictures
| released       =  
| runtime        =
| country        = United States
| language       = English
| budget         = $105,000 Richard Jewel, RKO Film Grosses: 1931-1951, Historical Journal of Film Radio and Television, Vol 14 No 1, 1994 p57  
| gross          = $122,000 
}}
Too Many Wives is a 1937 film. It lost $35,000. 

==References==
 

==External links==
*  at TCMDB
* 

 
 
 
 


 