Quick Money
{{Infobox film
| name           = Quick Money
| image          =
| caption        =
| director       = Edward Killy
| producer       =
| writer         =
| starring       = Fred Stone
| music          =
| cinematography =
| editing        = RKO Radio Pictures
| released       =  
| runtime        =
| country        = United States
| language       = English
| budget         = $120,000 Richard Jewel, RKO Film Grosses: 1931-1951, Historical Journal of Film Radio and Television, Vol 14 No 1, 1994 p57 
| gross          = $155,000 
}}
Quick Money is a 1937 film. It lost $37,000. 

==References==
 

==External links==
* 

 


 