The First Rains of Spring
{{Infobox film
| name           = The First Rains of Spring
| image          = 
| caption        = 
| director       = Erlan Nurmuhambetov Shinju Sano
| producer       = 
| writer         = 
| starring       = 
| music          = 
| cinematography = 
| editing        = 
| distributor    = 
| released       =  
| runtime        = 
| country        = Kazakhstan, Japan
| language       = Russian
| budget         = 
}}
 Eurasia Film Festival.   

==References==
 

==External links==
*  

 
 
 
 
 
 
 
 