Unexpected Uncle
{{Infobox film
| name           = Unexpected Uncle
| image          =
| caption        = Peter Godfrey
| producer       = Tay Garnett
| writer         = Anne Shirley James Craig
| music          =
| cinematography = Robert De Grasse
| editing        = RKO Radio Pictures
| released       =  
| runtime        =
| country        = United States
| language       = English
| budget         =
| gross          =
}}
Unexpected Uncle is a 1941 film.

==Reception==
It lost $195,000 at the box office. Richard Jewell & Vernon Harbin, The RKO Story. New Rochelle, New York: Arlington House, 1982. p166 

==References==
 

==External list==
*   at IMDB
 
 

 