A Kiss for Corliss
{{Infobox film
| name           = A Kiss for Corliss
| image          =
| image_size     =
| alt            = 
| caption        =  Richard Wallace
| writer         = 
| narrator       = 
| starring       = Shirley Temple
| music          = 
| cinematography = Robert De Grasse
| editing        = 
| studio         = Strand Productions
| distributor    = United Artists
| released       =  
| runtime        = 88 minutes
| country        = United States
| language       = English
| budget         = 
| gross          = 
}} Richard Wallace. Kiss and Tell.  A Kiss for Corliss was retitled "Almost a Bride" before release and this title appears in the title sequence. 

==Cast==
* Shirley Temple as Corliss Archer
* David Niven as Kenneth Marquis
* Tom Tully as Harry P. Archer
* Gloria Holden as Mrs. Janet Archer
* Darryl Hickman as Dexter Franklin

==References==
 

==External links==
*  
*  

 
 
 
 
 

 