A Dog of Flanders (1960 film)
{{Infobox film
| name           = A Dog of Flanders
| image          =
| caption        = James B. Clark
| producer       = Robert B. Radnitz
| writer         = Ouida Ted Sherdeman Spike
| music          = Paul Sawtell Bert Shefter
| cinematography = Otto Heller
| editing        = Benjamin Laird
| distributor    = 20th Century Fox
| released       =  
| runtime        = 96 minutes
| country        = United States
| language       = English
| budget         = $600,000 
| gross          =
}}
 1872 novel James B. Clark.

==Trivia== Old Yeller.

==References==
 

==External links==
*  at IMDB
*  at TCMDB

 
 
 
 
 
 
 
 


 