Lust and Revenge
{{Infobox film
| name           = Lust and Revenge
| image          = 
| image size     =
| caption        = 
| director       = Paul Cox
| producer       =
| writer         = Paul Cox John Clarke
| based on = 
| narrator       =
| starring       = Claudia Karvan Nicholas Hope Gosia Dobrowolska
| music          = 
| cinematography = 
| editing        = 
| studio = 
| distributor    = 
| released       = 1996
| runtime        = 
| country        = Australia English
| budget         =
| gross = A$170,000 (Australia) 
| preceded by    =
| followed by    =
}}
Lust and Revenge is a 1996 film directed by Paul Cox. It was shot in South Australia. 

==References==
 

==External links==
*  at IMDB
*  at Urban Cinefile
*  at Paul Coxs website

 

 
 
 
 


 
 