The Veils of Bagdad
{{Infobox film
| name           = The Veils of Bagdad
| image          = 
| image size     =
| caption        = 
| director       = George Sherman
| producer       = 
| writer         = 
| based on = 
| narrator       =
| starring       = Victor Mature Mari Blanchard
| music          = 
| cinematography = 
| editing        = 
| studio = Universal
| distributor    = 
| released       = 1953
| runtime        = 
| country        = USA English
| budget         = 
| gross = 
| preceded by    =
| followed by    =
}}
The Veils of Bagdad is a 1953 film starring Victor Mature. 

==References==
 

==External links==
*  
*  

 

 
 
 
 
 
 
 
 
 


 