Breathing Under Water (film)
{{Infobox film
| name           = Breathing Under Water
| image          = 
| image size     =
| caption        = 
| director       = Susan Dermody
| producer       = Megan McMurchy
| writer         = Susan Demody
| based on = 
| narrator       =
| starring       = Anne Louise Lambert Maeve Dermody David Argue
| music          = 
| cinematography = 
| editing        = 
| studio = 
| distributor    = 
| released       = 1991
| runtime        = 
| country        = Australia English
| budget         = 
| gross = A$17,200 
| preceded by    =
| followed by    =
}}
Breathing Under Water is an Australian film, the first feature from academic and writer Susan Demody. 

==References==
 

==External links==
*  at Australian Screen Online
*  at IMDB

 
 
 
 

 