Next: A Primer on Urban Painting
 
{{Infobox film
| name            = Next: A Primer on Urban Painting
| image           = Next A Primer on Urban Painting.jpg
| caption         = 
| director        = Pablo Aravena
| producer        = Pablo Aravena
| writer          = Pablo Aravena
| starring        =
| music           =
| cinematography  =
| editing         =
| distributor     =
| released        =  
| runtime         =
| language        = Canada
| budget          = 
}}
Next: A Primer on Urban Painting is a 2005 documentary film from Canadian filmmaker Pablo Aravena, exploring graffiti around the world. Sequences were shot in the USA, Canada, France, Holland, Germany, England, Spain, Japan and Brazil. 

== External links ==
*  

 
 
 
 
 
 

 
 