Lex and Rory
 
{{Infobox film
| name           = Lex and Rory
| image          =
| caption        =
| director       = Dean Murphy
| producer       =
| writer         = Dean Murphy
| starring       = Scott Andrews
| music          =
| cinematography =
| editing        =
| distributor    =
| released       =  
| runtime        =
| country        = Australia
| language       = English
| budget         =
| gross          = A$39,285 (Australia) 
}}
Lex and Rory is a 1994 Australian film from director Dean Murphy. 

==References==
 

==External links==
* 

 
 
 