Redball (film)
{{Infobox film
| name           = Redball
| image          = 
| image size     =
| caption        = 
| director       = Jon Hewitt
| producer       =
| writer         = John Hewitt
| based on = 
| narrator       =
| starring       = Belinda McClory John Brumpton
| music          = 
| cinematography = 
| editing        = 
| studio = 
| distributor    = 
| released       = 1999
| runtime        = 
| country        = Australia English
| budget         = under A$300,000 
| gross = A$30,276 (Australia) 
| preceded by    =
| followed by    =
}}
Redball is a 1999 Australian film.

Jon Hewitt wrote the script after seeing Belinda McClory in Janus on TV. 

Most of the budget came from private sources with $100,000 from Film Victoria. The movie was shot on mini-DV.   accessed 18 November 2012 
==References==
 

==External links==
* 
*  at Urban Cinefile

 
 
 

 