A Matter of Size
{{Infobox film
| name           = A Matter of Size
| image          = 
| alt            = 
| caption        = 
| director       = Sharon Maymon   Erez Tadmor
| producer       = 
| writer         =  Itzik Cohen   Dvir Benedek   Alon Dahan
| music          = 
| cinematography = 
| editing        = 
| studio         = 
| distributor    = 
| released       =  
| runtime        = 90 min
| country        = Israel
| language       = Hebrew, Japanese
| budget         = 
| gross          = 
}}
A Matter of Size ( ) is a 2009 Israeli film.

== Cast == Itzik Cohen - Herzl
* Dvir Benedek - Aharon
* Alon Dahan - Gidi
* Shmulik Cohen - Sami
* Irit Kaplan - Zehava
* Togo Igawa - Kitano

==External links==
*  

 
 
 
 

 