Bitter Love
 
{{Infobox film
| name           = Bitter Love
| image          = 
| image size     = 
| border         = 
| alt            = 
| caption        = 
| director       = Li Jide
| producer       = 
| writer         = 
| screenplay     = 
| story          = 
| based on       =  
| narrator       = 
| starring       =
| music          = 
| cinematography = 
| editing        = 
| studio         = Beijing Laima Fengshang Media Co.,Ltd
| distributor    = 
| released       =   
| runtime        = 93 minutes
| country        = China
| language       = Mandarin
| budget         = 
| gross          = chinese yuan|¥0.14 million (China)
}}

Bitter Love ( ) is a 2014 Chinese romantic drama film directed by Li Jide. It was released in China on January 10, 2014.  

==Cast==
*Wang Dazhi
*Wang Erni
*Li Shaofei 
*Li Fengming 
*Chen Changhai 
*Liu Xueping 
*Huang Jingyi

==Reception==
The film earned chinese yuan|¥0.14 million at the Chinese box office. 

==References==
 

 
 
 
 


 
 