Kuhelika
{{Infobox film
| name           = Kuhelika
| image          = 
| image_size     = 
| border         = 
| alt            = 
| caption        = 
| director       =  Ramesh Bose
| producer       = 
| writer         = 
| screenplay     = 
| story          = 
| based on       =  
| narrator       = 
| starring       = 
| music          = Dakshinamohan Thakur
| cinematography = 
| editing        = 
| studio         = Sunshine Productions
| distributor    = 
| released       =  1952
| runtime        = 
| country        = India
| language       = Bengali
| budget         = 
| gross          = 
}} Bengali film.    The film was directed by Ramesh Bose and was made under the banner of Sunshine Productions. Dakshinamohan Thakur scored music of the film.   

== Plot ==
 

== Cast ==
* Ahindra Choudhury
* Tulsi Chakraborty
* Amar Choudhury
* Santosh Sinha
* Ashu Bose
* Rajlakshmi Debi
* Nani Majumdar
* Bandana Debi
* Debiprasad Chowdhury
* Monika Ghosh
* Sushil Bandyopadhyay

== See also ==
* Matri Sneha
* Satya Pathe

== References ==
 

== External links ==
*  

 
 
 


 