Satya Pathe
{{Infobox film
| name           = Satya Pathe
| image          = 
| image_size     = 
| border         = 
| alt            = 
| caption        = 
| director       = Amar Choudhury
| producer       = 
| writer         = 
| screenplay     = 
| story          = 
| based on       =  
| narrator       = 
| starring       = 
| music          = Bimal Das Gupta
| cinematography = 
| editing        = 
| studio         = 
| distributor    = 
| released       =  1935
| runtime        = 
| country        = India
| language       = Bengali
| budget         = 
| gross          = 
}} Bengali film.    The film was directed by Amar Choudhury and produced by Madan Theatres Ltd. Bimal Das Gupta composed the music of the film.   

== Plot ==
 

== Cast ==
* Jahar Gangopadhyay
* Amar Chowdhury 
* Dhiraj Bhattacharya
* Ashu Bose
* Chittaranjan Goswami
* Chunibala
* Dolly Dutta
* Indubala
* Kartik Roy
* Kiran Ray
* Tarakumar Bhattacharya

== See also ==
* Matri Sneha
* Tritiya Paksha

== References ==
 

== External links ==
*  

 
 
 


 