Mr. Naive
 
{{Infobox film
| name           = Mr. Naive
| image          = 
| caption        = 
| director       = Dariush Mehrjui
| producer       = 
| writer         = Ali Nassirian Dariush Mehrjui
| starring       = Ali Nassirian
| music          = 
| cinematography = Houshang Baharlou
| editing        = 
| distributor    = 
| released       =  
| runtime        = 
| country        = Iran
| language       = Persian
| budget         = 
}}

Mr. Naive ( , also released as Mr. Gullible) is a 1971 Iranian drama film directed by Dariush Mehrjui. It was entered into the 7th Moscow International Film Festival.   

==Cast==
* Ali Nassirian
* Ezzatolah Entezami
* Fakhri Khorvash
* Mohamad Ali Keshavarz

==References==
 

==External links==
*  

 

 
 
 
 
 
 
 
 