Dancing Trees
  
{{Infobox film
| name           = Dancing Trees
| image          = 
| alt            = 
| caption        = 
| director       = Anne Wheeler
| producer       = 
| writer         = Joseph Nasser
| starring       = Brooke Burns  Katie Boland   Amanda Tapping
| music          = 
| cinematography = 
| editing        = 
| studio         =  NGN Productions 
| distributor    = 
| released       =  
| runtime        = 
| country        = Canada
| language       = English
| budget         = 
| gross          = 
}}
Dancing Trees (Partners in Crime) is a Canadian drama thriller film directed by Anne Wheeler  and written by Joseph Nasser. Its cast features Brooke Burns, Katie Boland and Amanda Tapping. 

==References==
 

==External links==
*  

 
 
 
 
 
 