La barra de Taponazo
{{Infobox film
| name           =La barra de Taponazo
| image          = 
| image size     =
| caption        =
| director       = Alejandro del Conte
| producer       =
| writer         = 
| narrator       =
| starring       = 
| music          =
| cinematography =
| editing        =
| distributor    =
| released       =9 September 1932
| runtime        =
| country        =  
| language       = Spanish
| budget         =
| preceded by    =
| followed by    =
}} 1932  Argentine film directed by Alejandro del Conte.   

==Cast==
*Vicente Padula
*Emé Doris
*Carmen Reyes
*Paco Obregón
*Roberto Saghini
*Julio de Caro
*Miguel Gómez Bao
*Julio Andrada

==References==
 

==External links==
*  

 
 
 
 

 