The Paradise Virus
{{Infobox television film
| name           = The Paradise Virus
| image          = 
| caption        = 
| director       = Brian Trenchard-Smith
| producer       = 
| writer         = 
| starring       =  Lorenzo Lamas Melody Thomas Scott Ralf Moeller
| music          = 
| cinematography = 
| editing        = 
| studio         = 
| network        = 
| released       =  
| runtime        = 
| country        = United States
| language       = English
| budget         = 
| gross          = 
}}
The Paradise Virus is a 2003 thriller film directed by Brian Trenchard-Smith shot on Grand Turk Island. The film sold widely and the producers later worked with Trenchard-Smith on Long Lost Son (2006).   accessed 4 February 2013 

==References==
 

==External links==
*  
 

 
 
 
 
 
 


 
 