Guerilla from the North
{{Infobox film
| name           = Guerilla from the North
| image          = 
| caption        =  Francisco Guerrero
| producer       = 
| writer         = Xavier Robles
| starring       = Juan Valentín
| music          = 
| cinematography = 
| editing        = 
| distributor    = 
| released       =  
| runtime        = 92 minutes
| country        = Mexico
| language       = Spanish
| budget         = 
}}
 Francisco Guerrero. It was entered into the 13th Moscow International Film Festival.   

==Cast==
* Juan Valentín
* Ernesto Gómez Cruz
* Jorge Humberto Robles Macaria
* José Carlos Ruiz
* Silvia Manríquez
* Alfredo Wally Barrón
* Isabela Corona
* Alfonso Munguía
* Jorge Reynoso
* Alfredo Gutiérrez

==References==
 

==External links==
*  

 
 
 
 
 
 
 
 