Rajasekhara Reddy (film)
 

{{Infobox film
| name           = Rajasekhara 
| image          =
| caption        =
| director       = Puri Jagannadh
| producer       = Puri Jagannadh
| writer         =
| starring       = Shaam
| music          =
| cinematography =
| editing        =
| studio         =
| distributor    =
| released       =  
| runtime        =
| country        = India
| language       = Telugu
| budget         =
| gross          =
}} Tollywood drama film directed by Puri Jagannadh and produced by Puri Jagannadh.
The film is set to release in February 2013.This Project was Announced By Puri Jagannadh immediately after the death of rajasekhar  but has never took off and eventually, it has been cancelled

==Cast==
* Shaam

 
 
 
 


 