The Mythical Ark: Adventures in Love & Happiness
{{Infobox film
| name           = The Mythical Ark: Adventures in Love & Happiness
| image          = The Mythical Ark- Adventures in Love & Happiness poster.jpg
| image size     = 
| border         = 
| alt            = 
| caption        = 
| director       = 
| producer       = 
| writer         = 
| screenplay     = 
| story          = 
| based on       = Pleasant Goat and Big Big Wolf
| narrator       = 
| starring       = 
| music          = 
| cinematography = 
| editing        = 
| studio         = 
| distributor    = 
| released       =   
| runtime        = 
| country        = China
| language       = Mandarin
| budget         =  RMB125 million (United States dollar|US$20.7 million) (China)
}}
 Chinese animated film   part of the film series based on the animated television series Pleasant Goat and Big Big Wolf.

==Reception== RMB125 million (United States dollar|US$20.7 million) at the Chinese box office. 

==References==
 

 

 
 
 
 
 
 


 
 