Çilgin kiz ve üç süper adam
{{Infobox film
| name           = Çilgin kiz ve üç süper adam
| image          = 
| image_size     = 
| caption        = 
| director       = Cavit Yürüklü
| producer       = Müfit Ilkiz (producer)
| writer         = Volkan Kayhan (writer)
| narrator       = 
| starring       = See below
| music          = 
| cinematography = Orhan Kapki
| editing        = 
| studio         = 
| distributor    = 
| released       = 1973
| runtime        = 65 minutes
| country        = Turkey
| language       = Turkish
| budget         = 
| gross          = 
| preceded_by    = 
| followed_by    = 
| website        = 
}}

Çilgin kiz ve üç süper adam is a 1973 Turkish film directed by Cavit Yürüklü.

The film is also known as 3 Supermen and Mad Girl (American informal English title).

== Plot summary ==
 

== Cast ==
*Levent Çakir
*Altan Bozkurt
*Yesim Yükselen
*Nubar Terziyan
*Nuri Kirgeç
*Mine Sun

== Soundtrack ==
 

== External links ==
* 
* 

 
 
 
 
 
 
 
 


 
 