Viva Freedom!
{{Infobox film
| name            = Viva Freedom!
| image           = Jayu manse poster.jpg
| caption         = Theatrical poster to Viva Freedom! (1946)
| director        = Choi In-kyu 
| producer        = Choi Wan-gyoo
| writer          = Jeon Chang-geun 
| starring        = Jeon Chang-geun Hwang Yeo-heui Yu Gye-seon
| music           = Pak Tae-hyeon Jo Baek-bong
| cinematography  = Han Hyeong-mo
| editing         = 
| distributor     = Koryo Film Co. Ltd.
| released        =  
| runtime         = 80 minutes
| country         = South Korea
| language        = Korean
| budget          = 
| film name      = {{Film name
 | hangul          =  
 | hanja           =  
 | rr              = Jayu Manse
 | mr              = Chayu Manse}}
}} Korean film colonial period, Choi was only allowed to make certain films, but the plot of Viva Freedom! is distinctly different, telling the story of a Korean patriotic resistance fighter in 1945.

 

==References==
 

==External links==
*  
*  
*  

 
 
 

 