Blondie (1975 film)
{{Infobox film
| name           = Blondie
| image          = 
| image size     = 
| caption        = 
| director       = Sergio Gobbi
| producer       = 
| writer         = 
| narrator       = 
| starring       = Rod Taylor Bibi Andersson Catherine Jourdan Mathieu Carrière
| music          =  
| cinematography = 
| editing        = 
| distributor    = 
| released       = 1975
| runtime        = 
| country        = France
| language       = English
| budget         = 
| gross          = 44,373 admissions (France) 
| preceded by    = 
| followed by    = 
}}
Blondie is a 1975 erotic thriller film.

It was also known as Germacide and Vortex.

It was shot in Paris in September 1975. 
==References==
 
==External links==
*  at the Complete Rod Taylor Site
*  at IMDB

 
 
 
 

 