Earth's Skin
{{Infobox film
| name           = Earths Skin
| image          = 
| caption        =  Manuel Fernandez
| producer       = Carlos Conde
| writer         = Manuel Fernandez
| starring       = Pilar Barrera
| music          = 
| cinematography = Pablo Hernández Smith
| editing        = 
| distributor    = 
| released       =  
| runtime        = 97 minutes
| country        = Spain
| language       = Spanish
| budget         = 
}}
 Manuel Fernandez. It was entered into the 26th Moscow International Film Festival.   

==Cast==
* Pilar Barrera
* Manuel de Blas as Mateo el enterrador
* Carmen del Valle as María
* Manuel Galiana as Salatiel
* Sergio Peris-Mencheta as Pablo

==References==
 

==External links==
*  

 
 
 
 
 
 
 
 