About Sara
{{Infobox film
| name           = About Sara
| image          = 
| caption        = 
| director       = Othman Karim
| producer       = Malin Holmberg-Karim
| writer         = Petra Revenue Othman Karim
| starring       = Linda Zilliacus
| music          = 
| cinematography = Søren Bay
| editing        = 
| distributor    = 
| released       =  
| runtime        = 108 minutes
| country        = Sweden
| language       = Swedish
| budget         = 
}}

About Sara ( ) is a 2005 Swedish drama film directed by Othman Karim. It won the Golden George at the 28th Moscow International Film Festival.   

==Cast==
* Linda Zilliacus as Sara
* Alexander Skarsgård as Kalle Öberg
* Hugo Emretsson as Stefan
* Alexander Karim as Pelle
* Siw Erixon as Saras mamma
* Eva Rydberg as Kalles mamma

==References==
 

==External links==
*  
*  

 

 
 
 
 
 
 
 
 