Made in U.S.A. (1987 film)
{{Infobox film
| name           = Made in U.S.A.
| image          = 
| image_size     = 
| border         = 
| alt            = 
| caption        = 
| film name      =
| director       = Ken Friedman
| producer       =  
| writer         =  
| screenplay     = Zbigniew Kempinski
| story          = 
| based on       =  
| narrator       = 
| starring       =  
| music          = 
| cinematography = Curtis Clark
| editing        = Curtiss Clayton
| studio         =  
| distributor    = TriStar Pictures
| released       =   
| runtime        = 82 min.
| country        = United States
| language       = English
| budget         = 
| gross          = 
}} Made in USA) of all the songs they had recorded for the film.
 John Daly Hemdale Films. Friedman first showed his version, without the permission of Hemdale, who held the copyright, at the 1987 Cannes Film Festival. Daly released the studios version to video in 1989. 

== References ==
 

== External links ==
* 
* 

 
 
 
 
 


 