Bhai Jaan
{{Infobox film
| name           =Bhai Jaan
| image          = 
| image_size     = 
| caption        = 
| director       =  
| producer       = 
| writer         =
| narrator       = 
| starring       =
| music          = 
| cinematography = 
| editing        = 
| distributor    = 
| released       = 1945
| runtime        = 
| country        = India Hindi
| budget         = 
| gross          = 
| preceded_by    = 
| followed_by    = 
| website        = 
}}

Bhai Jaan  is a Bollywood film. It was released in 1 Jan 1945 in Bombay. Directed by Syed Khalil. The actors were Karan Dewan, Noorjahan, Anees Khatoon, Meena, Shah Nawaz, Ansari and Nazir. It was a family drama, made under a banner of United Films. The print has been lost now. Bollywood films of 1945|1945.    
  
==References==
 

==External links==
*  

 

 
 
 