Lemon (film)
{{Infobox film
| name           = Lemon
| image          = Lemon poster.jpg
| image size     = 
| border         = 
| alt            = 
| caption        = 
| director       = Jiarui Zhang
| producer       = 
| writer         = 
| screenplay     = 
| story          = 
| based on       =  
| narrator       = 
| starring       = Hong So-hee Leon Jay Williams
| music          = 
| cinematography = 
| editing        = 
| studio         = 
| distributor    = 
| released       =   
| runtime        = 100 minutes
| country        = China
| language       = Mandarin
| budget         = 
| gross          = United States dollar|US$0.2 million 
}}
Lemon (Chinese: 柠檬) is a 2013 Chinese romantic comedy film directed by Jiarui Zhang. 

==Cast==
* Hong So-hee
* Leon Jay Williams

==References==
 

 
 
 


 
 