Gun Lords of Stirrup Basin
{{Infobox film
| name           = Gun Lords of Stirrup Basin
| image          = 
| border         = 
| alt            = 
| caption        = 
| film name      = 
| director       = Sam Newfield
| producer       = A. W. Hackell
| writer         =  
| screenplay     = Fred Myton George Plympton
| story          = Harry M. Olmsted
| based on       =  
| narrator       =  Bob Steele Louis Stanley Karl Hackett
| music          = 
| cinematography = Bert Longenecker
| editing        = S. Roy Luby
| studio         = 
| distributor    = 
| released       =   
| runtime        = 53 minutes
| country        = United States
| language       = English
| budget         = 
| gross          = 
}}
 short Western Western film Bob Steele, Louis Stanley, and Karl Hackett.
==Cast== Bob Steele as Dan Stockton
* Louis Stanley as Gail Dawson Stockton
* Karl Hackett as Gabe Bowdre Ernie Adams as Red
* Frank Ball as Hub Stockton

==See also==
* Bob Steele filmography

==External links==
*  
*  

 
 
 
 
 
 


 