Come On, Leathernecks!
{{Infobox film
| name           = Come On, Leathernecks!
| caption        = 
| image	         = 
| director       = James Cruze
| producer       = 
| writer         = 
| starring       = Richard Cromwell
| music          = 
| cinematography = 
| editing        = 
| studio         = Republic Pictures
| distributor    = 
| released       = 1938
| runtime        = 
| country        = United States
| language       = English
| budget         = 
}}
Come On, Leathernecks! is a 1938 American action film mixing football with the United States Marine Corps in the Philippines. 

Alan Ladd has a small role.

==References==
 

==External links==
*  at IMDB

 

 
 
 
 
 
 
 
 


 