Meet the Wildcat
{{Infobox film
| name           = Meet the Wildcat 
| image          = 
| image_size     = 
| caption        = 
| director       = Arthur Lubin
| producer       = 
| writer         = 
| narrator       = 
| starring       = Ralph Bellamy 
| music          = 
| cinematography = 
| editing        = 
| distributor    = Universal Pictures
| released       = 1940
| runtime        = 61 mins
| country        = United States
| language       = English
| budget         = 
| gross          = 
| preceded_by    = 
| followed_by    = 
}}
Meet the Wildcat is a 1940 film directed by Arthur Lubin. 

==References==
 

==External links==
*  at IMDB
 

 
 
 
 
 


 