The House of a Thousand Candles
{{Infobox film
| name           = The House of a Thousand Candles 
| image          = 
| image_size     = 
| caption        = 
| director       = Arthur Lubin
| producer       = 
| writer         = 
| based on = novel by Meredith Nicholson
| narrator       = 
| starring       = Phillips Holmes Mae Clarke Irving Pichel
| music          = 
| cinematography = 
| editing        = 
| distributor    = Republic Pictures Corporation
| released       = 1936
| runtime        = 
| country        = United States
| language       = English
| budget         = 
| gross          = 
| preceded_by    = 
| followed_by    = 
}}
The House of a Thousand Candles is a 1936 American film. 

==References==
 

==External links==
*  at IMDB
*  at Project Gutenberg
 

 
 
 
 
 


 