Who Killed Jenny Langby?
 
{{Infobox film
| name           = Who Killed Jenny Langbby?
| image          = 
| image size     =
| caption        = 
| director       = Donald Crombie
| producer       = 
| writer         = 
| based on = 
| narrator       =
| starring       = Peter Cummins
| music          = 
| cinematography = 
| editing        = 
| studio = South Australian Film Corporation
| distributor    = 
| released       = 
| runtime        = 1974
| country        = Australia English
| budget         = 
| gross = 
| preceded by    =
| followed by    =
}}
Who Killed Jenny Langby? is a 1974 Australian TV documentary.

==External links==
*  at IMDB
*  at Oz Movies
 

 
 
 
 
 
 
 


 
 