Five Guns to Tombstone
{{Infobox film
| name           = Five Guns to Tombstone
| image size     = 
| image	=	
| caption        = 
| director       = Edward L. Cahn
| producer       = Robert E. Kent Edward Small (executive)
| writer         = Richard Schayer Jack De Witt
| based on       = story by Arthur Orloff
| starring       = James Brown
| music          = 
| cinematography = 
| editing        = Bernard Small
| distributor    = United Artists
| studio         = Zenith Pictures
| released       = 1960
| runtime        = 71 mins
| country        = USA
| language       = English
| budget         = 
}}
Five Guns to Tombstone is a 1960 Western film. 

==References==
 

==External links==
*  at IMDB
 
 

 
 
 
 
 
 
 


 