Inside the Mafia
{{Infobox film
| name           = Inside the Mafia
| image size     = 
| image	=	
| caption        = 
| director       = Edward L. Cahn
| producer       = Edward Small (executive) Robert E. Kent
| writer         = Orville H. Hampton
| based on       =  Cameron Mitchell Robert Strauss
| music          = 
| cinematography = 
| editing        = Grant Whytock
| distributor    = United Artists
| studio         = Premium Pictures
| released       = 1959
| runtime        = 72 mins
| country        = USA
| language       = English
| budget         = 
}}
Inside the Mafia is a 1959 crime film based on a true incident.  Mafia, Vice Raid Routine New Efforts
Stinson, Charles. Los Angeles Times (1923-Current File)   11 Dec 1959: B14. 

==References==
 

==External links==
*  at IMDB
*  at TCMDB
 
 

 
 
 
 
 
 
 
 
 


 