Gunfighters of Abilene
{{Infobox film
| name           = Gunfighters of Abilene
| image size     = 
| image	=	
| caption        = 
| director       = Edward L. Cahn
| producer       = Edward Small (executive) Robert E. Kent
| writer         = Orville H. Hampton
| based on       = 
| starring       = Buster Crabbe Barton MacLane Judith Ames
| music          = 
| cinematography = 
| editing        = 
| distributor    = United Artists
| studio         = Zenith Pictures FILMLAND EVENTS: Augusta Merighi in Earth Is Mine
Los Angeles Times (1923-Current File)   17 Sep 1958: B8 
| released       = 1960
| runtime        = 66 mins
| country        = USA
| language       = English
| budget         = 
}}
Gunfighters of Abilene is a 1960 Western film.  

==Plot==
A cowboy avenges his brothers death.

==References==
 

==External links==
*  at IMDB
 
 

 
 
 
 
 
 


 