Boy Who Caught a Crook
 
{{Infobox film
| name           = The Boy Who Caught a Crook
| image size     =
| image	         =
| caption        =
| director       = Edward L. Cahn
| producer       = Edward Small (executive) Robert E. Kent
| writer         = Nathan Juran
| based on       =
| starring       = Wanda Hendrix Roger Mobley
| music          =
| cinematography =
| editing        =
| distributor    = United Artists
| studio         = Harvard Film Corporation
| released       =  
| runtime        =
| country        = United States
| language       = English
| budget         =
}}
The Boy Who Caught a Crook is a 1961 childrens film about a young boy who tracks down a gangster. CHILDREN GETTING MORE MOVIE ROLES: Despite Production Factors, Trend Is Being Reversed Reluctance Well Founded
By HURRAY SCHUMACH Special to The New York Times.. New York Times (1923-Current file)   13 Feb 1962: 40. 

==References==
 

==External links==
*  at IMDB
*  at TCMDB

 
 

 
 
 
 
 
 


 