Su íntimo secreto
 
{{Infobox film
| name           =Su íntimo secreto
| image          =
| image_size     =
| caption        =
| director       = Julio Irigoyen
| producer       = Buenos Aires Film
| writer         = 
| narrator       = 
| starring       = Mercedes Carné Felipe Dudán Elvita Solán
| music          =
| cinematography =
| editor       =
| distributor    = 
| released       = May 15, 1948
| runtime        = 65 min.
| country        = Argentina Spanish
| budget         =
}}
 1948 Argentine drama film, directed by Julio Irigoyen. It was premiered on May 15, 1948.

==Cast==
*  Mercedes Carné
*  Felipe Dudán
*  Elvita Solán
*  Alfredo Arrocha
*  Héctor Miranda
*  Perlita Nogueiro Alberto del Solar
*  Enrique Vimo
*  María Esther Cáceres
*  Carlos A. Gordillo
*  O.A. Binaghi
*  Carlos Coria

==External links==
*  

 
 
 
 
 
 
 


 