Cyclone on Horseback
{{Infobox film
| name           = Cyclone on Horseback
| image          =
| image_size     =
| caption        =
| director       = Edward Killy
| producer       = Bert Gilroy
| writer         =
| starring       = Tim Holt Marjorie Reynolds
| music          =
| cinematography = Harry J. Wild
| editing        = RKO Radio Pictures
| released       =  
| runtime        =
| country        = United States
| language       = English
| budget         =
| gross          =
}}
Cyclone on Horseback is a 1941 Western film.  Richard Jewell & Vernon Harbin, The RKO Story. New Rochelle, New York: Arlington House, 1982. p160. 

==Plot==
A young cattleman helps a contractor complete a telephone line through wild mountainous country.

==References==
 

==External list==
*  

 
 
 
 
 


 