The Summit (film)
 
{{Infobox film
| name           = The Summit
| image          = The Summit poster.jpg
| image_size     = 
| border         = 
| alt            = 
| caption        = Theatrical release poster
| film name      =  Nick Ryan (Ireland)
| producer       = 
| writer         = 
| screenplay     = 
| story          = 
| based on       =  
| narrator       = 
| starring       = 
| music          = 
| cinematography = Robbie Ryan
| editing        = 
| studio         = 
| distributor    = 
| released       =  
| runtime        = 
| country        = 
| language       = 
| budget         = 
| gross          = 
}}
 Nick Ryan. It combines documentary footage with dramatized recreations of the events of the 2008 K2 disaster. On the way to and from the summit, eleven climbers died during a short time span creating one of the worst catastophes in climbing history. Much of the documentary footage was captured by Swedish mountaineer Fredrik Sträng. Sträng was planning to do a Documentary which was aborted due to the fact that he did not reach the summit. The footage was still valuable to help solving what really did happen since all the climbers had different stories about what happened.

In Europe the movie was aired on 6 November 2013.

==External links==
*  
*  
*  

 
 
 
 
 
 
 
 
 
 
 
 
 
 
 
 


 