American Dreams in China
{{Infobox film
| name           = American Dreams in China
| image          = American Dreams in China poster.jpg
| image size     = 
| border         = 
| alt            = 
| caption        = 
| director       = Peter Chan
| producer       = Peter Chan
| writer         = 
| screenplay     = 
| story          = 
| based on       =  
| narrator       = 
| starring       = 
| music          = 
| cinematography = 
| editing        = 
| studio         = 
| distributor    = 
| released       =   
| runtime        = 112 minutes
| country        = China
| language       = Mandarin
| budget         = 
| gross          = USUnited States dollar|$87.6 million 
}}
American Dreams in China (Chinese: 中国合伙人) is a 2013 Chinese film directed by Peter Chan and starring Huang Xiaoming, Deng Chao, and Tong Dawei.  It was shown at the 2013 Toronto International Film Festival.   

==Cast==
* Huang Xiaoming
* Deng Chao
* Tong Dawei
* Du Juan

==References==
 

==External links==
* 

 
 
 
 
 
 
 
 
 
 
 
 
 
 


 