Forty Boys and a Song
{{Infobox film
| name           = Forty Boys and a Song
| image          = 
| caption        = 
| director       = Irving Allen
| producer       = Gordon Hollingshead
| writer         =  Robert Mitchell
| music          = 
| cinematography = Lester Shorr
| editing        = 
| distributor    = 
| released       =  
| runtime        = 10 minutes
| country        = United States
| language       = English
| budget         = 
}}
 short documentary Best Short Subject (One-Reel).   

==Cast== Robert Mitchell as Himself (as Bob Mitchell) Ken Carpenter as Narrator

==References==
 

==External links==
*  

 
 
 
 
 
 
 
 
 
 
 
 


 
 