Refugee (2006 film)
{{Infobox film
| name           = Refugee
| image          = Refugee.jpeg
| image_size     = 
| border         = 
| alt            = 
| caption        = Theatrical release poster
| film name      = 
| director       = Haranath Chakraborty
| producer       = Shree Venkatesh Films 
| writer         = 
| screenplay     = 
| story          = 
| based on       =  
| narrator       =  Rambha Rudranil Rajesh Sharma
| music          = Jeet Ganguly
| cinematography = 
| editing        = 
| studio         = 
| distributor    = 
| released       = 2006 
| runtime        = 
| country        = India Bengali
| budget         = 
| gross          = 
}}
 Bengali film Rambha in the lead roles. Music of the film has been composed by Jeet Ganguly.    The film was a remake of Telugu film Chatrapathi (2005 film)|Chatrapathi.

== Cast ==
* Prosenjit Chatterjee Rambha
* Rajesh Sharma
* Rudranil Ghosh
* Biplab Chatterjee
* Jagannath Guha
* Chandan Sen
* Ratna Ghoshal
* Kalyani Monda
* Nimu Bhowmik

== References ==
 

==External links==
 
 
 

 
 
 
 


 