Huling Patak ng Dugo
{{Infobox film
| name           = Huling Patak ng Dugo
| image          =
| director       = Nardo Vercudia
| producer       = 
| writer         = Cesar Ramirez Tolindoy Alicia Vergel
| music          = 
| cinematography = 
| screenplay     = 
| editing        = 
| distributor    = Sampaguita Pictures
| released       = 1950
| runtime        =
| country        = Philippines
| language       = Tagalog
| budget         =
| gross          =
}}
Huling Patak ng Dugo, (literally, Last Drop of Blood) is a 1950 Filipino film.

==Cast==
*Chichay
*Eddie Garcia
*Pancho Magalona Cesar Ramirez
*Tolindoy
*Alicia Vergel

==External Links==
 

 
 
 
 