I Can't Get Started (film)
{{Infobox film
| name           = I Cant Get Started
| image size     = 
| image	=	
| caption        = 
| director       = Rodney Fisher
| producer       = Richard Brennan
| writer         = Ray Harding
| based on       =  John Waters Wendy Hughes Heather Mitchell
| music          = 
| cinematography = 
| editing        = 
| distributor    = 
| studio         = PBL Productions
| released       = 1985
| runtime        = 
| country        = Australia
| language       = English
| budget         = $1.25 million 
}}
I Cant Get Started is a 1985 Australian film about a man who writes a successful novel. Ed. Scott Murray, Australia on the Small Screen 1970-1995, Oxford Uni Press, 1996 p84 

==References==
 

==External links==
*  at IMDB
*  at Peter Malone
 
 

 