Amar Ache Jol
{{Infobox film
| name           = Amar Ache Jol
| image          = Amar Ache Jol.jpg
| alt            = Theatrical Release Poster
| caption        = 
| director       = Humayun Ahmed
| producer       = Impress Telefilm Limited
| writer         = Humayun Ahmed Bidya Sinha Mim Meher Afroz Shaon
| music          = Habib Wahid
| cinematography = 
| Choreography = Shaon Rahim ( Adhari Raat Chhilo)
| editing        = 
| studio         =  Channel I
| released       =   
| runtime        = 1:59:09
| country        = Bangladesh Bengali
| budget         = 
| gross          =
}}
 Humayan Ahmed Bidya Sinha Mim.      

==Cast==
*Zahid Hasan
*Ferdous Ahmed Bidya Sinha Mim
*Meher Afroz Shaon
* Pijush Bandyopadhyay

==Music==

The music was composed by Habib Wahid and S I Tutul.

==Soundtrack==
{| border="3" cellpadding="4" cellspacing="0" style="margin: 1em 1em 1em 0; background: #f9f9f9; border: 1px #aaa solid; border-collapse: collapse; font-size: 95%;"
|- bgcolor="#CCCCCC"
! # 
! Tracks
! Singer
|- 1
|Amar Ache Jol || Shawon
|- 2
|Cholo Habib Wahid
|- 3
|Nodir S I Tutul
|- 4
|Cholo Brishtite Bhiji  || Sabina Yasmin
|- 5
| Dilshad Nahar Kona
|- 6
|Amra Jabo ||   Agun
|- 7
|Cholo Habib Wahid
|- 8
|Amar Shumona Bordhon
|- 9
|Gacher Daley||   Bari Siddiqui
|- 10
|Poth Dhorey Jachhey Manush|| Tanvir
|- 11
|Gacher Daley (Female)||  Shahnaz Beli
|- 12
|Central Mental  ||  Nachiketa Chakraborty
|-
|}

==References==
 

==External links==
* 

 
 
 
 
 
 


 
 