See Jack Run
{{Infobox film
| name           = See Jack Run
| image          = 
| image size     =
| caption        = 
| director       = Stephen Amis
| producer       = Roger Gough
| writer         = Stephen Amis Robert Gough
| based on = play Who Cares? by Gillian Wadds
| narrator       =
| starring       = Trent Mooney
| music          = 
| cinematography = 
| editing        = 
| studio = 
| distributor    = 
| released       = 1992
| runtime        = 
| country        = Australia English
| budget         = $97,000 
| gross = 
| preceded by    =
| followed by    =
}}
See Jack Run is a 1992 Australian film about urban teens. Ed. Scott Murray, Australia on the Small Screen 1970-1995, Oxford Uni Press, 1996 p139 

==References==
 

==External links==
*  at IMDB
*  at Peter Malone

 
 
 
 


 