The Steamboat Adventures of Riverboat Bill
{{Infobox film
| name           = The Steamboat Adventures of Riverboat Bill
| image          = 
| image size     =
| caption        = 
| director       = Paul Williams
| producer       = Paul Williams
| writer         = Cliff Green
| based on = novel by Cliff Green
| narrator       =
| starring       = Frank Thring Brian Hannan
| music          = 
| cinematography = 
| editing        = 
| studio = 
| distributor    = 
| released       = 1987
| runtime        = 75 mins
| country        = Australia English
| budget         = 
| gross = 
| preceded by    =
| followed by    =
}}
The Steamboat Adventures of Riverboat Bill is a 1987 animated Australian film set on the Murray River at the turn of the century. Ed. Scott Murray, Australia on the Small Screen 1970-1995, Oxford Uni Press, 1996 p147  It was based on a popular childrens novel by Cliff Green. 

==References==
 

==External links==
*  at IMDB

 
 
 
 
 


 