A Journey Through Filmland
{{Infobox film
| name           = A Journey Through Filmland
| image          = 
| image_size     = 
| caption        = 
| director       = Beaumont Smith
| producer       = Beaumont Smith
| writer         = 
| based on      = 
| narrator       = 
| starring       = 
| music          = 
| cinematography = 
| editing        = 
| studio         = 
| distributor    = 
| released       = February 1921 
| runtime        = 
| country        = Australia
| language       = silent
| budget         = 
}}
A Journey Through Filmland is a 1921 documentary about Hollywood made by Beaumont Smith during his visit there. It includes appearances from Charlie Chaplin, Douglas Fairbanks, Warren Kerrigan, Mildred Harris, Ben Turpin, Wallace Reid and Bill Hart.  

==References==
 

 

 
 


 
 