Soltane Ghalbha
{{Infobox film
| name           = Soltan-e Ghalbha
| image          = Soltane ghalbha.jpg
| image_size     = 
| border         = 
| alt            = 
| caption        = Theatrical poster
| film name      = 
| director       = Mohammad Ali Fardin
| producer       = Mehdi Misaghieh
| writer         = 
| screenplay     = 
| story          = 
| based on       =  
| narrator       =  Homayun Victoria
| music          = Rubik Mansouri
| cinematography = Ghodratollah Ehsani
| editing        = Ghodratollah Ehsani
| studio         = Misaghieh
| distributor    = 
| released       =  
| runtime        = 137 min
| country        = Iran
| language       = Persian
| budget         = 
| gross          = 
}} 1968 melodrama melodrama Iranian Iranian film directed by Mohammad Ali Fardin. Aref Arefkia and Ahdieh did the singing voices of the film and dubbed the lead performers. 

==Cast==
*Mohammad Ali Fardin
*Azar Shiva
*Leila Forouhar Homayun
*Victoria
*Habibollah Bolur
*Jamhsid Mehrdad
*Niktaj Sabri

==References==
 

==External links==
*  in Internet Movie Database

 
 
 
 
 


 