Phar Lap's Son
{{Infobox film
| name           = Phar Laps Son
| image          = 
| image_size     =
| caption        = 
| director       = Dr A.L. Lewis
| producer       = 
| writer         = 
| based on = 
| narrator       =
| starring       = 
| music          =
| cinematography = Lee Hill
| editing        = 
| studio   = South Seas Films
| distributor    = 
| released       = 1936
| runtime        = 
| country        = New Zealand
| language       = English
| budget         =
| preceded_by    =
| followed_by    =
}}
Phar Laps Son is a 1936 New Zealand film. Only part of it survives.  It was shot in and around Dunedin. 
 Down on the Farm. 

==References==
*New Zealand Film 1912-1996 by Helen Martin & Sam Edwards p47 (1997, Oxford University Press, Auckland) ISBN 019 558336 1  
 

 
 
 
 


 