Fallen Angels (2008 film)
{{Infobox film
| name           = Fallen Angels
| image          = 
| caption        = 
| director       = Morten Tyldum
| producer     = 
| writer       = 
| music          = 
| cinematography = 
| editing        = 
| studio = 
| distributor    =
| released       =  
| runtime        = 95 minutes
| country        = United States
| language       = English
| budget         = 
| gross          = 
}}
Fallen Angels is a 2008 film directed by Morten Tyldum. It was nominted for numerous Amanda Awards in 2008. 

==Cast==
* Trond Espen Seim as Varg Veum
* Per Kjerstad as Jacob
* Bjørn Floberg as Hamre
* Pia Tjelta as Rebecca
* Fridtjov Såheim as Simon

==References==
 

==External links==
*  

 

 
 
 
 

 