Life (1984 film)
 
{{Infobox film
| name           = Life
| image          = 
| caption        = 
| director       = Wu Tianming
| producer       = 
| writer         = Lu Yao
| starring       = Lijing Zhou
| music          = 
| cinematography = 
| editing        = 
| distributor    = 
| released       =  
| runtime        = 125 minutes
| country        = China
| language       = Chinese
| budget         = 
}}
 Best Foreign Language Film at the 57th Academy Awards, but was not accepted as a nominee. 

==Cast==
* Lijing Zhou as Gao Jia-lin
* Yufang Wu as Liu Qiao-zhen
* Baocheng Gao as Grandpa De-shun Bai Xue as Qiao Ling

==See also==
* List of submissions to the 57th Academy Awards for Best Foreign Language Film
* List of Chinese submissions for the Academy Award for Best Foreign Language Film

==References==
 

==External links==
*  

 
 
 
 
 
 
 
 