Three for the Road (2007 film)
{{Infobox film
| name           = Three for the Road
| image          = 
| caption        = 
| film name = {{Film name| kanji          = やじきた道中てれすこ
| romaji         = Yajikita Dōchū Teresuko}}
| director       = Hideyuki Hirayama
| producer       = 
| writer         = 
| starring       = Kanzaburo Nakamura Akira Emoto Kyoko Koizumi
| music          = 
| cinematography = 
| artdirector    = 
| editing        = 
| studio         = 
| distributor    = 
| released       =  
| runtime        = 108 minutes
| country        = Japan
| language       = Japanese
| budget         = 
| gross          = 
}} Japanese film directed by Hideyuki Hirayama.

==Cast==
* Kanzaburo Nakamura as Yajirobee
* Akira Emoto as Kitahachi
* Kyoko Koizumi as Okino
* LaSalle Ishii as Umehachi
* Naomi Fujiyama as Osen
* Koji Kikkawa as Seijuro
* Matsunosuke Shofukutei as Yohei
* Keiko Awaji as Osan

==References==
 

==External links==
*  

 

 
 
 
 


 