Maria's Stomach
 

{{Infobox film
| name           = Marias Stomach
| image          = 
| caption        = 
| film name = {{Film name| kanji          = マリアの胃袋
| romaji         = Maria no Ibukuro}}
| director       = Hideyuki Hirayama
| producer       = 
| writer         = 
| starring       = Haruko Sagara Akira Emoto Makoto Otake
| music          = 
| cinematography = 
| artdirector    = 
| editing        = 
| studio         = 
| distributor    = 
| released       =  
| runtime        = 104 minutes
| country        = Japan
| language       = Japanese
| budget         = 
| gross          = 
}} Japanese film directed by Hideyuki Hirayama.

==Cast==
* Haruko Sagara as Shoko
* Akira Emoto as Eshima
* Makoto Otake as Yasui
* Bunjaku Han as Maria

==References==
 

==External links==
*  

 

 
 
 
 


 