El mago de los sueños
{{Infobox film
| name           = El mago de los sueños
| image          = El Mago de los Suenos.jpg
| image_size     = 
| alt            = 
| caption        = 
| film name      = 
| director       = Francisco Macián
| producer       = Francisco Macián
| writer         = 
| screenplay     = 
| story          = 
| based on       =  
| narrator       = 
| starring       = 
| music          = José Solá (composer)|José Solá
| cinematography = 
| editing        = 
| studio         = Estudios Macián
| distributor    = 
| released       =     
| runtime        = 70 min.   
| country        = Spain
| language       = Spanish
| budget         = 
| gross          = 
}} Spanish Spanish animated film directed and produced by Francisco Macián.

==Story==
The film features the six children of the Telerin family, characters created by the brothers José Luis Moro and Santiago Moro. The Wizard gives each child a dream; the six dreams are presented in different graphical styles. 

==References==
 

==External links==
* 

 
 
 
 


 