My Beautiful Kingdom
{{Infobox film
| name           = My Beautiful Kingdom
| image          = My Beautiful Kingdom poster.jpg
| border         = 
| alt            = 
| caption        = 
| director       = Mak Wing-lun
| producer       = 
| writer         = 
| screenplay     = Xin Yuanzi
| story          = 
| based on       =  
| narrator       = 
| starring       = 
| music          = 
| cinematography = 
| editing        = 
| studio         = 
| distributor    = 
| released       =   
| runtime        = 87 minutes
| country        = China
| language       = Mandarin
| budget         = 
| gross          = 
}}
My Beautiful Kingdom (Chinese: 我的美丽王国) is a 2013 Chinese romance-comedy film directed by Mak Wing-lun and starring Jiro Wang, Chrissie Chau and Chen Han-dian. 

==Cast==
* Jiro Wang
* Chrissie Chau
* Chen Han-dian

==References==
 

 
 
 
 

 