Blind Intersections
 
{{Infobox film
| name           = Blind Intersections
| image          = 
| caption        = 
| director       = Lara Saba
| producer       = 
| writer         = Nibal Arakji
| starring       = Ghida Nouri
| music          = 
| cinematography = Michael Lagerwey
| editing        = 
| distributor    = 
| released       =  
| runtime        = 90 minutes
| country        = Lebanon
| language       = Arabic
| budget         = 
}}
 Best Foreign Language Film at the 86th Academy Awards,    but it was not nominated.

==Cast==
* Ghida Nouri as Nour  
* Alae Hamoud as Marwan  
* Charbel Ziade as Malek  

==See also==
* List of submissions to the 86th Academy Awards for Best Foreign Language Film
* List of Lebanese submissions for the Academy Award for Best Foreign Language Film

==References==
 

==External links==
*  

 
 
 
 
 
 
 