Zeit der Störche
{{Infobox film
| name           = Zeit der Störche
| image          = 
| image size     =
| caption        =
| director       = Siegfried Kühn
| producer       =
| writer         = 
| narrator       =
| starring       = Heidemarie Wenzel   Winfried Glatzeder
| music          = 
| cinematography = 
| editing        =
| distributor    = 
| released       = 1971
| runtime        =
| country        = East Germany
| language       = German
| budget         =
| gross          =
| preceded by    =
| followed by    =
}} East German film. With 5,814,977 admissions it was the 12th most successful film in East Germany. 

==References==
 

==External links==
*  

 
 
 


 