The Ingrate
{{Infobox film
| name           = The Ingrate
| image          = 
| caption        = 
| director       = D. W. Griffith
| producer       = 
| writer         = D. W. Griffith
| starring       = Arthur V. Johnson
| music          = 
| cinematography = G. W. Bitzer Arthur Marvin
| editing        = 
| distributor    = 
| released       =  
| runtime        = 15 minutes (one Reel#Motion picture terminology|reel)
| country        = United States
| language       = Silent
| budget         = 
}}
 silent short short drama film directed by D. W. Griffith.   

==Cast==
* Arthur V. Johnson as The Trapper
* Florence Lawrence as The Trappers Wife
* George Gebhardt as The Canuck
* Barry OMoore (as Herbert Yost)

==References==
 

==External links==
*  

 

 
 
 
 
 
 
 
 
 
 