A Slight Case of Larceny
{{Infobox film
| name           = A Slight Case of Larceny
| image_size     =
| image	         = 
| caption        =
| director       =Don Weis 
| producer       = 
| writer         = 
| based on = 
| starring       = Mickey Rooney Eddie Bracken
| music          =
| cinematography =
| editing        =
| distributor    = Metro-Goldwyn-Mayer
| released       = 1953
| runtime        = 
| country        = United States English
| budget         = $461,000  . 
| gross          = $591,000 
| preceded_by    =
| followed_by    =
}}
A Slight Case of Larceny is a 1953 film.

==Reception==
According to MGM records the movie earned $448,000 in the US and Canada and $143,000 elsewhere, making a loss to the studio of $104,000. 

==References==
 

==External links==
* 
*  at TCMDB

 
 
 
 
 
 


 