Shadow in the Sky
{{Infobox film
| name           = Shadow in the Sky
| image_size     =
| image	         = 
| caption        =
| director       = Fred M Wilcox
| producer       = 
| writer         = 
| based on =  Nancy Davis James Whitmore 
| music          =
| cinematography =
| editing        =
| distributor    = Metro-Goldwyn-Mayer
| released       = 1952
| runtime        = 
| country        = United States English
| budget         = $787,000  . 
| gross          = $320,000 
| preceded_by    =
| followed_by    =
}}
Shadow in the Sky is a 1952 film.

==Reception==
The film was a major financial disaster despite its low cost. According to MGM records the movie earned $244,000 in the US and Canada and $76,000 elsewhere, making a loss to the studio of $644,000. 

==References==
 

==External links==
*  at TCMDB
* 

 
 
 
 
 
 


 