Nick Carter, Master Detective (film)
 

{{Infobox film
| name           = Nick Carter, Master Detective
| image_size     =
| image	         = 
| caption        =
| director       = Jacques Tourneur
| producer       = 
| writer         = 
| based on = 
| starring       = Walter Pidgeon
| music          =
| cinematography = Charles Lawton Jr.
| editing        = Elmo Veron
| distributor    = Metro-Goldwyn-Mayer
| released       = 1939
| runtime        = 
| country        = United States English
| budget         = $379,000  . 
| gross          = $456,000 
| preceded_by    =
| followed_by    =
}} title role.

==Reception==
According to MGM records the movie earned $276,000 in the US and Canada and $180,000 elsewhere, making a loss to the studio of $93,000. 

==References==
 

==External links==
* 
*  at TCMDB

 

 
 
 
 
 
 
 


 