Life According to Sam
{{Infobox film
| name           = Life According to Sam
| image          = File:Life According to Sam.jpg
| alt            = 
| caption        = 
| film name      =  
| directors      = Sean Fine, Andrea Nix Fine
| producer       =  
| writer         =  
| screenplay     = 
| story          = 
| based on       =  
| starring       = Sam Berns
| narrator       =  
| music          = 
| cinematography = 
| editing        =  HBO
| distributor    =  
| released       = January 2013
| runtime        = 90 minutes
| country        = 
| language       = 
| budget         = 
| gross          =  
}}

Life According to Sam is a 2013 documentary film    based on the life of Sam Berns, who suffered from progeria. Berns died on 10 January 2014.
 Emmy Award for Exceptional Merit in Documentary Filmmaking. 

==References==
 

==External links==
* 
* 

 
 
 
 
 
 


 