The Son of Amir Is Dead
{{Infobox film
| name           = The Son of Amir Is Dead
| image          = 
| image size     = 
| alt            = 
| caption        = 
| director       = Jean-Jacques Andrien
| producer       = 
| writer         = 
| screenplay     = 
| story          =
| based on       = 
| narrator       = 
| starring       = 
| music          = 
| cinematography = 
| editing        = 
| studio         = 
| distributor    = 
| released       = 1975
| runtime        = 
| country        = Belgium
| language       = 
| budget         = 
| gross          = 
| preceded by    = 
| followed by    = 
}}
The Son of Amir Is Dead ( ) is a 1975 Belgian film directed by Jean-Jacques Andrien. It won the Golden Leopard at the 1975 Locarno International Film Festival.

==Reception==
The film won the Golden Leopard at the 1975 Locarno International Film Festival.  It received the André Cavens Award for Best Film given by the Belgian Film Critics Association (UCC). 

==References==
 

==External links==
* 

 
 
 

 
 
 
 
 