The Bold Men
{{Infobox film
| name           = The Bold Men
| image          =
| caption        =
| director       = William Friedkin
| producer       = David L. Wolper
| writer         =
| based on       =
| starring       =
| narrator       = Van Heflin
| music          =
| cinematography =
| editing        =
| distributor    = ABC
| released       =  
| runtime        = 52 mins
| country        = United States English
| budget         =
| gross          =
}}
The Bold Men was the first of three documentaries William Friedkin made for producer David Wolper. 

==References==
 
Friedkin, William, The Friedkin Connection, Harper Collins 2013

==External links==
*  at David L Wolper website
*  at IMDB

 
 
 
 
 
 

 