Criminal (2006 film)
 
{{Infobox film
| name           = Criminal 
| image          = criminal.jpeg
| image_size     = 
| border         = 
| alt            = 
| caption        = Theatrical release poster
| film name      = 
| director       = Shankar Ray
| producer       = Debendra Kuchar
| writer         = 
| screenplay     = 
| story          = 
| based on       =  
| narrator       = 
| starring       = Prosenjit Chatterjee Rachana Banerjee Swastika Mukherjee Ranjit Mallick Locket Chatterjee
| music          = Anupam Dutta
| cinematography = 
| editing        = 
| studio         = 
| distributor    = 
| released       = 
| runtime        = 
| country        = India Bengali
| budget         = 
| gross          = 
}}
 Bengali film Rajesh Sharma in the lead roles. Music of the film has been composed by Anupam Dutta.   

== Cast ==
* Prosenjit Chatterjee
* Rachana Banerjee
* Swastika Mukherjee
* Ranjit Mallick Rajesh Sharma
* Locket Chatterjee
* Gita Dey
* Bodhisattwa Majumdar
* Rwita Dutta Chakraborty
* Santana Bose

== References ==
 

==External links==
 
 
 
 
 


 