The Third Side of the River
 
{{Infobox film
| name           = The Third Side of the River
| image          = 
| caption        = 
| director       = Celina Murga
| producer       = 
| writer         = Celina Murga Gabriel Medina
| starring       = Alian Devetac
| music          = 
| cinematography = 
| editing        = 
| distributor    = 
| released       =  
| runtime        = 
| country        = Argentina
| language       = Spanish
| budget         = 
}}

The Third Side of the River ( ) is a 2014 Argentine drama film directed by Celina Murga, with Martin Scorsese as an executive producer. The film had its premiere in the competition section of the 64th Berlin International Film Festival.   

==Cast==
* Alian Devetac
* Daniel Veronese

==References==
 

==External links==
*  

 
 
 
 
 
 
 
 