Towheads (film)
{{Infobox film
| name           = Towheads
| image          = 
| image_size     = 
| border         = 
| alt            = 
| caption        = 
| film name      = 
| director       = Shannon Plumb
| producer       = Hunter Gray Alex Orlovsky
| writer         = Shannon Plumb
| screenplay     = 
| story          = 
| based on       =  
| narrator       = 
| starring       = Shannon Plumb Derek Cianfrance Lora Lee Gayer
| music          = Dave Wilder
| cinematography = Brett Jutkiewicz
| editing        = Joseph Krings
| studio         = 
| distributor    = 
| released       =   
| runtime        = 85 minutes
| country        = USA
| language       = English
| budget         = 
| gross          = 
}} 2013 drama film, directed by Shannon Plumb.

==Plot==
 

==Cast==
*Shannon Plumb ... Penelope
* Derek Cianfrance ... Matt
* Cody Cianfrance ... Cody
* Walker Cianfrance ... Walker
*Lora Lee Gayer ... Lily
* Yinka Adeboyeku ... Construction Worked #1
* Michael Massimino ... Construction worker #2

==Reception==
At Metacritic, the film had mixed or average reviews with 53 out of 100 based on 4 critics. 

Andrew Schenker from Slant Magazine gave the film a half star, noting the film was "so tone deaf, unfunny, and generally wrongheaded". 

==External links==
* 

==References==
 

 


 