SPEC: Close
{{Infobox film
| name           = SPEC: Close
| image          = 
| image size     = 
| border         = 
| alt            = 
| caption        = 
| director       = Yukihiko Tsutsumi
| producer       = 
| writer         = 
| screenplay     = 
| story          = 
| based on       =  
| narrator       = 
| starring       = 
| music          = 
| cinematography = 
| editing        = 
| studio         = 
| distributor    = 
| released       =   
| runtime        = 93 minutes
| country        = Japan
| language       = Japanese
| budget         = 
| gross          = Japanese yen|¥2.23 billion (United States dollar|US$22 million)
}}

  is a 2013 Japanese film directed by Yukihiko Tsutsumi. It was released on 1 November. 

==Reception==
Almost a month after being released, the film had grossed Japanese yen|¥2.23 billion (United States dollar|US$22 million). 

==References==
 

 

 
 


 