Angel Home
{{Infobox film
| name           = Angel Home
| image          = Angel Home Poster.jpg
| image size     = 
| border         = 
| alt            = 
| caption        = Original Japanese Poster.
| director       = Yukihiko Tsutsumi
| producer       = 
| writer         = 
| screenplay     = 
| story          = 
| based on       =  
| narrator       = 
| starring       = Shihori Kanjiya Naoto Takenaka Takayuki Takuma Tomoko Tabata
| music          = 
| cinematography = 
| editing        = 
| studio         = 
| distributor    = 
| released       =   
| runtime        = 123 minutes
| country        = Japan
| language       = Japanese
| budget         = 
| gross          = 
}}

  is a 2013 Japanese drama film directed by Yukihiko Tsutsumi. It was released in Japan on 25 May. 

==Cast==
*Shihori Kanjiya
*Naoto Takenaka
*Takayuki Takuma
*Tomoko Tabata

==Reception==

===Accolades===
{| class="wikitable sortable" width="90%"
|- style="background:#ccc; text-align:center;"
! colspan="5" style="background: LightSteelBlue;" | Awards
|- style="background:#ccc; text-align:center;"
! Award
! Date of ceremony
! Category
! Recipients and  nominees
! Result
|-
| rowspan="4"| 58th Blue Ribbon Awards  
| rowspan="4"| 11 February 2014
| Best Actress
| Shihori Kanjiya
|  
|-
| Best Picture
| 
|  
|}

==References==
 

==External links==
* 

 

 
 
 
 


 