Bal Ganesh 2
 
 
 
{{Infobox film
| name           = Bal Ganesh
| image          =
| caption        =
| director       = Pankaj Sharma
| producer       = Smita Maroo Pankaj Sharma
| writer         =
| starring       =
| music          = Shamir Tandon Sanjay Dhakan Rajendra Mehra Vibha Singh Shabbir Ahmed
| cinematography =
| editing        =
| studio         = Shemaroo Entertainment Astute Media Vision Buena Vista Pictures Distribution Pvt. Ltd
| released       =  
| runtime        =
| country        = India
| language       = Hindi
| budget         =
| gross          = Rs. 19.91 lakhs
}} Lord Ganesh, Hindu elephant-headed god, when he was a baby. This is the sequel of 2007 movie Bal Ganesh.

==External links==
* 


 
 
 
 
 
 
 
 


 
 