Hung Up (film)
{{Infobox film
| name           = Hung Up 
| image          = 
| caption        = 
| director       = Édouard Luntz
| producer       = Christian Ferry   André Hakim   Darryl F. Zanuck 
| writer         = Jean Duvignaud
| starring       = Patricia Gozzi   Calvin Lockhart 
| music          = Baden Powell
| cinematography = Jean Badal
| editing        = Colette Kouchner   Suzanne Sandberg 	
| studio         = Darryl F. Zanuck Productions   Les Films du Siècle   Les Productions Fox Europa
| distributor    = Twentieth Century Fox
| released       =  
| runtime        =
| country        = France United Kingdom United States
| language       = French English
| budget         = 
| gross          = 
}}
Hung Up ( ) is a 1973 French film directed by  , Jany Holt, and Calvin Lockhart.    

The film was Gozzis final film. 

==References==
 

== External links ==
*  

 
 
 
 
 
 


 