Zone Pro Site
{{Infobox film
| name           = Zone Pro Site
| image          = 
| image size     = 
| border         = 
| alt            = 
| caption        = 
| director       = Chen Yu-hsun
| producer       = 
| writer         = 
| screenplay     = Chen Yu-hsun
| story          = 
| based on       =  
| narrator       = 
| starring       = Tony Yang
| music          = Owen Wang
| cinematography = Chienn Hsiang
| editing        = Cheung Ka-wai
| studio         = 
| distributor    = 
| released       =   
| runtime        = 144 minutes
| country        = Taiwan
| language       = 
| budget         = 
| gross          = NT$305 million (Taiwan)
}}

Zone Pro Site (總舖師) is a 2013 Taiwanese comedy film directed by Chen Yu-hsun.

== Cast ==
* Tony Yang

== Reception ==
It was the 6th highest-grossing film of 2013 in Taiwan, with NT$305 million. 

Film Business Asias Derek Elley gave the film a rating of 8 out of 10. 

== References ==
 

== External links ==
*  

 
 
 


 
 