Soleils
{{Infobox film
| name           = Soleils
| image          = 
| alt            = 
| caption        = 
| director       = Olivier Delahaye Dani Kouyaté
| producer       = 
| screenplay     = 
| story          = Olivier Delahaye
| starring       = 
| music          = 
| cinematography = 
| editing        = 
| studio         = Odelion Films Centre National de la Cinématographie Sahélis Productions
| distributor    = 
| released       =  
| runtime        = 96 minutes
| country        = France, Burkina Faso
| language       = French
| budget         = 
| gross          = 
}}
Soleils is a 2013 France|French-Burkina Faso|Burkinabé road movie about the way in which the history of Africa has been written, especially in relationship to European colonialism.

==External links==
*  

 
 


 