She Always Gets Their Man
{{Infobox film
| name           = She Always Gets Their Man
| image          = 
| image_size     =
| director       = Godfrey Grayson
| producer       = Edward J. Danziger Harry Lee Danziger
| writer         = 
| narrator       =
| starring       = Terence Alexander
| music          = 
| cinematography = 
| editing        =
| studio         = Danziger Productions
| distributor    = 
| released       = 1962
| runtime        = 
| country        = United Kingdom
| language       = English
| budget         =
| gross          =
| preceded_by    =
| followed_by    =
| website        =
}}
She Always Gets Their Man is a 1962 British comedy film. 
==References==
 

==External links==
*  at IMDB

 