Aamar Tumi
{{Infobox film
| name           = Aamar Tumi
| image          = AamarTumi.jpeg
| image_size     = 
| border         = 
| alt            = 
| caption        = Aamar Tumi vcd cover
| film name      = 
| director       = Bimal Ray (Jr.)
| producer       = Dipti Pal
| writer         = 
| screenplay     = 
| story          = 
| based on       =  
| narrator       = 
| starring       = Prosenjit Chatterjee Farah Naaz Subhendu Chatterjee Robi Ghosh Biplab Chatterjee
| music          = Bappi Lahiri
| cinematography = 
| editing        = 
| studio         = 
| distributor    = Angel Video
| released       = 1989
| runtime        = 
| country        = India Bengali
| budget         = 
| gross          = 
}}
 Bengali film directed by Bimal Ray (Jr.) and produced by Dipti Pal. The film features actors Prosenjit Chatterjee and Farah Naaz in the lead roles. Music of the film has been composed by Bappi Lahiri.    
== Cast ==
* Prosenjit Chatterjee
* Farah Naaz
* Subhendu Chatterjee
* Robi Ghosh
* Shakuntala Barua
* Biplab Chatterjee
* Nayana Das
* Master Shibam
* Sanghamitra Bandyopadhyay
== References ==
 
==External Link==
* 
 
 
 
 
 