Eden (2006 film)
{{Infobox film
| name           = Eden
| image          = 
| image size     =
| caption        = Michael Hofmann
| producer       =
| writer         = 
| narrator       =
| starring       = Josef Ostendorf   Charlotte Roche   Devid Striesow
| music          = 
| cinematography = 
| editing        =
| distributor    = 
| released       =  
| runtime        = 98 minutes
| country        = Germany
| language       = German
| budget         =
| gross          =
| preceded by    =
| followed by    =
}} Michael Hofmann. 

==Cast==
* Josef Ostendorf - Gregor
* Charlotte Roche - Eden
* Devid Striesow - Xaver

==References==
 

==External links==
*  

 
 


 