Wow, The Kid Gang of Bandits
{{Infobox film
| name           = Dorami: Wow, the Kid Gang of Bandits
| image          = 
| alt            = 
| caption        = 
| director       = Keiichi Hara
| producer       = Shin-Ei Animation   Shogakukan Productions.co.,Ltd   TV Asahi 
| writer         = Fujimoto Hiroshi   Motoo Abiko
| starring       = Keiko Yokozawa   Ayado Kitagawa   Kineta Kimotsuki   Kazuya Tatekabe   Keiko Yamamoto   Michiko Nomura   Noriko Ohara   Shigo Hiranori   Yoshiko Ohta
| music          = Shunsuke Kikuchi
| cinematography = 
| editing        = 
| studio         = Shin-Ei Animation
| distributor    = Toho Company Ltd.
| released       =  
| runtime        = 40 minutes 
| country        = Japan
| language       = Japanese
| budget =
| gross =
}} Hiroshi Fujimoto and Motoo Abiko.

== Music ==
★ OPENING SONG:"Hello!Dorami-Chan by Yamano Satako

== See also ==
*Fujiko F Fujio
*List of Doraemon media

== External links ==
*   (Japanese)
* 

 
 

 
 
 
 
 
 
 

 