Live (2014 film)
{{Infobox film
| name           = Live
| image          = 
| image size     = 
| border         = 
| alt            = 
| caption        = 
| director       = Noboru Iguchi
| producer       = Hidehisa Chiwata Hiroyuki Miura Naohiko Ninomiya Mana Fukui (co-producer) Shinichirô Inoue (executive producer)    
| writer         = 
| screenplay     = Noboru Iguchi
| story          = 
| based on       =  
| narrator       = 
| starring       = Yuki Yamada Ito Ōno Yūki Morinaga Mari Iriki Suzuka Morita Airi Yamamoto Asami Sugiura
| music          = Yasuhiko Fukuda
| cinematography = Yasutaka Nagano 
| editing        = Tsuyoshi Wada
| studio         = 
| distributor    = 
| released       =   
| runtime        = 105 minutes
| country        = Japan
| language       = Japanese
| budget         = 
| gross          = 
}}
 horror mystery mystery suspense suspense film directed by Noboru Iguchi and starring Yuki Yamada which was released on 10 May, 2014.   

==Cast==
*Yuki Yamada
*Ito Ōno
*Yūki Morinaga
*Mari Iriki
*Suzuka Morita
*Airi Yamamoto
*Asami Sugiura
*Kokone Sasaki
*Ryūnosuke Kawai
*Mitsuki Koga

==References==
 

==External links==
*   
*  at IMDB

 
 
 

 
 
 
 
 
 
 
 