Eight Ranger 2
{{Infobox film
| name           = Eight Ranger 2
| image          = 
| image size     = 
| border         = 
| alt            = 
| caption        = 
| director       = Yukihiko Tsutsumi
| producer       = 
| writer         = 
| screenplay     = 
| story          = 
| based on       =  
| narrator       = 
| starring       = You Yokoyama Subaru Shibutani Shingo Murakami Ryuhei Maruyama Shota Yasuda Ryo Nishikido Tadayoshi Okura Atsuko Maeda
| music          = 
| cinematography = 
| editing        = 
| studio         = 
| distributor    = 
| released       =   
| runtime        = 
| country        = Japan
| language       = Japanese
| budget         = 
| gross          = 
}}

  is an upcoming 2014 Japanese action comedy film directed by Yukihiko Tsutsumi and the second film in the Kanjani Sentai Eightranger film series, following Eight Ranger (2012). It will be released on 26 July 2014.  

==Cast==
*You Yokoyama
*Subaru Shibutani
*Shingo Murakami
*Ryuhei Maruyama
*Shota Yasuda
*Ryo Nishikido
*Tadayoshi Okura
*Atsuko Maeda

==References==
 

==External links==
*   
* 

 
 

 
 
 
 
 
 
 
 
 


 
 
 