Video Fool for Love
{{Infobox film
| name           = Video Fool for Love
| image          =
| caption        =
| director       = Robert Gibson George Miller Doug Mitchell
| writer         =
| starring       = Robert Gibson
| music          =
| cinematography =
| editing        =
| studio         = Kennedy Miller Mitchell
| distributor    =
| released       =  
| runtime        =
| country        = Australia
| language       = English
| budget         = 
| gross          = 
}}
Video Fool for Love is a 1996 Australian documentary film by film editor Robert Gibson about his love life. 

==References==
 

==External links==
*  at New York Times
*  at IMDB

 
 
 
 

 