My Nights Are More Beautiful Than Your Days
{{Infobox film
| name           = My Nights Are More Beautiful Than Your Days
| image          = 
| alt            = 
| caption        = 
| director       = Andrzej Żuławski
| producer       = 
| writer         = 
| starring       = Sophie Marceau Jacques Dutronc
| music          = Andrzej Korzynski
| cinematography = Patrick Blossier
| editing        = 
| studio         = 
| distributor    = 
| released       =  
| runtime        = 86 minutes
| country        = France
| language       = French
| budget         = 
| gross          = 
}}
My Nights Are More Beautiful Than Your Days ( ) is a 1989 French drama film directed by Andrzej Żuławski.

==Cast==
*Sophie Marceau - Blanche 
*Jacques Dutronc - Lucas 
*Valérie Lagrange - Blanches mère
*Myriam Mézières - Edwige 
*Laure Killing - Ines 
*François Chaumette - Concierge 
*Sady Rebbot - François

==External links==
*  
 

 
 
 


 
 