The Savage Wild
{{Infobox film
| name           = The Savage Wild
| image          =
| image_size     =
| caption        =
| director       = Gordon Eastman
| producer       =
| writer         = 
| based on       =
| starring       = Gordon Eastman
| music          =
| cinematography =
| editing        =
| studio         =
| distributor    =American International Pictures (US)
| released       = 1970
| runtime        = 
| country        = USA
| language       = English
| budget         =
| gross          =
}}
The Savage Wild is a 1970 documentary film.
==External links==
*  at IMDB
*  at TCMDB

 
 
 
 
 