Fauji (1995 film)
 
{{Infobox film
| name           = Fauji
| image          = Faujidharma.jpg
| image_size     = 
| caption        = Promotional Poster
| director       = Lawrence DSouza
| producer       = Gagan Chadha
| writer         = 
|story=
| narrator       = 
| starring       = Dharmendra Raj Babbar Kiran Kumar
| music          = Vishal Bhardwaj
| cinematography = Lawrence DSouza
| editing        = 
| distributor    = 
| released       = 13 October 1995
| runtime        = 
| country        = India Hindi
| budget         = 
| gross          = 
| preceded_by    = 
| followed_by    = 
| website        = 
}}

Fauji is a 1995 Bollywood film directed by Lawrence DSouza, and starring Dharmendra, Raj Babbar and Kiran Kumar. 

==Cast==

* Dharmendra
* Raj Babbar
* Kiran Kumar
* Sonu Walia
* Raza Murad

==References==
 

==External links==
*  

 
 
 


 