To Love Somebody (film)
{{Infobox film
| name           = To Love Somebody
| image          = To Love Somebody poster.jpg
| image size     = 
| border         = 
| alt            = 
| caption        = 
| director       = Francis Sung
| producer       = 
| writer         = 
| screenplay     = 
| story          = 
| based on       =  
| narrator       = 
| starring       = Tong Yao Shen Lin Qiao Zhenyu Michael Tong
| music          = 
| cinematography = 
| editing        = 
| studio         = 
| distributor    = 
| released       =   
| runtime        = 103 minutes
| country        = China
| language       = Mandarin
| budget         = 
| gross          = US$0.58 million
}}

To Love Somebody (Chinese: 求爱嫁期) is a 2014 Chinese romance film directed by Francis Sung.  

==Cast==
*Tong Yao
*Shen Lin
*Qiao Zhenyu
*Michael Tong

==Reception==
The film has grossed US$0.58 million at the Chinese box office. 

==References==
 

 
 
 


 
 