The Amazing Dobermans
{{Infobox film
| name           = The Amazing Dobermans
| image          =
| image_size     =
| caption        =
| director       = Byron Ross Chudnow
| producer       = David Chudnow Richard Chapman
| story          = Michael Kraike William Goldstein
| starring       = Fred Astaire Barbara Eden James Franciscus Billy Barty
| music          = Alan Silvestri
| cinematography =
| editing        = James Potter
| studio         = Golden Films distributor = Dimension Pictures
| released       = November 24, 1976
| runtime        =
| country        = USA
| language       = English
| budget         =
| gross          =
}}
The Amazing Dobermans is a 1976 American film. It is a sequel to The Doberman Gang and The Daring Dobermans. 

==References==
 

==External links==
* 
*  at New York Times
* 

 
 
 
 
 
 
 


 
 