Dr. Minx
{{Infobox film
| name           = Dr Minx
| image          =
| image_size     =
| caption        =
| director       = Hikmet Avedis 
| producer       =
| writer         = 
| based on       = 
| starring       =Edy Williams 
| music          =
| cinematography =
| editing        =
| studio         =  distributor = Dimension Pictures
| released       = 1975
| runtime        =
| country        = USA
| language       = English
| budget         =
| gross          =
}}
Dr Minx is a 1975 sexploitation film. 

==Cast==
*Edy Williams as Dr Carol Evans
*Randy Boone as Brian Thomas
*Harvey Jason as David Brown
*Marlene Schmidt as Harriet Thomas
*Alvy Moore as Sheriff Frank William Smith as Guss Dolan Charles Knapp as Bill Brown
*Chuck Boyd as Fred Thomas
*Maggie Appel as Mabel Brown

==References==
 

==External links==
*  at YouTube
* 
*  at TCMDB

 
 
 
 
 


 