Night of Adventure
 
{{Infobox film
| name           = Night of Adventure
| image          = Night of Adventure poster.jpg
| image size     = 
| border         = 
| alt            = 
| caption        = 
| director       = Li Jixian 
| producer       = 
| writer         = 
| screenplay     = 
| story          = 
| based on       =  
| narrator       = 
| starring       = Yan Ni Geng Le Shao Bing Bao Beier
| music          = 
| cinematography = 
| editing        = 
| studio         = 
| distributor    = 
| released       =   
| runtime        = 99 minutes
| country        = China
| language       = Mandarin
| budget         = 
| gross          = US$4.24 million
}}

Night of Adventure (Chinese: 疯狂72小时) is a 2014 Chinese comedy film directed by Li Jixian. 

==Cast==
*Yan Ni
*Geng Le
*Shao Bing 
*Bao Beier 

==Reception==
The film has grossed US$4.24 million in China. 

==References==
 

 
 

 
 
 