Bahurani (1989 film)
{{Infobox film
| name           = Bahurani
| image          = 
| alt            = 
| caption        = 
| director       = Manik Chatterjee      
| producer       = Mohan Lalwani Prem Lawani
| writer         = Gyandev Agnihotri
| starring       = Rekha Rakesh Bedi Utpal Dutt Aruna Irani Deven Verma Rakesh Roshan      
| music          = Rahul Dev Burman
| cinematography = Shashi Kabre
| editing        = Sudhanshu Chakravorty
| studio         = 
| distributor    = 
| released       =  
| runtime        = 
| country        = India
| language       = Hindi
| budget         = 
| gross          = 
}}
Bahurani is a 1989 family|family-drama Indian Hindi film directed by Manik Chatterjee   and produced by Mohan Lalwani and Prem Lawani. It starred Rekha, Rakesh Bedi, Utpal Dutt, Aruna Irani, Deven Verma and Rakesh Roshan in lead roles.   Music for the film was scored by well known music director, R. D. Burman.  

== References ==
 

== External links ==
*  
*  

 
 
 


 