The Predictor Paul
{{Infobox film
| name           = The Predictor Paul
| image          = The Predictor Paul poster.jpg
| alt            = 
| caption        =  Shi Yang
| producer       = 
| writer         =  Zhang Wei Xu Jing
| music          = 
| cinematography = 
| editing        = 
| studio         = 
| distributor    = 
| released       =  
| runtime        = 87 minutes
| country        = China
| language       = Mandarin
| budget         = 
| gross          = 
}} Chinese animated comedy fantasy fantasy romance Shi Yang Zhang Wei Xu Jing.  

==Cast==
*Hao Xianghai Zhang Wei Xu Jing

==References==
 

 
 
 
 
 
 
 
 
 
 
 
 


 
 
 
 