Soreike! Anpanman: Ringo Bō Ya To Min'Nano Negai
{{Infobox film
| name           = Soreike! Anpanman: Ringo Bō Ya To MinNano Negai
| image          = 
| image size     = 
| border         = 
| alt            = 
| caption        = 
| director       = Jun Kawagoe
| producer       = 
| writer         = 
| screenplay     = 
| story          = 
| based on       =  
| narrator       = 
| starring       = Keiko Toda Ryūsei Nakao Mao Inoue Keisuke Okada
| music          = 
| cinematography = 
| editing        = 
| studio         = 
| distributor    = 
| released       =   
| runtime        = 45 minutes
| country        = Japan
| language       = Japanese
| budget         = 
| gross          = ¥71.5 million (Japan)
}}
 fantasy adventure film part of the Anpanman film series and directed by Jun Kawagoe. It was released on 5 July 2014. 

==Cast==
*Keiko Toda
*Ryūsei Nakao
*Mao Inoue
*Keisuke Okada

==Reception==
The film has grossed ¥71.5 million in Japan. 

==References==
 

 
 
 
 
 
 
 
 
 
 
 
 


 
 
 