A Girl with Ideas
{{Infobox film
| name           = A Girl With Ideas
| image          = 
| alt            = 
| caption        = 
| director       = S. Sylvan Simon
| producer       = 
| writer         = 
| starring       = Wendy Barrie, Walter Pidgeon, and Kent Taylor
| music          = 
| cinematography = 
| editing        = 
| studio         = Universal Pictures 
| distributor    = 
| released       =  
| runtime        = 70 minutes
| country        = United States
| language       = English
| budget         = 
| gross          = 
}}
A Girl With Ideas is a 1937 American comedy-drama film, directed by S. Sylvan Simon for Universal Pictures. It stars Wendy Barrie, Walter Pidgeon, and Kent Taylor. 

==References==
 

==External links==
*  at the Internet Movie Database

 

 
 
 
 
 
 
 


 