Dulcy (1940 film)
{{Infobox film
| name           = Dulcy 
| image          = Dulcy 1940.jpg
| alt            = 
| caption        = 
| film name      = 
| director       = S. Sylvan Simon
| producer       = 
| writer         = 
| screenplay     = 
| story          = 
| based on       =   Ian Hunter, and Roland Young 
| narrator       = 
| music          = 
| cinematography = 
| editing        = 
| studio         =  Metro-Goldwyn-Mayer 
| distributor    = 
| released       =1940  
| runtime        = 73 minutes
| country        = USA
| language       = English
| budget         = 
| gross          = 
}} Ian Hunter, and Roland Young . 

==References==
 

==External links==
*  at the Internet Movie Database

 
 
 
 
 
 
 
 