Washington Melodrama
{{Infobox film
| name           = Washington Melodrama
| image          = Washington Melodrama.jpg
| alt            = 
| caption        = 
| film name      = 
| director       = S. Sylvan Simon
| producer       = 
| writer         = 
| screenplay     = 
| story          = 
| based on       =  
| starring       =   Frank Morgan, Ann Rutherford, and Kent Taylor 
| narrator       = 
| music          = 
| cinematography = 
| editing        = 
| studio         =  Metro-Goldwyn-Mayer 
| distributor    = 
| released       =  
| runtime        = 80 minutes
| country        = USA
| language       = English
| budget         = 
| gross          = 
}}
Washington Melodrama is a 1941 American drama film, directed by S. Sylvan Simon for  Metro-Goldwyn-Mayer. It stars   Frank Morgan, Ann Rutherford, and Kent Taylor . 

==References==
 

==External links==
*  at the Internet Movie Database

 
 
 
 
 
 
 
 