Seer the Movie 3: Heroes Alliance
{{Infobox film
| name           = Seer the Movie 3: Heroes Alliance
| image          = 
| image size     = 
| border         = 
| alt            = 
| caption        = 
| director       = Wang Zhangjun Yin Yuqi
| producer       = 
| writer         = 
| screenplay     = 
| story          = 
| based on       =  
| narrator       = 
| starring       = Yang Ou Zhang Anqi Fan Junhang Su Xin Jia Zhichao Liu Qin Xia Lei Yang Menglu Meng Xianglong You Jun
| music          = 
| cinematography = 
| editing        = 
| studio         = 
| distributor    = 
| released       =   
| runtime        = 103 minutes
| country        = China
| language       = Mandarin
| budget         = 
| gross          = Chinese yuan|¥76.3 million
}}
 Chinese animated childrens film|childrens adventure film directed by Wang Zhangjun and Yin Yuqi and based on an online game. It was released on 12 July 2013. 

==Cast==
*Yang Ou
*Zhang Anqi
*Fan Junhang
*Su Xin
*Jia Zhichao
*Liu Qin
*Xia Lei
*Yang Menglu
*Meng Xianglong
*You Jun

==Reception==
The film grossed Chinese yuan|¥76.3 million in China. 

==References==
 

 

 
 
 
 
 
 
 
 

 
 
 