The World of Goopi and Bagha
{{Infobox film
| name           = The World of Goopi and Bagha
| image          = 
| alt            = 
| caption        = 
| director       = 
| producer       = 
| writer         = 
| starring       = 
| music          = 
| cinematography = 
| editing        = 
| studio         = 
| distributor    = 
| released       =  
| runtime        = 
| country        = India
| language       = 
| budget         = 
| gross          = 
}}
 Indian animated film.

==Reception==
===Accolades===
{| class="wikitable sortable" width="90%"
|- style="background:#ccc; text-align:center;"
! Award
! Date
! Category
! Recipients and  nominees
! Result
|-
| Asia Pacific Screen Awards
| 2013  Best Animated Feature Film
| The World of Goopi and Bagha
|  
|}

==References==
 

==External links==
* 

 
 
 
 
 

 
 