The Burned Barns
{{Infobox film
| name           = The Burned Barns
| image          = 
| alt            = 
| caption        = 
| director       = Jean Chapot
| producer       = 
| writer         = 
| starring       = Simone Signoret Alain Delon
| music          = Jean Michel Jarre
| cinematography = 
| editing        = 
| studio         = 
| distributor    = 
| released       =  
| runtime        = 95 minutes
| country        = France
| language       = French
| budget         = 
| gross          = 991,624 admissions (France) 
}} soundtrack for the film was the first film score by Jean Michel Jarre.

==Cast==
* Simone Signoret - Rose Cateux
* Alain Delon - Pierre Larcher
* Paul Crauchet - Pierre Cateux
* Bernard Le Coq - Paul Cateux Pierre Rousseau - Louis Cateux
* Catherine Allégret - Françoise Cateux
* Miou-Miou - Monique Cateux
* Béatrice Costantini - Lucile Cateux
* Jean Bouise - Reporter
* Renato Salvatori - hôtelier
==References==
 
==External links==
*  

 
 
 


 
 