Pudhu Yugam
{{Infobox film
| name           = Pudhu Yugam
| image          =
| image_size     =
| caption        =
| director       = S A Chandrasekhar
| producer       = Shoba Chandrasekhar
| writer         = S A Chandrasekhar
| screenplay     = S A Chandrasekhar Suresh
| music          = Gangai Amaran
| cinematography =
| editing        =
| studio         =
| distributor    =
| released       =  
| country        = India Tamil
}}
 1985 Cinema Indian Tamil Tamil film, Suresh in lead roles. The film had musical score by Gangai Amaran.   

==Cast==
*Vijayakanth
*K. R. Vijaya
*Sivakumar Suresh
*Pandari Bai

==References==
 

==External links==
*  

 
 
 
 


 