Flood Tide (film)
{{Infobox film
| name           = Flood Tide
| image          = 
| alt            = 
| caption        = 
| director       = Abner Biberman
| producer       = 
| screenplay     = 
| narrator       = 
| starring       = George Nader Cornell Borchers Michel Ray
| music          = William Lava Henry Mancini
| cinematography = Arthur E. Arling
| editing        = Ted J. Kent
| studio         = 
| distributor    = Universal Pictures|Universal-International Pictures
| released       = February 1958
| runtime        = 82 minutes
| country        = United States
| language       = English
| budget         = 
| gross = 
}}
Flood Tide is an American film.

==External links==
* 

 
 
 
 
 
 
 
 

 