Mercy on a Crutch
{{Infobox film
| name           = Mercy on a Crutch
| image          = 
| alt            = 
| caption        = 
| film name      =  Jack Harvey
| producer       = 
| writer         = 
| screenplay     = 
| story          = 
| based on       =  
| starring       = Helen Fulton, John Lehnberg, and Carey L. Hastings
| narrator       = 
| music          = 
| cinematography = 
| editing        = 
| studio         = Thanhouser Company
| distributor    = 
| released       =July 13, 1915  
| runtime        = 
| country        = USA
| language       = Silent
| budget         = 
| gross          = 
}} Jack Harvey for the Thanhouser Company. It stars Helen Fulton, John Lehnberg, and Carey L. Hastings.   

==References==
 

==External links==
*  at the Internet Movie Database

 

 
 
 
 
 
 
 
 


 