Never Die Young (film)
 
{{Infobox film
| name           = Never Die Young
| image          = Never Die Young.jpg
| caption        = Film poster
| director       = Pol Cruchten
| producer       = Pol Cruchten
| writer         = 
| starring       = 
| music          = 
| cinematography = 
| editing        = 
| distributor    = 
| released       =  
| runtime        = 66 minutes
| country        = Luxembourg
| language       = French
| budget         = 
}}
 Best Foreign Language Film at the 87th Academy Awards, but was not nominated.   

==See also==
* List of submissions to the 87th Academy Awards for Best Foreign Language Film
* List of Luxembourgish submissions for the Academy Award for Best Foreign Language Film

==References==
 

==External links==
*  

 
 
 
 
 
 
 


 
 