Venice (film)
 
{{Infobox film
| name           = Venice
| image          = 
| caption        = 
| director       = Kiki Álvarez
| producer       = 
| writer         = Claudia Muñiz
| starring       = Claudia Muñiz
| music          = 
| cinematography = 
| editing        = 
| distributor    = 
| released       =  
| runtime        = 74 minutes
| country        = Cuba
| language       = Spanish
| budget         = 
}}

Venice ( ) is a 2014 Cuban drama film directed by Kiki Álvarez. It was selected to be screened in the Contemporary World Cinema section at the 2014 Toronto International Film Festival.   

==Cast==
* Claudia Muñiz as Violeta
* Jazz Vilá as Ada-Adalberto

==References==
 

==External links==
*  

 
 
 
 
 
 
 
 