Strangers All
{{Infobox film
| name           = Strangers All
| image          = 
| alt            =
| caption        = 
| film name      = 
| director       = Charles Vidor
| producer       = Cliff Reid
| writer         = Milton Krims
| screenplay     = 
| story          = 
| based on       =  
| starring       = May Robson Preston Foster
| narrator       = 
| music          = Roy Webb
| cinematography = John W. Boyle
| editing        = Jack Hively RKO Radio Pictures
| distributor    = 
| released       =   }}
| runtime        = 70 minutes
| country        = United States
| language       = English
| budget         = 
| gross          =  
}}

Strangers All is a 1935 American drama film directed by Charles Vidor from a screenplay by Milton Krims.  The film stars May Robson and Preston Foster, and was released by RKO Radio Pictures on April 26, 1935.

==References==
 