Village Tale
 

{{Infobox film
| name           = Village Tale
| image          = 
| alt            =
| caption        = 
| film name      =  John Cromwell Kenny Holmes (assistant)
| producer       = David Hempstead Allan Scott
| screenplay     = 
| story          = 
| based on       =  
| starring       = Randolph Scott Kay Johnson Arthur Hohl Robert Barrat
| narrator       = 
| music          = Alberto Colombo
| cinematography = Nick Musuraca William Morgan RKO Radio Pictures
| distributor    = 
| released       =   }}
| runtime        = 80 minutes
| country        = United States
| language       = English
| budget         = 
| gross          =  
}}
 John Cromwell Allan Scott Allan Scotts RKO Radio Pictures, they released it on May 10, 1933.

==References==
 

 
 
 
 


 