Double Danger (1938 film)
{{Infobox film
| name           = Double Danger 
| image          = 
| alt            =
| caption        = 
| film name      = 
| director       = Lew Landers
| producer       = Maury Cohen
| writer         = 
| screenplay     = Arthur T. Horman J. Robert Bren
| story          = Arthur T. Horman
| based on       =  
| starring       = Preston Foster Whitney Bourne
| narrator       = 
| music          = 
| cinematography = Frank Redman
| editing        = Desmond Marquette RKO Radio Pictures
| distributor    = 
| released       =   }}
| runtime        = 62 minutes
| country        = United States
| language       = English
| budget         = 
| gross          =  
}}

Double Danger is a 1938 American crime drama directed by Lew Landers, using a screenplay by Arthur T. Horman and J. Robert Bren based Hormans story. The film stars Preston Foster and Whitney Bourne, with supporting roles by Donald Meek and Samuel S. Hinds.  Produced by RKO Radio Pictures, it was released on January 28, 1938.

==References==
 

==External links==
* 

 

 
 
 
 
 
 
 
 


 