Live Bait (film)
{{Infobox film
| name           = Live Bait
| image          = 
| caption        = 
| director       = Bruce Sweeney
| producer       = 
| writer         = Bruce Sweeney Kevin McNulty Babz Chula David Lovgren
| music          = 
| cinematography = 
| editing        = 
| distributor    = 
| released       = 1995
| runtime        = 84 minutes
| country        = Canada
| language       = English
| budget         = 
}} Canadian comedy-drama film, released in 1995. The directorial debut of Bruce Sweeney, the film won the award for Best Canadian Feature Film at the 1995 Toronto International Film Festival. 
 Kevin McNulty) is simultaneously faltering.

The film was written as Sweeneys graduate thesis for his MFA in Film Studies at the  , November 14, 1996. 

==References==
 

==External links==
*  

 
 
 
 
 
 
 

 
 