Invasion (2014 film)
 
{{Infobox film
| name           = Invasion
| image          = 
| caption        = 
| director       = Abner Benaim
| producer       = 
| writer         = Abner Benaim
| starring       = 
| music          = 
| cinematography = 
| editing        = 
| distributor    = 
| released       =  
| runtime        = 94 minutes
| country        = Panama
| language       = Spanish
| budget         = 
}}
 Panamanian documentary 1989 US Best Foreign Language Film at the 87th Academy Awards, but was not nominated.    It was the first time that Panama submitted a film for the Best Foreign Language Oscar.   

==See also==
* List of submissions to the 87th Academy Awards for Best Foreign Language Film
* List of Central American submissions for the Academy Award for Best Foreign Language Film

==References==
 

==External links==
*  

 
 
 
 
 
 
 
 
 
 
 
 
 