Footlight Varieties
{{Infobox film
| name           = Footlight Varieties
| image          = 
| alt            =
| caption        = 
| film name      = 
| director       = Hal Yates Doran Cox (assistant)
| producer       = George Bilson
| writer         =  Felix Adler
| story          = 
| based on       =  
| starring       = Jack Paar Leon Errol
| narrator       = 
| music          = Constantin Bakaleinikoff
| cinematography = J. Roy Hunt Frank Redman Jack MacKenzie G. W. Bitzer Arthur Marvin
| editing        = Edward W. Williams Jay Whittredge RKO Radio Pictures
| distributor    = 
| released       =   }}
| runtime        = 61 minutes
| country        = United States
| language       = English
| budget         = 
| gross          =  
}}
 Felix Adler. In addition to Paar, the film stars Leon Errol, and includes performances by The Sportsmen, Liberace, Jerry Murads Harmonicats, and Red Buttons.

==References==
 

 

 
 