Sandhyaragam (1991 film)
{{Infobox film
| name           =Sandhyaragam
| image          = 
| image size     =
| caption        =
| director       =
| producer       =
| writer         = 
| narrator       =
| starring       =
| music          = 
| cinematography = 
| editing        =
| distributor    = 
| released       = 1991
| runtime        =
| country        = India Malayalam
| budget         =
| gross          =
| preceded by    =
| followed by    =
}}
Sandhyaragam is a Malayalam language film. It was released in 1991.    

==References==
 

 
 
 

 