You Are My Sassy Girl
{{Infobox film
| name           = You Are My Sassy Girl
| image          = You Are My Sassy Girl poster.jpg
| alt            = 
| caption        = 
| director       = Zheng Li
| producer       = 
| writer         = 
| starring       = 
| music          = 
| cinematography = 
| editing        = 
| studio         = Beijing Jinxin Dingli Media Co.,Ltd Beijing Shengda Media Co.,Ltd Beijing Chengrun Entertainment Co.,Ltd
| distributor    = 
| released       =   
| runtime        = 94 minutes
| country        = China
| language       = Mandarin
| budget         = 
| gross          = chinese yuan|¥0.71 million (China)
}}

You Are My Sassy Girl ( ) is a 2014 Chinese romantic comedy film directed by Zheng Li. It was released on September 12, 2014.   

==Cast==
*Shi Tianshuo
*Mo Xi-er
*Kenneth Tsang
*Lam Wai
*Yi Liqi
*Jin Yi
*Tu Yanni
*Wang Wenqi

==Reception==
It has earned chinese yuan|¥0.71 million at the Chinese box office. 

==References==
 

 
 
 
 

 
 