Kuei-Mei, a Woman
 
{{Infobox film
| name           = Kuei-Mei, a Woman
| image          = 
| caption        = 
| director       = Chang Yi
| producer       = 
| writer         = Chang Yi
| starring       = Hui San Yang
| music          = 
| cinematography = 
| editing        = 
| distributor    = 
| released       =  
| runtime        = 152 minutes
| country        = Taiwan
| language       = Mandarin
| budget         = 
}}
 Best Foreign Language Film at the 58th Academy Awards, but was not accepted as a nominee.  It won the Golden Horse Award for Best Feature Film in 1985.   

==Cast==
* Hui San Yang as Kuei-Mei
* Lichun Lee as Kuei-Meis husband

==See also==
* List of submissions to the 55th Academy Awards for Best Foreign Language Film
* List of Taiwanese submissions for the Academy Award for Best Foreign Language Film

==References==
 

==External links==
*  

 

 
 
 
 
 
 
 