There is a Secret in my Soup
 
 
{{Infobox film
| name           = There is a Secret in my Soup
| image          = 
| image size     = 
| border         = 
| alt            = 
| caption        = 
| film name      = 人头豆腐汤 Ren tou dou fu shang
| director       = Yeung Chi Kin
| producer       = 
| writer         = 
| screenplay     = 
| story          = 
| based on       =  
| narrator       = 
| starring       = 
| music          = 
| cinematography = 
| editing        = 
| studio         = 
| distributor    = 
| released       =   
| runtime        = 85 minutes
| country        = Hong Kong
| language       = Cantonese
| budget         = 
| gross          = 
}}

There is a Secret in my Soup ( ) is a 2001 Hong Kong horror film directed by Yeung Chi Kin and based on the Hello Kitty murder.    

==Cast==
*Cherry Chan as Maggie
*Chan Chung Wai
*Christy Cheung
*Co Co Chow
*Gabriel Harrison as Joe
*Benz Hui
*Hugo Ng as Rocky
*Angela Tong as Pat Michael Wong
*Timothy Zao

==Reception==
On BeyondHollywood.com, James Mudge said the film "is truly the dreg of the Category III genre. It’s a poorly made and boring mess that aims for both titillation and horror, but fails badly on both counts." 

==References==
 

==External links==
*  
*  

 
 
 
 
 


 
 