Mountain Cry
{{Infobox film
| name           = Mountain Cry
| image          = 
| image size     = 
| border         = 
| alt            = 
| caption        = 
| director       = Larry Yang
| producer       = 
| writer         = 
| screenplay     = 
| story          = 
| based on       =  
| narrator       = 
| starring       = Nick Wang Lang Yueting
| music          = 
| cinematography = 
| editing        = 
| studio         = Village Roadshow Pictures Asia Ltd Beijing Hairun Pictures Co Ltd
| distributor    = 
| released       =   
| runtime        = 
| country        = China
| language       = Mandarin
| budget         = 
| gross          = 
}}

Mountain Cry (喊山) is an upcoming Chinese drama film directed by Larry Yang. It is scheduled for release in the summer of 2015.   

==Cast==
*Nick Wang 
*Lang Yueting 

==Production==
Production started in early October 2014 and principal photography will take place in Shanxi. 

==References==
 

 
 
 
 
 
 

 
 