Dav Pech

{{Infobox film
| name           =Daav Pech
| image          = 
| image_size     = 
| caption        = 
| director       =Kawal Sharma	 
| producer       =
| writer         =
| narrator       = 
| starring       =Jeetendra Bhanupriya
| music          = Anu Malik
| cinematography = 
| editing        = 
| distributor    = 
| released       = 1989
| runtime        = 
| country        = India Hindi
| budget         = 
| gross          = 
| preceded_by    = 
| followed_by    = 
| website        = 
}}

Daav Pech  is a 1989 Bollywood film directed by Kawal Sharma and starring Jeetendra,  Bhanupriya and Prem Chopra.

==Soundtrack==
{| border="10" cellpadding="10" cellspacing="0" style="margin: 1em 1em 1em 0; background: #f9f9f9; border: 1px #aaa solid; border-collapse: collapse; font-size: 95%;"
|- bgcolor="#CCCCCC" align="center"
! # !! Title !! Singer(s)
|-
| 1
| "Danke ki chot pe kehne aaya"
| Kishore Kumar
|}

==References==
 

==External links==
 

 
 
 
 


 