Na-Insaafi
 
{{Infobox film
| name           = Na-Insaafi
| image          = 
| image_size     = 
| caption        = 
| director       = Mehul Kumar	 
| producer       = Arjun Moolchadani
| writer         = Mehul Kumar
| narrator       = 
| starring       =Shatrughan Sinha Sonam
| music          = Bappi Lahiri
| cinematography = 
| editing        = 
| distributor    = 
| released       = 30 Jun 1989
| runtime        = 
| country        = India Hindi
| budget         = 
| gross          = 
| preceded_by    = 
| followed_by    = 
| website        = 
}}

 Na-Insaafi  is a 1989 Bollywood film directed by Mehul Kumar and starring Shatrughan Sinha, Mandakini, Chunky Pandey and Sonam.

==External links==
* 

==References==
 

 

 
 
 

 