Ponnethooval
{{Infobox film
| name           = Ponnethooval
| image          =
| caption        =
| director       = J. Williams (cinematographer)|J. Williams
| producer       =
| writer         =
| screenplay     =
| starring       =
| music          = Raghu Kumar
| cinematography =
| editing        =
| studio         =
| distributor    =
| released       =  
| country        = India Malayalam
}}
 1983 Cinema Indian Malayalam Malayalam film, directed by J. Williams (cinematographer)|J. Williams.  The film had musical score by Raghu Kumar.   

==Cast==

 

==Soundtrack==
The music was composed by Raghu Kumar and lyrics was written by Poovachal Khader.

{| border="2" cellpadding="4" cellspacing="0" style="margin: 1em 1em 1em 0; background: #f9f9f9; border: 1px #aaa solid; border-collapse: collapse; font-size: 95%;"
|- bgcolor="#CCCCCF" align="center"
| No. || Song || Singers ||Lyrics || Length (m:ss)
|-
| 1 || Abhilaasha haaram || K. J. Yesudas || Poovachal Khader || 
|-
| 2 || Darling || Anitha || Poovachal Khader || 
|-
| 3 || Kanna guruvayoorappa || S Janaki || Poovachal Khader || 
|-
| 4 || Priyathe mizhineerilen || K. J. Yesudas || Poovachal Khader || 
|}

==References==
 

==External links==
*  

 
 
 


 