Ponnaniyathi
{{Infobox film
| name           = Ponnaniyathi
| image          =
| caption        =
| director       = R Krishnamoorthy
| producer       = R Krishnamoorthy
| writer         =
| screenplay     =
| starring       =
| music          =
| cinematography =
| editing        =
| studio         =
| distributor    =
| released       =  
| country        = India Malayalam
}}
 1988 Cinema Indian Malayalam Malayalam film, directed by R Krishnamoorthy and produced by R Krishnamoorthy.    

==Cast==
 

==References==
 

==External links==
*  

 
 
 

 