Bhaagyavaan
{{Infobox film
| name           =Bhagyavan
| image          =
| caption        =
| director       =Suresh Unnithan
| producer       = 
| writer         = 
| screenplay     = Sithara
| music          = 
| cinematography = 
| editing        = 
| studio         = 
| distributor    = 
| released       = 1994
| country        = India Malayalam
}}
 1994 Cinema Indian Malayalam Malayalam film, Sithara in lead roles.    

==Cast==
* Sithara
* Sreenivasan
* Jagathy Sreekumar
* Premkumar	
* Sainudeen	
* Suchithra Murali
* Adoor Bhavani	
* Beena Antony	
* Narendra Prasad	
* Philomina
* Sudhakaran	
* Vijayaraghavan

==References==
 

==External links==
*  

 
 
 

 