Kulapathy
{{Infobox film
| name           =Kulapathy
| image          =
| caption        =
| director       =	Nahas
| producer       = 
| writer         = 
| screenplay     = Urvashi
| music          = 
| cinematography = 
| editing        = 
| studio         = 
| distributor    = 
| released       = 1993
| country        = India Malayalam
}}
 1993 Cinema Indian Malayalam Malayalam film, directed by Nahas and starring Vijayakumar and Anusha in lead roles.    

==Cast==
* Vijayakumar
* Anusha
* KPAC Lalitha	
* Ashokan	
* Premkumar	
* Sainudeen
* Idavela Babu	
* Johny	
* KPAC Sunny	
* Mamukkoya
* Philomina	
* Saikumar	
* Seenath	
* Radha Ravi

==References==
 

==External links==
*  

 
 
 

 