Silayugathile Sthreekal
{{Infobox film
| name           = Silayugathile Sthreekal
| image          =
| caption        =
| director       = RS Suresh
| producer       =
| writer         =
| screenplay     =
| starring       =
| music          =
| cinematography =
| editing        =
| studio         =
| distributor    =
| released       =  
| country        = India Malayalam
}}
 1996 Cinema Indian Malayalam Malayalam film, directed by RS Suresh.   

==Cast==

 

==References==
 

==External links==
*  

 
 
 


 