Dollar (film)
{{Infobox film
| name           =Dollar
| image          =
| caption        =
| director       =Raju Joseph
| producer       = 
| writer         = 
| screenplay     =
| starring       = Mukesh (actor)|Mukesh, Maathu
| music          = 
| cinematography = 
| editing        = 
| studio         = 
| distributor    = 
| released       = 1994
| country        = India Malayalam
}}
 1994 Cinema Indian Malayalam Malayalam film, Mukesh and Maathu in lead roles.    

==Cast==
* Mukesh	
* Thilakan
* Baiju	
* Maathu
* Padmini

==References==
 

==External links==
*  

 
 
 

 