Sowbhagyam
{{Infobox film
| name           =Sowbhagyam
| image          =
| caption        =
| director       =Sandhya Mohan
| producer       = 
| writer         = 
| screenplay     = Sunitha
| music          = 
| cinematography = 
| editing        = 
| studio         = 
| distributor    = 
| released       = 1993
| country        = India Malayalam
}}
 1993 Cinema Indian Malayalam Malayalam film, Sunitha and  Jagadish  in lead roles.    

==Cast== Sunitha   ................... Indhu
* Jagadish
* Jagathy Sreekumar	
* Sainudeen	
* Suchithra Murali	
* TR Omana
* Rajan P Dev	
* Krishnankutty Nair	
* Aboobacker	
* Bobby Kottarakkara
* Chithra	
* Divya Unni	
* Jose Pallissery	
* Kanakalatha
* Kuthiravattam Pappu	
* Mala Aravindan

==References==
 

==External links==
*  

 
 
 

 