Naagapanchami
{{Infobox film
| name           =Naagapanchami
| image          =
| caption        =
| director       =J. Sasikumar
| producer       = 
| writer         = 
| screenplay     =
| starring       =Suresh Gopi, Shobhana
| music          = 
| cinematography = 
| editing        = 
| studio         = 
| distributor    = 
| released       = 1989
| country        = India Malayalam
}}
 1989 Cinema Indian Malayalam Malayalam film, directed by J. Sasikumar, starring Suresh Gopi and Shobhana in the lead roles.    

==Cast==
* Innocent	
* Suresh Gopi	
* Shobhana	
* Saikumar

==References==
 

==External links==
*  

 
 
 

 