Gajakesariyogam
{{Infobox film
| name           =Gajakesariyogam
| image          =
| caption        =
| director       =PG Vishwambharan
| producer       = 
| writer         = 
| screenplay     = Sunitha
| music          = 
| cinematography = 
| editing        = 
| studio         = 
| distributor    = 
| released       = 1990
| country        = India Malayalam
}}
 1990 Cinema Indian Malayalam Malayalam film, Sunitha in the lead roles.    

==Cast==
* Innocent	
* Mukesh Sunitha	
* KPAC Lalitha	
* Ganesh Kumar	
* Mamukkoya	
* Oduvil Unnikrishnan	
* Paravoor Bharathan
* Rajan Mannarakkayam
* Sukumari	
* Sainudeen	
* Siddique	
* Balan K Nair
* Kunchan

==References==
 

==External links==
* 

 
 
 

 