Brahma Rakshass
{{Infobox film
| name           =Brahma Rakshass
| image          =
| caption        =
| director       =Vijayan Karote
| producer       = 
| writer         = 
| screenplay     =
| starring       =Devan, Karthika
| music          = 
| cinematography = 
| editing        = 
| studio         = 
| distributor    = 
| released       = 1990
| country        = India Malayalam
}}
 1990 Cinema Indian Malayalam Malayalam film, directed by Vijayan Karote, starring Devan and Karthika in the lead roles.  

==Cast==
* Innocent	
* Karthika	
* Sankaradi	
* Shanthi
* James	
* Anila	
* Aswathi Alex	
* Balan K Nair
* Devan	
* Kunjandi	
* Kuthiravattam Pappu	
* Lalu Alex
* Nirmal	
* RK Nair	
* Rajan Padoor	
* Santhadevi
* Shailaja	
* Shyni Dinesh	
* VK Sreeraman

==References==
 

==External links==
* 

 
 
 

 