Mahaan (1992 film)
{{Infobox film
| name           =Mahaan
| image          =
| caption        =
| director       =	Mohan Kumar
| producer       = 
| writer         = 
| screenplay     = Geetha
| music          = 
| cinematography = 
| editing        = 
| studio         = 
| distributor    = 
| released       = 1992
| country        = India Malayalam
}}
 1992 Cinema Indian Malayalam Malayalam film, Geetha in the lead roles.    

==Cast==
* Suresh Gopi	
* Captain Raju	
* Chithra	
* Geetha
* Shari

==References==
 

==External links==
* 

 
 
 

 