Shankaran Kuttikku Pennu Venam
{{Infobox film
| name           =Shankaran Kuttikku Pennu Venam
| image          =
| caption        =
| director       =	KS Sivachandran
| producer       = 
| writer         = 
| screenplay     =
| starring       =Jagathy Sreekumar, Rekha
| music          = 
| cinematography = 
| editing        = 
| studio         = 
| distributor    = 
| released       = 1990
| country        = India Malayalam
}}
 1990 Cinema Indian Malayalam Malayalam film, directed by 	KS Sivachandran, starring Jagathy Sreekumar and Rekha in the lead roles.   

==Cast==
* Jagathy Sreekumar	
* Rekha	
* Vijayan

==References==
 

==External links==
* 

 
 
 

 