Paadatha Veenayum Paadum
{{Infobox film
| name           =Paadatha Veenayum Paadum
| image          =
| caption        =
| director       =Sasikumar
| producer       = 
| writer         = 
| screenplay     =
| starring       =Jagathy Sreekumar, Rekha
| music          = 
| cinematography = 
| editing        = 
| studio         = 
| distributor    = 
| released       = 1990
| country        = India Malayalam
}}
 1990 Cinema Indian Malayalam Malayalam film, directed by Sasikumar, starring Jagathy Sreekumar and Rekha in the lead roles.    

==Cast==
* Uma Maheswari
* Raghu (Karan)
* Innocent	
* Beena	
* KPAC Sabu	
* Mala Aravindan
* Mamukkoya	
* VK Sreeraman

==References==
 

==External links==
* 

 
 
 

 