Radholsavam
{{Infobox film
| name           =Radholsavam
| image          =
| caption        =
| director       =TS Suresh Babu
| producer       = 
| writer         = 
| screenplay     =
| starring       =Suresh Gopi, Maathu
| music          = 
| cinematography = 
| editing        = 
| studio         = 
| distributor    = 
| released       = 1995
| country        = India Malayalam
}}
 1995 Cinema Indian Malayalam Malayalam film, directed by P Anil, Babu Narayanan, starring Suresh Gopi and Maathu in the lead roles.   

==Cast==
* Suresh Gopi
* Kasthuri
* Maathu
* Vijayaraghavan
* Indrans	
* Spadikam George

==References==
 

==External links==
* 

 
 
 

 