Manthrikante Pravukal
{{Infobox film
| name           =Manthrikante Pravukal
| image          =
| caption        =
| director       =	Vijayakrishnan
| producer       = 
| writer         = 
| screenplay     =
| starring       =Madhu, Shivaji
| music          = 
| cinematography = 
| editing        = 
| studio         = 
| distributor    = 
| released       = 1994
| country        = India Malayalam
}}
 1994 Cinema Indian Malayalam Malayalam film, directed by Vijayakrishnan, starring Madhu and Shivaji in the lead roles.   

==Cast==
* Madhu
* Anil Lale	
* Arya	
* Devi	
* Kanakalatha
* Master Prasanth	
* Shivaji	

==References==
 

==External links==
* 

 
 
 

 