Thumboli Kadappuram
{{Infobox film
| name           =Thumboli Kadappuram
| image          =
| caption        =
| director       =Jayaraj
| producer       = 
| writer         = 
| screenplay     = Annie
| music          = 
| cinematography = 
| editing        = 
| studio         = 
| distributor    = 
| released       = 1995
| country        = India Malayalam
}}
 1995 Cinema Indian Malayalam Malayalam film, directed by Jayaraj, starring Manoj K Jayan and Priya Raman in the lead roles.    

==Cast==
* Manoj K Jayan	
* Rajan P Dev	
* Indrans	
* Kuthiravattam Pappu
* Priya Raman	
* Silk Smitha	
* Vijayaraghavan

==References==
 

==External links==
* 

 
 
 

 