Raid (1991 film)
{{Infobox film
| name           =Raid
| image          =
| caption        =
| director       =KS Gopalakrishnan
| producer       = 
| writer         = 
| screenplay     =
| starring       =
| music          = 
| cinematography = 
| editing        = 
| studio         = 
| distributor    = 
| released       = 1991
| country        = India Malayalam
}}
 1991 Cinema Indian Malayalam Malayalam film, directed by KS Gopalakrishnan.   

==Cast==
* Chithra
* Saikumar
* Innocent	
* Nedumudi Venu	
* VD Rajappan	
* Prathapachandran
* Bobby Kottarakkara	
* Karikkakam Mani	
* Lalithasree	
* Mamukkoya
* Manakkad Ravi	
* Poojappura Ravi
* Santhakumari	
* Valsala Menon
* Koonthaloor Gopi	
* Kavara Sasankan	
* Snehalatha 

==References==
 

==External links==
* 

 
 
 

 