Antholanam
{{Infobox film
| name           =Antholanam
| image          =
| caption        =
| director       =Jagadeesh Chandran
| producer       = 
| writer         = 
| screenplay     =
| starring       =Kalabhavan Mani, Narendra Prasad
| music          = 
| cinematography = 
| editing        = 
| studio         = 
| distributor    = 
| released       = 2001
| country        = India Malayalam
}}
 2001 Cinema Indian Malayalam Malayalam film, directed by Jagadeesh Chandran, starring Kalabhavan Mani and Narendra Prasad in the lead roles.    

==Cast==
* Kalabhavan Mani 	
* Narendra Prasad	

==References==
 

==External links==
* 

 
 
 

 