Unnathangalil
{{Infobox film
| name           =Unnathangalil
| image          =
| caption        =
| director       =Jomon
| producer       = 
| writer         = 
| screenplay     =
| starring       =Manoj K Jayan, Lal
| music          = 
| cinematography = 
| editing        = 
| studio         = 
| distributor    = 
| released       = 2001
| country        = India Malayalam
}}
 2001 Cinema Indian Malayalam Malayalam film, directed by Jomon, starring Manoj K Jayan and Lal in the lead roles.    

==Cast==
* Manoj K Jayan	
* Lal	
* Abu Salim	
* Augustine
* Bindu Ramakrishnan	
* Geetha Vijayan	
* Indraja	
* Jagadish
* NF Varghese	
* Poornima Mohan
* Sadiq
* Mohanlal

==References==
 

==External links==
* 

 
 
 

 