Nagaram (2007 film)
{{Infobox film
| name           =Nagaram
| image          =
| caption        =
| director       =MA Nishad
| producer       = 
| writer         = 
| screenplay     =
| starring       =Kalabhavan Mani, Biju Menon
| music          = 
| cinematography = 
| editing        = 
| studio         = 
| distributor    = 
| released       = 2007
| country        = India Malayalam
}}
 2007 Cinema Indian Malayalam Malayalam film, directed by MA Nishad, starring Kalabhavan Mani and Biju Menon in the lead roles.    

==Cast==
* Biju Menon	
* Kalabhavan Mani	
* Gopika	
* Seema

==References==
 

==External links==
* 

 
 
 

 