Adheena
{{Infobox film
| name           =Adheena
| image          =
| caption        =
| director       =	Krishnadas
| producer       = 
| writer         = 
| screenplay     = Kasthuri
| music          = 
| cinematography = 
| editing        = 
| studio         = 
| distributor    = 
| released       = 2002
| country        = India Malayalam
}}
 2002 Cinema Indian Malayalam Malayalam film, Kasthuri in the lead role.    

==Cast==
* Shaji	
* Adoor Pankajam	
* Indrans	
* Jagannadhan
* Jolly Easow	
* Kasthuri	
* Spadikam George

==References==
 

==External links==
* 

 
 
 

 