Snehadooth
{{Infobox film
| name           =Snehadooth
| image          =
| caption        =
| director       =D Madhu
| producer       = 
| writer         = 
| screenplay     =
| starring       =Sarath Haridas, Madhupal
| music          = 
| cinematography = 
| editing        = 
| studio         = 
| distributor    = 
| released       = 1997
| country        = India Malayalam
}}
 1997 Cinema Indian Malayalam Malayalam film, directed by D Madhu, starring Sarath Haridas and Madhupal in the lead role.    

==Cast==
* Sukumari	
* Madhupal	
* Beena Antony	
* Kannur Sreelatha
* MR Gopakumar	
* Mala Aravindan	
* Sarath Haridas	
* Seetha (Devaasuram)

==References==
 

==External links==
* 

 
 
 

 