Krishna Paksha Kilikal
{{Infobox film
| name           =Krishna Paksha Kilikal
| image          =
| caption        =
| director       =Abraham Lincoln
| producer       = 
| writer         = 
| screenplay     =
| starring       =Saikumar (Malayalam actor)|Saikumar, Revathy
| music          = 
| cinematography = 
| editing        = 
| studio         = 
| distributor    = 
| released       = 2002
| country        = India Malayalam
}}
 2002 Cinema Indian Malayalam Malayalam film, Saikumar and Revathy in the lead role.    

==Cast==
* Revathy	
* Pradeep Paliyath	
* Bindu Panicker	
* Kalabhavan Santhosh
* Master Amal Mohan	
* Master Syamsundar	
* Narendra Prasad	
* Saikumar
* Kuriakose P V

==References==
 

==External links==
* 

 
 
 

 