Buttons (film)
{{Infobox film
| name           = Buttons
| image          = 
| alt            = 
| caption        = 
| director       = George W. Hill
| producer       = 
| screenplay     = Marian Constance Blackton Ralph Spence Hayden Talbot 
| story          = George W. Hill Paul Hurst Roy DArcy
| music          = 
| cinematography = Ira H. Morgan 
| editing        = Sam Zimbalist
| studio         = Metro-Goldwyn-Mayer
| distributor    = Metro-Goldwyn-Mayer
| released       =  
| runtime        = 70 minutes
| country        = United States
| language       = English
| budget         = 
| gross          = 
}}
 drama silent Paul Hurst and Roy DArcy. The film was released on December 24, 1927, by Metro-Goldwyn-Mayer.  

==Plot==
 

== Cast ==	
*Jackie Coogan as Buttons
*Lars Hanson as Captain Travers
*Gertrude Olmstead as Ruth Stratton Paul Hurst as Slugger McGlue
*Roy DArcy as Henri Rizard
*Polly Moran as Polly Jack McDonald as Hatchet Face
*Coy Watson, Jr. as Brutus 

== References ==
 

== External links ==
*  

 
 
 
 
 
 
 

 