Janani (film)
{{Infobox film
| name           =Janani
| image          =
| caption        =
| director       =Rajeevnath
| producer       = 
| writer         = 
| screenplay     =
| starring       =Siddique
| music          = 
| cinematography = 
| editing        = 
| studio         = 
| distributor    = 
| released       = 1999
| country        = India Malayalam
}} 1999 Cinema Indian Malayalam Malayalam film, Siddique in the lead role.    

==Cast==
* Siddique
* Latheef	
* Bobby Kottarakkara	
* Poojappura Radhakrishnan	
* Roslin
* Thrissur Elsy	
* Valsala Menon
	
==References==
 

==External links==
* 

 
 
 

 