Janmadinam (film)
{{Infobox film
| name           =Janmadinam
| image          =
| caption        =
| director       =Suma Josson
| producer       = 
| writer         = 
| screenplay     =
| starring       =
| music          = 
| cinematography = 
| editing        = 
| studio         = 
| distributor    = 
| released       = 1997
| country        = India Malayalam
}} 1997 Cinema Indian Malayalam Malayalam film directed by Suma Josson and starring Nedumudi Venu and Nandita Das in the lead roles.   

==Cast==
* Nedumudi Venu
* Nandita Das
* Murali Nair	
* Baby Shilpa	
* Surekha Sikri

==References==
 

==External links==
* 

 
 
 


 