Kottappurathe Koottukudumbam
{{Infobox film
| name           =Kottappurathe Koottukudumbam
| image          =
| caption        =
| director       =Pappan Naripatta
| producer       = 
| writer         = 
| screenplay     =
| starring       =
| music          = 
| cinematography = 
| editing        = 
| studio         = 
| distributor    = 
| released       = 1997
| country        = India Malayalam
}} 1997 Cinema Indian Malayalam Malayalam film Vijayaraghavan and Urvashi in the lead roles.  

==Cast==
* Urvasi	
* KPAC Lalitha	
* Kalabhavan Mani	
* Kalpana
* Maniyanpilla Raju	
* Janardanan	
* Vijayaraghavan

==References==
 

==External links==
* 

 
 
 


 