Sraadham
{{Infobox film
| name           =Sraadham
| image          =
| caption        =
| director       =V Rajakrishnan
| producer       = 
| writer         = 
| screenplay     =
| starring       =
| music          = 
| cinematography = 
| editing        = 
| studio         = 
| distributor    = 
| released       = 1994
| country        = India Malayalam
}} 1994 Cinema Indian Malayalam Malayalam film directed by V Rajakrishnan, starring Charuhasan and Karamana Janardhanan Nair.  

==Cast==
* Charuhasan	
* Karamana Janardhanan Nair		

==References==
 

==External links==
* 

 
 
 


 