Theeram Thedunna Thirakal
{{Infobox film
| name           =Theeram Thedunna Thirakal
| image          =
| caption        =
| director       =
| producer       = 
| writer         = 
| screenplay     =
| starring       =
| music          = 
| cinematography = 
| editing        = 
| studio         = 
| distributor    = 
| released       = 1993
| country        = India Malayalam
}} 1993 Cinema Indian Malayalam Malayalam film directed by Kaladharan.  

==Cast==
* Seenath	
* Vijayaraghavan	
* Renuka (Prashanthi)

==References==
 

==External links==
* 

 
 
 


 