Kazhakam
{{Infobox film
| name           =Kazhakam
| image          =
| caption        =
| director       =MP Sukumaran Nair
| producer       = 
| writer         = 
| screenplay     =
| starring       =
| music          = 
| cinematography = 
| editing        = 
| studio         = 
| distributor    = 
| released       = 1996
| country        = India Malayalam
}} 1996 Cinema Indian Malayalam Malayalam film directed by MP Sukumaran Nair and starring Nedumudi Venu and Urvashi in the lead roles.   

==Cast==
* Urvasi
* Nedumudi Venu
* Ravi Vallathol
* Mullanezhi	
* Sreelatha Namboothiri	
* Kukku Parameswaran	
* Meena Ganesh
* Valsala Menon

==References==
 

==External links==
* 

 
 
 


 