Sabarimalayil Thanka Sooryodayam
{{Infobox film
| name           =Sabarimalayil Thanka Sooryodayam
| image          =
| caption        =
| director       = K. Shankar
| producer       = 
| writer         = 
| screenplay     =
| starring       =
| music          = 
| cinematography = 
| editing        = 
| studio         = 
| distributor    = 
| released       = 1992
| country        = India Malayalam
}}
 1992 Cinema Indian Malayalam Malayalam film, Ambika in the lead roles.    

==Cast==
* Sukumari	
* Jagathy Sreekumar	
* Kaviyoor Ponnamma	
* Nedumudi Venu
* Premkumar	
* Jagannadha Varma	
* Jagannadhan	
* Kamalroy
* Kunchan	
* Mamukkoya	
* Ranjini

==References==
 

==External links==
* 

 

 
 
 

 