Omanikkaanoru Shishiram
{{Infobox film
| name           =Omanikkaanoru Shishiram
| image          =
| caption        =
| director       =	UC Roshan
| producer       = 
| writer         = 
| screenplay     =
| starring       =
| music          = 
| cinematography = 
| editing        = 
| studio         = 
| distributor    = 
| released       = 1992
| country        = India Malayalam
}}
 1992 Cinema Indian Malayalam Malayalam film, directed by UC Roshan, starring Sajith in the lead role.   

==Cast==
* Prathapachandran	
* Sathar	
* Bobby Kottarakkara

==References==
 

==External links==
* 

 
 
 

 