Poochakkaru Mani Kettum
{{Infobox film
| name           =Poochakkaru Mani Kettum
| image          =
| caption        =
| director       =Thulasidas
| producer       = 
| writer         = 
| screenplay     = Siddique Sunitha Sunitha Lakshmi Lakshmi
| music          = 
| cinematography = 
| editing        = 
| studio         = 
| distributor    = 
| released       = 1992
| country        = India Malayalam
}}
 1992 Cinema Indian Malayalam Malayalam film, Mukesh and Sunitha in the lead roles.   

==Cast== Mukesh	 Siddique	 Sunitha	as Radhika
* Nedumudi Venu Lakshmi	
* KPAC Lalitha	
* Kalpana

==References==
 

==External links==
* 

 
 
 


 