Kadamkadha
{{Infobox film
| name           =Kadamkadha
| image          =
| caption        =
| director       = 
| producer       = 
| writer         = 
| screenplay     =
| starring       =
| music          = 
| cinematography = 
| editing        = 
| studio         = 
| distributor    = 
| released       = 1991
| country        = India Malayalam
}}
 1991 Cinema Indian Malayalam Malayalam film.   

==References==
 

==External links==
* 

 
 
 

 