Start Immediately
{{Infobox film
| name           =Start Immediately
| image          =
| caption        =
| director       =Krishnathej
| producer       = 
| writer         = 
| screenplay     =
| starring       =
| music          = 
| cinematography = 
| editing        = 
| studio         = 
| distributor    = 
| released       = 1992
| country        = India Malayalam
}}
 1992 Cinema Indian Malayalam Malayalam film, directed by Krishnathej, starring MG Soman and Jagathy Sreekumar in the lead role.   

==Cast==
* Jagathy Sreekumar	
* Prathapachandran	
* Janardanan	
* MG Soman

==References==
 

==External links==
* 

 
 
 

 