Simhaasanam (1979 film)
{{Infobox film
| name           =Simhaasanam
| image          =Simhasanam.jpg
| caption        =
| director       =Sreekumaran Thampi
| producer       = 
| writer         = 
| screenplay     =
| starring       =
| music          = 
| cinematography = 
| editing        = 
| studio         = 
| distributor    = 
| released       = 1979
| country        = India Malayalam
}}
 1979 Cinema Indian Malayalam Malayalam film directed by Sreekumaran Thampi, starring Madhu and Lakshmi in lead roles.   

==Cast==
* Madhu
* Lakshmi
* Nanditha Bose
* Sukumari	
* Jagathy Sreekumar	
* Balan K Nair	
* Janardanan
* Kanakadurga	
* Kuthiravattam Pappu	
* PK Venukkuttan Nair	
* Poojappura Ravi
* Vallathol Unnikrishnan

==References==
 

==External links==
* 

 
 
 

 