V pokušení
{{Infobox film
| name           = V pokušení
| image          = 
| alt            = 
| caption        = 
| film name      = 
| director       =Miroslav Cikán
| producer       = 
| writer         = 
| screenplay     = 
| story          = 
| based on       =  
| starring       =  Jiří Dohnal, Ladislav Boháč, Marie Glázrová 
| narrator       = 
| music          = 
| cinematography = 
| editing        = 
| studio         = 
| distributor    = 
| released       =1939  
| runtime        =
| country        =Czechoslovakia
| language       = 
| budget         = 
| gross          = 
}}
V pokušení is a 1939 Czechoslovak romance film, directed by Miroslav Cikán.  It stars  Jiří Dohnal, Ladislav Boháč and Marie Glázrová. 

==References==
 

==External links==
*  at the Internet Movie Database

 
 
 
 
 
 
 
 