Kallimullu
{{Infobox film
| name           =Kallimullu
| image          =
| caption        =
| director       =Mohammed Ghazali
| producer       = 
| writer         = 
| screenplay     =
| starring       =
| music          = 
| cinematography = 
| editing        = 
| studio         = 
| distributor    = 
| released       = 1982
| country        = India Malayalam
}}
 1982 Cinema Indian Malayalam Malayalam film directed by Mohammed Ghazali.   

==Cast==
* S. Raveendran	
* Laali

==References==
 

==External links==
* 

 
 
 

 