Tunnel 18
{{Infobox film
| name           = Tunnel 18
| image          = Tunnel_18_Movie_Poster.jpg
| alt            = 
| caption        =
| film name      =  
| director       = Hossein Shahabi
| producer       = Hossein Sharifi
| writer         = Hossein Shahabi
| starring       =  
| music          = Hossein Shahabi
| cinematography = Hamid Angaji
| editing        = Hossein Shahabi
| studio         = Baran film house
| distributor    = Baran Film House
| released       =  
| runtime        = 120 minutes
| country        = Iran
| language       = Persian
| budget         = 
| gross          = 
}} Iranian drama film written and directed by Hossein Shahabi (Persian: حسین شهابی)     

==Starring==
* Ali osivand
* Reza Naji
* Bahar Karimzadeh
* Karim Nobakht
* Abdolsamad Jodeyri
* Akram Alamdar
* Mnsoor Sedaghat

==References==
 
 
 
 
 