Echo (2001 film)
{{Infobox film
| name           = Echo
| image          = Echo_Movie_Poster.jpg
| alt            = 
| caption        =
| film name      =  
| director       = Hossein Shahabi
| producer       = Mansour Sharifian
| writer         = Hossein Shahabi
| starring       =  
| music          = Hossein Shahabi
| cinematography = Kazem Sarvar
| editing        = Hossein Shahabi
| studio         = Baran film house
| distributor    = Kish TV Iran
| released       =  
| runtime        = 90 minutes
| country        = Iran
| language       = Persian
| budget         = 
| gross          = 
}} Iranian film written and directed by Hossein Shahabi (Persian: حسین شهابی)     

==Cast==
* Fariba Mortazavi
* Mohammad Sadegi
* Mohammad Taheri
* Reza Sabri
* Amir Ahmadi
* Nasim Mehrani
* Karim Novin

==References==
 
 
 
 
 