Aparanmaar Nagarathil
{{Infobox film
| name           =Aparanmaar Nagarathil
| image          =
| caption        =
| director       = 	Nissar
| producer       = 
| writer         = 
| screenplay     =
| starring       =
| music          = 
| cinematography = 
| editing        = 
| studio         = 
| distributor    = 
| released       = 2001
| country        = India Malayalam
}} 2001 Cinema Indian Malayalam Malayalam film directed by Nissar.    

==Cast==
* Beena	
* VD Rajappan	
* Jayasurya	
* Kottayam Nazeer
* Suresh	
* Bindu Ramakrishnan	
* Kalabhavan Shajohn	
* Nimmi
* Raja Sahib	
* Saju Kodiyan	
* Sonia (Baby Sonia)	
* Suby Suresh
* TS Raju

==References==
 

==External links==
* 

 
 
 

 