Jeevan Masai
{{Infobox film
| name           =Jeevan Masai
| image          =
| caption        =
| director       = 	TN Gopakumar
| producer       = 
| writer         = 
| screenplay     =
| starring       =
| music          = 
| cinematography = 
| editing        = 
| studio         = 
| distributor    = 
| released       = 2001
| country        = India Malayalam
}} 2001 Cinema Indian Malayalam Malayalam film directed by TN Gopakumar.    

==Cast==
* Srividya	
* Kavya Madhavan	
* Nedumudi Venu	
* PP Subair
* Bindu Ramakrishnan	
* Geetha Nair	
* Jagannadha Varma	
* Jagannadhan
* Kukku Parameswaran	
* MR Gopakumar	
* Manu Varma	
* Sangeetha Mohan
* VK Sreeraman	
* Vijayaraghavan

==References==
 

==External links==
* 

 
 
 

 