Mazhamegha Pravukal
{{Infobox film
| name           =Mazhamegha Pravukal
| image          =
| caption        =
| director       = Pradeep
| producer       = 
| writer         = 
| screenplay     =
| starring       =
| music          = 
| cinematography = 
| editing        = 
| studio         = 
| distributor    = 
| released       = 2001
| country        = India Malayalam
}} 2001 Cinema Indian Malayalam Malayalam film directed by Pradeep.    

==Cast==
* Kavya Madhavan
* Krishna
* Jagathy Sreekumar	
* PP Subair	
* Bindu Panicker	
* Jose Pallissery
* Lalu Alex	
* Meena Ganesh	
* Shiju	
* TS Raju Pragathi

==References==
 

==External links==
* 

 
 
 

 