Muertos de miedo
{{Infobox film
| name           = Muertos de miedo
| image          = 
| image_size     = 
| border         = 
| alt            = 
| caption        = 
| film name      = 
| director       = Jaime Salvador
| producer       = Daniel Galindo Pedro Galindo
| writer         = Fernando Cortés Carlos Sampelayo
| screenplay     = 
| story          = 
| based on       =  
| narrator       = 
| starring       = Kitty de Hoyos Marco Antonio Campos Gaspar Henaine Carlos Agostí José Jasso
| music          = Antonio Díaz Conde
| cinematography = Agustín Jiménez
| editing        = José W. Bustos
| studio         = Filmadora Chapultepec
| distributor    = 
| released       =  
| runtime        = 88 minutes
| country        = Mexico
| language       = Spanish
| budget         = 
| gross          = 
}}
Muertos de miedo ("Scared to Death") is a 1958 Mexican comedy film starring Kitty de Hoyos, Viruta and Capulina (Marco Antonio Campos and Gaspar Henaine), Carlos Agostí and José Jasso.

==External links==
* 
 

 
 

 