Mystery (2014 film)
{{Infobox film
| name           = Mystery
| image          = Mystery 2014 film poster.jpg
| alt            =
| caption        = 
| film name      = 
| director       = Wu Bing 
| producer       = 
| writer         = 
| screenplay     = 
| story          = 
| based on       =  
| starring       = Ady An Jiro Wang Guo Degang Ning Huanyu Julie Tan 
| narrator       = 
| music          = 
| cinematography = 
| editing        = 
| studio         = Beijing Dashidu Media      
| distributor    = 
| released       =  
| runtime        = 83 minutes
| country        = China
| language       = Mandarin
| budget         = 
| gross          = chinese yuan|¥4.58 million (China) 
}}
 thriller adventure film directed by Wu Bing. It was released on November 14, 2014. 

==Cast==
*Ady An
*Jiro Wang
*Guo Degang
*Ning Huanyu 
*Julie Tan 

==Reception==
===Box office===
By November 21, 2014, the film had earned chinese yuan|¥4.58 million at the Chinese box office. 

==References==
 

 
 
 
 
 
 

 
 
 