Paddy O'Day
{{Infobox film
| name           = Paddy O&#39;Day
| image          = Paddy O Day 1935.jpg
| alt            = 
| caption        = 
| film name      = 
| director       =  Lewis Seller
| producer       = 
| writer         = 
| screenplay     = 
| story          = 
| based on       =  
| starring       = Jane Withers, Pinky Tomlin, and Rita Hayworth
| narrator       = 
| music          = 
| cinematography = 
| editing        = 
| studio         =
| distributor    = 
| released       =1935  
| runtime        = 73 minutes
| country        = USA
| language       = English
| budget         = 
| gross          = 
}}
Paddy O&#39;Day is a 1935 American musical drama film, directed by Lewis Seller. It stars Jane Withers, Pinky Tomlin, and Rita Hayworth.   

==References==
 

==External links==
*  at the Internet Movie Database
*  


 
 
 
 
 
 


 