I'll Be Right Over
 
{{Infobox film
| name           = Ill Be Right Over
| image          = 
| caption        = 
| director       = Otakar Vávra
| producer       = 
| writer         = Sasa Rasilov Frantisek Vlcek Otakar Vávra
| starring       = Sasa Rasilov
| music          = 
| cinematography = 
| editing        = 
| distributor    = 
| released       =  
| runtime        = 93 minutes
| country        = Czechoslovakia
| language       = Czech
| budget         = 
}}

Ill Be Right Over ( ) is a 1942 Czechoslovak comedy film directed by Otakar Vávra.   

==Cast==
* Sasa Rasilov as Václav Barvínek - vycpavac zvere
* Vlasta Matulová as Julinka Tichá - florist
* Svatopluk Benes as Ing. Jirí Hora - chemist Theodor Pištěk as Alois Trachta - innkeeper
* Ruzena Slemrová as Miss Demourová - householder

==References==
 

==External links==
*  

 

 
 
 
 
 
 
 
 
 