Outpost of the Mounties
{{Infobox film
| name           = Outpost of the Mounties
| image          = 
| alt            = 
| caption        = 
| film name      =  Charles C. Coleman
| producer       = 
| writer         = 
| screenplay     = 
| story          = 
| based on       =   Stanley Brown
| narrator       = 
| music          = 
| cinematography = 
| editing        = 
| studio         =
| distributor    = 
| released       =1939  
| runtime        = 63 minutes
| country        = USA
| language       = English
| budget         = 
| gross          = 
}} Charles C. Stanley Brown.   

==References==
 

==External links==
*  at the Internet Movie Database
 
 
 
 
 
 

 