Code of the Range
{{Infobox film
| name           = Code of the Range
| image          = 
| alt            = 
| caption        = 
| film name      =  Charles C. Coleman
| producer       = 
| writer         = 
| screenplay     = 
| story          = 
| based on       =  
| starring       = Charles Starrett, Mary Blake, Edward Coxen
| narrator       = 
| music          = 
| cinematography = 
| editing        = 
| studio         =
| distributor    = 
| released       =1936  
| runtime        = 55 minutes
| country        = USA
| language       = English
| budget         = 
| gross          = 
}} Charles C. Coleman. It stars Charles Starrett, Mary Blake, Edward Coxen.   

==References==
 

==External links==
*  at the Internet Movie Database
 
 
 
 
 
 

 