Squadron of Honor
{{Infobox film
| name           = Squadron of Honor
| image          = 
| alt            = 
| caption        = 
| film name      =  Charles C. Coleman
| producer       = 
| writer         = 
| screenplay     = 
| story          = 
| based on       =   Mary Russell, and Thurston Hall
| narrator       = 
| music          = 
| cinematography = 
| editing        = 
| studio         =
| distributor    = 
| released       =1938  
| runtime        = 65 minutes
| country        = USA
| language       = English
| budget         = 
| gross          = 
}} Charles C. Mary Russell, and Thurston Hall. 

==References==
 

==External links==
*  at the Internet Movie Database
 
 
 
 
 
 

 