Oma Irama Penasaran
 
{{Infobox film
| name           = Oma Irama Penasaran
| image          = Oma_Irama_Penasaran.jpg
| size           =
| caption        =
| director       = A. Harris
| producer       = Tedjo Kusumo
| eproducer      =
| aproducer      =
| writer         = Deddy Armand
| starring       = Rhoma Irama Yati Octavia Aminah Cendrakasih A. Hamid Arief Netty Herawati Maruli Sitompul Aedy Moward
| music          =
| cinematography = Syamsudin
| editing        = Rizal Asmar
| distributor    =
| released       =  
| runtime        = 100 minutes
| country        = Indonesia
| awards         =
| language       = Bahasa Indonesia
| budget         =
| gross          =
| amg_id         =
| imdb_id        =
}}
Oma Irama Penasaran is an Indonesian film directed by A. Harris and starred Rhoma Irama dan Yati Octavia.

 
 


 