Avalanche (1928 film)
{{Infobox film
| name           = Avalanche
| image          = 
| alt            = 
| caption        = 
| film name      = 
| director       =  Otto Brower
| producer       = 
| writer         = Zane Grey (novel) Herman J. Mankiewicz (screenplay)
| screenplay     = 
| story          = 
| based on       =   Jack Holt, Doris Hill, and Olga Baclanova
| narrator       = 
| music          = 
| cinematography = 
| editing        = 
| studio         =
| distributor    = 
| released       =  
| runtime        = 
| country        = United States
| language       =Silent
| budget         = 
| gross          = 
}} Jack Holt, Doris Hill, and Olga Baclanova.   

==References==
 

==External links==
*  at the Internet Movie Database

 

 
 
 
 
 
 
 
 

 
 