Land of Liberty
{{Infobox film
| name           = Land of Liberty
| image          = 
| alt            = 
| caption        = 
| director       = 
| producer       = 
| writer         = Jesse L. Lasky Jr. Jeanie Macpherson
| starring       =
| music          = Rudolph G. Kopp 
| cinematography = 
| editing        = Cecil B. DeMille
| studio         = Metro-Goldwyn-Mayer
| distributor    = Metro-Goldwyn-Mayer
| released       =  
| runtime        = 138 minutes
| country        = United States
| language       = English
| budget         = 
| gross          = 
}}

Land of Liberty is a 1939 American documentary film written by Jesse L. Lasky Jr. and Jeanie Macpherson. The film tells the history of the United States from pre-Revolution through 1939. The film was released on June 15, 1939, by Metro-Goldwyn-Mayer.  

==Plot==
 

== References ==
 

== External links ==
*  

 
 
 
 
 
 
 

 