The Million Dollar Collar
 
{{Infobox film
| name           = The Million Dollar Collar
| image          = 
| caption        = 
| director       = D. Ross Lederman
| producer       = 
| writer         = Robert Lord James A. Starr
| starring       = Rin Tin Tin
| music          = 
| cinematography = 
| editing        = 
| distributor    = Warner Bros.
| released       =  
| runtime        = 62 minutes
| country        = United States
| language       = Silent
| budget         = 
}}

The Million Dollar Collar is a 1929 American part-talkie crime film directed by D. Ross Lederman.   

==Cast==
* Rin Tin Tin as Rinty, a dog
* Matty Kemp as Bill Holmes
* Evelyn Pierce as Mary French
* Philo McCullough as Joe French
* Tom Dugan as Ed Mack
* Allan Cavan as Chief
* Grover Ligon as Scar

==References==
 

==External links==
*  

 

 
 
 
 
 
 
 
 
 

 
 