Silent Men
 
{{Infobox film
| name           = Silent Men
| image          = 
| caption        = 
| director       = D. Ross Lederman
| producer       = 
| writer         = Walter J. Coburn Stuart Anthony
| starring       = Tim McCoy
| music          = 
| cinematography = 
| editing        = 
| distributor    = 
| released       =  
| runtime        = 58 minutes
| country        = United States
| language       = English
| budget         = 
}}
 Western film directed by D. Ross Lederman.   

==Cast==
* Tim McCoy as Tim Richards
* Florence Britton as Gwen Wilder
* J. Carrol Naish as Jack Wilder (as J. Carroll Naish)
* Wheeler Oakman as Ed Wilder
* Matthew Betz as Carl Lawler
* William V. Mong as Lawyer Oscar Sikes
* Joseph W. Girard as Two Block Burkett (as Joseph Girard)
* Syd Saylor as Coyote Carter (as Sid Saylor)

==References==
 

==External links==
*  

 

 
 
 
 
 
 
 
 
 