Case of the Missing Man
 
{{Infobox film
| name           = Case of the Missing Man
| image          = 
| caption        = 
| director       = D. Ross Lederman
| producer       = 
| writer         = Lee Loeb Harold Buchman Roger Pryor
| music          = 
| cinematography = 
| editing        = 
| distributor    = 
| released       =  
| runtime        = 58 minutes
| country        = United States
| language       = English
| budget         = 
}}

Case of the Missing Man is a 1935 American crime film directed by D. Ross Lederman.   

==Cast== Roger Pryor as Jimmy Hudson
* Joan Perry as Peggy Roberts
* Thurston Hall as Boyle
* Arthur Hohl as Steve George McKay as Frank Nelson
* Tom Dugan as Jack Clark James Burke as Police Sergeant Rorty Arthur Rankin as Hank

==References==
 

==External links==
*  

 

 
 
 
 
 
 
 
 
 