The Racket Man
 
{{Infobox film
| name           = The Racket Man
| image          = 
| caption        = 
| director       = D. Ross Lederman
| producer       = 
| writer         = Howard J. Green Casey Robinson Paul Yawitz
| starring       = Tom Neal
| music          = 
| cinematography = 
| editing        = 
| distributor    = 
| released       =  
| runtime        = 65 minutes
| country        = United States
| language       = English
| budget         = 
}}

The Racket Man is a 1944 American crime film directed by D. Ross Lederman.   

==Cast==
* Tom Neal as Matt Benson
* Hugh Beaumont as Irish Duffy
* Jeanne Bates as Phyllis Lake
* Larry Parks as Larry Lake
* Douglas Fowley as Toby Sykes

==References==
 

==External links==
*  

 

 
 
 
 
 
 
 
 
 