The Last Ride (1944 film)
 
{{Infobox film
| name           = The Last Ride
| image          = 
| caption        = 
| director       = D. Ross Lederman
| producer       = 
| writer         = Raymond L. Schrock Richard Travis
| music          = 
| cinematography = 
| editing        = 
| distributor    = 
| released       =  
| runtime        = 57 minutes
| country        = United States
| language       = English
| budget         = 
}}

The Last Ride is a 1944 American crime film directed by D. Ross Lederman.   

==Cast== Richard Travis as Detective Lt. Pat Harrigan Charles Lang as Mike Harrigan
* Eleanor Parker as Kitty Kelly
* Jack La Rue as Joe Genna
* Cy Kendall as Capt. Butler
* Wade Boteler as Police Chief Delaney Mary Gordon as Mrs. Mary Kelly Harry Lewis as Harry Bronson
* Tod Andrews as Fritz Hummel (as Michael Ames)

==References==
 

==External links==
*  

 

 
 
 
 
 
 
 
 
 