Ghazab Tamasha
{{Infobox film
| name           = Ghazab Tamasha
| image          = 
| alt            = 
| caption        = 
| film name      = 
| director       = Ranjeet
| producer       = 
| writer         = 
| screenplay     = 
| story          = 
| based on       =  
| narrator       = 
| starring       ={{Plain list| 
*Rahul Roy
*Deepak Tijori
*Anu Agrawal 
*Tanuja
*Aruna Irani
}}
| music          = 
| cinematography = 
| editing        = 
| studio         = 
| distributor    = 
| released       =  
| runtime        = 
| country        =
| language       = Hindi
| budget         = 
| gross          =  
}}

Ghazab Tamasha is a 1992 family drama film directed by Ranjeet. It featured Rahul Roy as the lead actor. The film was a box office hit. 

==References==
 

== External links ==
* 

 
 
 
 


 
 