Akkare Ninnoru Sultan
{{Infobox film
| name           =Akkare Ninnoru Sultan
| image          =
| caption        =
| director       =S Sunil
| producer       = 
| writer         = 
| screenplay     =
| starring       =
| music          = 
| cinematography = 
| editing        = 
| studio         = 
| distributor    = 
| released       = 2007
| country        = India Malayalam
}} 2007 Cinema Indian Malayalam Malayalam film directed by S Sunil.    

==Cast==
* Nadirsha	
* Urmila Unni	
* VK Sreeraman

==References==
 

==External links==
* 

 
 
 

 