Ghaav: The Wound
{{Infobox film
| name           = Ghaav: The Wound
| image          = 
| alt            = 
| caption        = 
| film name      = 
| director       = Kumar Jay
| producer       = K.K. Nayyar
| writer         = 
| screenplay     = 
| story          = 
| based on       =  
| narrator       = 
| starring       ={{Plain list|
*Seema Biswas 
*Om Puri
*Deepak Tijori
*Pankaj Berry
*Rahul Bhatt
*Anant Jog
*Govind Namdeo
*Nandita Thakur
*Mita Vasisht
}}
| music          = 
| cinematography = Nath Gupta
| editing        = 
| studio         = 
| distributor    = 
| released       =2002
| runtime        = 150 mins.
| country        = India
| language       = Hindi   
| budget         = 
| gross          =  
}}
Ghaav: The Wound is a 2002 crime drama film directed by Kumar Jay. The main character of the film is Tanya (Seema Biswas). 

==References==
 

== External links ==
* 

 
 
 
 


 
 