Aslan Pençesi
{{Infobox film
| name           = Aslan Pençesi
| image          = 
| alt            = 
| caption        = 
| film name      = 
| director       =Memduh Ün
| producer       = 
| writer         = Halit Refiğ
| screenplay     = 
| story          = 
| based on       =  
| starring       = Ayhan Işık, Sevinç Pekin and Turgut Özatay
| narrator       = 
| music          = 
| cinematography = 
| editing        = 
| studio         =
| distributor    = 
| released       =1966  
| runtime        =
| country        =Turkey
| language       = Turkish
| budget         = 
| gross          = 
}}
Aslan Pençesi is a 1966 Turkish crime film, directed by Memduh Ün and starring Ayhan Işık, Sevinç Pekin and Turgut Özatay. It was written by Halit Refiğ. 

==References==
 

==External links==
*  at the Internet Movie Database

 
 
 
 
 


 