Acı Zafer
{{Infobox film
| name           = Acı Zafer
| image          = 
| alt            = 
| caption        = 
| film name      = 
| director       =Halit Refiğ
| producer       = 
| writer         = 
| screenplay     = 
| story          = 
| based on       =  
| starring       = Yilmaz Köksal, Deniz Erkanat, Turgut Özatay
| narrator       = 
| music          = 
| cinematography = 
| editing        = 
| studio         =
| distributor    = 
| released       =1972  
| runtime        =
| country        =Turkey
| language       = Turkish
| budget         = 
| gross          = 
}}
Acı Zafer is a 1972 Turkish film, directed by Halit Refiğ and starring Yilmaz Köksal, Deniz Erkanat, Turgut Özatay. 

==References==
 

==External links==
*  at the Internet Movie Database

 

 
 
 
 


 