Nu går den på Dagmar
 
{{Infobox film
| name           = Nu går den på Dagmar
| image          = Nu går den på Dagmar 1972.jpg
| caption        = Poster by Peter Pagh
| director       = Henning Ørnbak
| producer       = Klaus Pagh
| writer         = Henning Ørnbak
| starring       = 
| music          = Palle Mikkelborg
| cinematography = Peter Klitgaard
| editing        = Maj Soya
| distributor    = ASA Filmudlejning
| released       =  
| runtime        = 95 minutes
| country        = Denmark
| language       = Danish
| budget         = 
}}
 1972 film written and directed by  .   

== Cast ==
* 
* 
* 
* 
*Klaus Pagh
*Erling Schroeder
*Jørgen Ryg
* 
*Gabriel Axel
*Lily Broberg
*Judy Gringer
*Willy Rathnov
*Preben Mahrt
*Ove Sprogøe
*Sisse Reingaard

== References ==
 

== External links ==
*  
*  

 
 
 
 


 