Ajante
 

{{Infobox film

| name   = Ajante

| image    = 

| caption     = DVD Cover

| director      = Dilip Biswas

| producer    = Gayotri Biswas

| writer         = Komol Sarkar

| starring    = Alamgir, Shabana, Sohel rana, Suchorita, Riyaz, Sonia, Imran, ATM Shamsuzzaman, Amol Bose

| music          = Satya Saha

| cinematography = Abul Khayer

| editing        = Aminul Islam mintu

| distributor    = Giti Chitrakotha

| released       = 1996

| runtime        = 148 min

| country        =  
 Bengali

| budget         =

| gross          =

| preceded_by    =

| followed_by    =

| website        =

| amg_id         =

| imdb_id        =

}}
 director Dilip Biwas.    The screenplay is written by Komol Sarkar based on family drama.

== Roles ==
 Alamgir – Mirja Shahriar

* Shabana - Kajal

* Sohel rana - asad

* Suchorita - Asha

* Riaz – Mirja ashik

== Awards==

Actor Sohel rana got national film prize for lead male role. 

== Sources ==

 

== External links==

*  

 
 

 