Women's Wares
{{Infobox film
| name           = Womens Wares
| image          =
| caption        =
| director       = Arthur Gregor
| producer       = 
| story          = E. Morton Hough
| writer         = Frances Hyland
| starring       = Evelyn Brent
| music          =
| cinematography = 
| editing        = 
| distributor    =
| released       =  
| runtime        = 
| country        = USA
| language       = Silent
| budget         =
| gross          =
}}
 silent drama film starring by Evelyn Brent.

== Cast ==
* Evelyn Brent as Dolly Morton
* Bert Lytell as Robert Crane Larry Kent as Jimmie Hayes
* Gertrude Short as Maisie Duncan
* Myrtle Stedman as Mrs. James Crane
* Richard Tucker as Frank Stanton
* Cissy Fitzgerald as Mrs. Frank Stanton

==References==
 

== External links ==
* 

 
 
 
 

 