Brave Rabbit 2 Crazy Circus
{{Infobox film
| name           = Brave Rabbit 2 Crazy Circus
| image          = Brave Rabbit 2 Crazy Circus poster.jpg
| alt            =
| caption        = 
| film name      = 
| director       = Zeng Xianlin
| producer       = 
| writer         = 
| screenplay     = 
| story          = 
| based on       =  
| starring       = 
| narrator       = 
| music          = 
| cinematography = 
| editing        = 
| studio         =       
| distributor    = 
| released       =  
| runtime        = 88 minutes
| country        = China
| language       = Mandarin
| budget         = 
| gross          = chinese yuan|¥18.28 million (China) 
}} Chinese animated adventure comedy film directed by Zeng Xianlin. It was released on January 1. 

==Voice cast==
*Xiaoliansha
*Dingdang
*Hao Xianghai
*Wang Xing
*Wang Qi
*Zhu Rongrong

==Reception==
By January 7, 2015, the film had earned chinese yuan|¥18.28 million at the Chinese box office. 

==References==
 

 
 
 
 
 
 
 
 
 


 
 
 
 