The Girl Dodger
{{Infobox film
| name           = The Girl Dodger
| image          = 
| alt            = 
| caption        =
| director       = Jerome Storm
| producer       = Thomas H. Ince
| screenplay     = J.G. Hawks Charles Ray Jack Nelson Leota Lorraine
| music          = 
| cinematography = Chester A. Lyons 	
| editor         =	
| studio         = Thomas H. Ince Corporation
| distributor    = Paramount Pictures
| released       =  
| runtime        = 50 minutes
| country        = United States
| language       = English
| budget         = 
| gross          =
}}
 comedy silent Charles Ray, Jack Nelson and Leota Lorraine. The film was released on February 23, 1919, by Paramount Pictures.  

==Plot==
 

==Cast== Charles Ray as Cuthbert Trotman
*Doris May as Anita Graham 
*Hallam Cooley as Harry Travistock Jack Nelson as Billy
*Leota Lorraine as Pinkie le Rue

== References ==
 

== External links ==
*  

 
 
 
 
 
 
 
 

 