Renuka Mahatme
{{Infobox film
| name           = Renuka Mahatme
| image          =
| caption        = 
| director       = Y. R. Swamy
| producer       = H M Reddy
| writer         = 
| screenplay     =  Narasimharaju
| music          = H R Padmanabha Shashtri
| cinematography = D L Narayana
| editing        = 
| studio         = 
| distrubutor    = 
| released       =  
| country        = India Kannada
}}
 1956 Cinema Indian Kannada Kannada film, Narasimharaju in lead roles. The film had musical score by H R Padmanabha Shashtri.   

==Cast==
*R. Nagendra Rao
*Pandari Bai Narasimharaju

==References==
 

==External links==
*  

 

 
 
 


 