Butterfly (2015 film)
 
{{Infobox film
| name           = Butterfly
| image          = 
| caption        = 
| director       = Marco Berger
| producer       = 
| writer         = Marco Berger
| starring       = Javier De Pietro
| music          = 
| cinematography = 
| editing        = 
| distributor    = 
| released       =  
| runtime        = 100 minutes
| country        = Argentina
| language       = Spanish
| budget         = 
}}

Butterfly ( ) is a 2015 Argentine drama film directed by Marco Berger. It was screened in the Panorama section of the 65th Berlin International Film Festival.   

==Cast==
* Javier De Pietro
* Ailín Salas
* Malena Villa
* Jorge Díez
* María Laura Cali
* Justo Calabria
* Julian Infantino

==References==
 

==External links==
*  

 
 
 
 
 
 
 
 
 
 
 
 