Parvaneh (film)
 
{{Infobox film
| name           = Parvaneh
| image          = 
| caption        = 
| director       = Talkhon Hamzavi
| producer       = 
| writer         = Talkhon Hamzavi
| narrator       = 
| starring       = Nissa Kashani
| music          = 
| cinematography =
| editing        = 
| studio         = 
| distributor    = 
| released       =  
| runtime        = 25 minutes
| country        = Switzerland
| language       = German
| budget         = 
}}
 short drama film directed by Talkhon Hamzavi. It was nominated for the Academy Award for Best Live Action Short Film at the 87th Academy Awards.   

==Cast==
* Brigitte Beyeler
* Cheryl Graf
* Nissa Kashani as Parvaneh
* Jana Pensa as Girl at a Party

==References==
 

==External links==
*  
*  

 
 
 
 
 
 
 
 
 
 