Savathiya Neralu
{{Infobox film
| name           = Savathiya Neralu
| image          =
| caption        = 
| director       = Y. R. Swamy
| producer       = S Suresh
| writer         = 
| screenplay     =  Manjula Ambareesh Leelavathi
| music          = Chellapilla Satyam
| cinematography = R Madhu
| editing        = 
| studio         = 
| distrubutor    = 
| released       =  
| country        = India Kannada
}}
 1979 Cinema Indian Kannada Kannada film, Leelavathi in lead roles. The film had musical score by Chellapilla Satyam.   

==Cast==
*Srinath Manjula
*Ambareesh Leelavathi
==References==
 

==External links==
*  

 

 
 
 
 

 