Tensai Bakavon: Yomigaeru Flanders no Inu
 

{{Infobox film
| name           = Tensai Bakavon ~Yomigaeru Flanders no Inu~ 
| image          = 
| alt            = 
| caption        = 
| film name      = 天才バカヴォン ～蘇るフランダースの犬～
| director       = FROGMAN
| producer       = 
| writer         =
| screenplay     = FROGMAN
| story          = 
| based on       = A Dog of Flanders and Tensai Bakabon
| starring       = 
| narrator       =  
| music          = 
| cinematography = 
| editing        = 
| production companies = Nippon Animation 
| distributor    =  
| released       =  
| runtime        = 
| country        = Japan
| language       = Japanese
| budget         = 
| gross          =  
}} Japanese animated family adventure film inspired by A Dog of Flanders and Tensai Bakabon. 



==References==
 

==External links==
*   
* 
* 


 
 
 
 
 
 
 
 