King of Hearts (1968 film)
{{Infobox film
| name           = King of Hearts 
| image          = King of Hearts (1968 film).jpg
| image_size     = 250
| caption        = 
| director       = Mohammad Ali Fardin
| producer       = Mehdi Misaghieh
| writer         = Mohammad Ali Fardin  
Habibolah Kasmaei
| music          = Anoushiravan Rohani (composer)   Aref Arefkia (singer) Yasamin
| distributor    =
| released       = 1968
| runtime        = 135 minutes
| country        =   Persian
| budget         = 
| preceded_by    = 
| followed_by    = 
}}
 drama film directed by Mohammad Ali Fardin and starring Azar Shiva, Victoria Nerssisian, Leila Forouhar and Mohammad Ali Fardin. 

==References==
 

 
 
 
 


 
 