Pioneer Heroes
 
{{Infobox film
| name           = Pioneer Heroes
| image          = 
| caption        = 
| director       = Natalia Kudryashova
| producer       = 
| writer         = Natalia Kudryashova
| starring       = Natalia Kudryashova
| music          = 
| cinematography = 
| editing        = 
| distributor    = 
| released       =  
| runtime        = 
| country        = Russia
| language       = Russian
| budget         = 
}}

Pioneer Heroes ( ) is a 2015 Russian drama film directed by Natalia Kudryashova. It was screened in the Panorama section of the 65th Berlin International Film Festival.   

==Cast==
* Natalia Kudryashova		
* Darya Moroz
* Alexei Mizin
* Varya Shablakova
* Sima Vybornova
* Nikita Yakovlev
* Yuri Kuznezov
* Aleksandr Userdin

==References==
 

==External links==
*  

 
 
 
 
 
 
 
 