The Fickle (1934 film)
 

{{Infobox film
| name           = The Fickle 
| image          =
| image_size     = 250
| caption        = 
| director       = Ebrahim Moradi
| producer       = Ahmad Gorji Ahmad Dehghan
| writer         = Ebrahim Moradi
| music          = 
| starring       = Mohammad Ali Ghotbi   Ahmad Dehghan   Ahmad Gorji   Qodsi Partowi   Touran Veisi 
| distributor    = 
| released       = 1934
| runtime        = 90 minutes
| country        =   Persian
| budget         = 
| preceded_by    = 
| followed_by    = 
}}
 romance drama drama film directed by Ebrahim Moradi and starring Mohammad Ali Ghotbi, Ahmad Dehghan, Ahmad Gorji , Qodsi Partowi and Touran Veisi. 

==References==
 

 
 
 
 
 


 
 