Italiano medio
{{Infobox film
| name           = Italiano medio
| image          =  
| caption        = 
| director       = Marcello Macchia
| producer       = Enrico Venti
| writer         = Marcello Macchia & Luigi Luciano
| starring       =   
| music          = Marcello Macchia
| cinematography = 
| editing        = 
| distributor    = Medusa Film & Lotus Production
| released       =  
| runtime        = 100 minutes
| country        = Italy
| language       = Italian
| budget         = 
| gross          = 
|}} Italian film directed by Marcello Macchia starring Marcello Macchia, Enrico Venti and Luigi Luciano. 

==References==
 

==External links==
*  

 
 
 
 
 


 