Tomorrow's Love
{{Infobox film
| name           = Tomorrows Love
| image          = 
| alt            = 
| caption        = 
| director       = Paul Bern
| producer       = Jesse L. Lasky Adolph Zukor
| screenplay     = Charles Brackett Howard Higgin Dale Fuller
| music          = 
| cinematography = Bert Glennon 
| editing        = 
| studio         = Famous Players-Lasky Corporation
| distributor    = Paramount Pictures
| released       =  
| runtime        = 60 minutes
| country        = United States
| language       = English
| budget         = 
| gross          =
}}
 comedy silent Dale Fuller. The film was released on January 5, 1925, by Paramount Pictures.  
 
==Plot==
 

== Cast ==
*Agnes Ayres as Judith Stanley
*Patrick H. OMalley, Jr. as Robert Stanley
*Raymond Hatton as Brown
*Jane Winton as Bess Carlysle
*Ruby Lafayette as Grandmother Dale Fuller as Maid

== References ==
 

== External links ==
*  
* 

 
 
 
 
 
 
 