Raja Vikrama
{{Infobox film
| name           = Raja Vikrama
| image          =
| caption        = 
| director       = Kemparaj Urs
| producer       = Kemparaj Urs
| writer         = 
| screenplay     = 
| starring       = Kemparaj Urs M V Rajamma B Jayamma M S Subbanna
| music          = R. Rajam
| cinematography = 
| editing        = 
| studio         = 
| distributor    = 
| released       =  
| country        = India Kannada
}}
 1951 Cinema Indian Kannada Kannada film, directed and produced by Kemparaj Urs. The film stars Kemparaj Urs, M V Rajamma, B Jayamma and M S Subbanna in lead roles. The film had musical score by R. Rajam.   

==Cast==
*Kemparaj Urs as king
*M. V. Rajamma
*B Jayamma
*M S Subbanna
*Pandari Bai

==References==
 

==External links==

 
 

 