The Wooden Leg
 
{{Infobox film
| name           = The Wooden Leg
| image          = 
| caption        = 
| director       = D. W. Griffith
| producer       = 
| writer         = D. W. Griffith David Miles
| music          = 
| cinematography = G. W. Bitzer Arthur Marvin
| editing        = 
| distributor    = 
| released       =  
| runtime        = 3 minutes (one Reel#Motion picture terminology|reel)
| country        = United States
| language       = Silent
| budget         = 
}}
 silent short short comedy film directed by D. W. Griffith.   

==Cast== David Miles as Harry
* Florence Lawrence as Claire
* John R. Cumpson as Father
* Arthur V. Johnson as Boyfriend
* Mack Sennett as Tramp

==References==
 

==External links==
*  

 

 
 
 
 
 
 
 
 
 
 