Be Together (film)
{{Infobox film
| name           = Be Together
| image          = Be Together film poster.jpg
| alt            = 
| caption        = 
| film name      = 我只要我们在一起 
| director       = Yan Fei 
| producer       =  
| writer         =  
| screenplay     = 
| story          = 
| based on       =  
| starring       = Kristy Yang Michael Tong Chi Shuai Zhou Lingnan
| narrator       =  
| music          = 
| cinematography = 
| editing        = 
| production companies = Yangzhou Lingnan Cultural Development Co.,Ltd Shanghai Shanxi Entertainment Co.,Ltd 浙江东阳燕南影视有限公司 Xingyue Yining（Beijing）Media Co.,Ltd
| distributor    = Shanghai Shanxi Entertainment Co.,Ltd 
| released       =  
| runtime        = 83 minutes
| country        = China
| language       = Mandarin
| budget         = 
| gross          =   
}}
Be Together ( ) is a 2015 Chinese romance film directed by Yan Fei. The film was released on February 13, 2015. 

==Cast==
*Kristy Yang
*Michael Tong
*Chi Shuai
*Zhou Lingnan

==Reception==
By February 16, the film had earned   at the Chinese box office. 

==References==
 

 
 
 


 
 