Charity Ann
{{Infobox film
| name           = Charity Ann
| image          =
| caption        =
| director       = Maurice Elvey
| producer       = 
| writer         = Chappell Dossett  Fred Groves   Chappell Dossett 
| music          = 
| cinematography = 
| editing        = 
| studio         = London Films
| distributor    = Jury Films
| released       = November 1915  
| runtime        = 
| country        = United Kingdom 
| awards         =
| language       = Silent   English intertitles
| budget         =
| preceded_by    =
| followed_by    =
}} silent drama Fred Groves and Chappell Dossett. 

==Cast==
*  Elisabeth Risdon as Ann Charity   Fred Groves as Graham Trevor 
* Chappell Dossett as Prof. Woolsey 
* Winifred Sadler

==References==
 

==Bibliography==
* Murphy, Robert. Directors in British and Irish Cinema: A Reference Companion. British Film Institute, 2006.

==External links==
*  

 

 
 
 
 
 
 
 
 

 