Aakrosh (1989 film)
  }}

 
 
{{Infobox film
| name           = Aakrosh
| image          =
| caption        =
| director       = Sujit Guha
| producer       =
| story          =
| screenplay     =
| writer         =
| starring       = Prosenjit Chatterjee Ranjit Mallick Debashree Roy Utpal Dutta 
| distributor    =
| editing        =
| cinematography =
| released       =  
| runtime        =
| studio         = Aman Enterprise
| country        = India Bengali
| music          = R. D. Burman
| lyrics         = Swapan Chakraborty Pulak Bandopadhyay
| awards         =
| budget         =
}}
 Bengali film directed by Sujit Guha.The film score was composed by R. D. Burman.

==Cast==
* Prosenjit Chatterjee
* Ranjit Mallick
* Debashree Roy
* Utpal Dutta
* Victor Banerjee

==See also==
 

==References==
 

==External links==
 

 
 
 


 