Paapi (2011 film)
 
{{Infobox film
| name           = Paapi
| image          =
| caption        =
| director       = Aziz Sejawal
| producer       = Sanjoy Ray
| story          =
| screenplay     =
| writer         =
| starring       = Prosenjit Chatterjee Sayantika Banerjee 
| distributor    =
| editing        =
| cinematography =
| released       =  
| runtime        =
| studio         = 
| country        = India Bengali
| music          = B. Subhayu Subhayu Bedajna
| lyrics         =
| awards         =
| budget         =
}}
 Bengali film directed by Aziz Sejawal and produced by Sanjoy Ray.

==See also==
 

==References==
 

==External links==
 

 
 
 


 