Atanka
{{Infobox film
| name           = Atanka
| image          =
| caption        =
| director       = Tapan Sinha
| producer       =
| story          =
| screenplay     =
| studio         = Charuchitra
| writer         =
| starring       = Prosenjit Chatterjee Satabdi Roy 
| distributor    =
| editing        =
| cinematography =
| released       =  
| runtime        =
| country        = India Bengali
| music          = Tapan Sinha
| lyrics         =
| awards         =
| budget         =
}}
 Bengali film directed by Tapan Sinha.The Film features Prosenjit Chatterjee & Satabdi Roy in lead roles.

==Cast==
* Prosenjit Chatterjee
* Satabdi Roy

==See also==
 

==References==
 

==External links==
* http://www.filmiclub.com/movie/atanka-1986-bengali-movie

 
 
 


 