Une Enfance
{{Infobox film
| name           = Une Enfance
| image          = 
| caption        = 
| director       = Philippe Claudel
| producer       = Margaret Ménégoz	
| writer         = Philippe Claudel
| starring       = Pierre Deladonchamps Angelica Sarre Patrick dAssumçao
| music          = 
| cinematography = Denis Lenoir
| editing        = 
| studio         = Les Films du Losange France 3 Cinéma
| distributor    = Les Films du Losange
| released       =   
| runtime        = 
| country        = France
| language       = French
| budget         = 
| gross          = 
}}

Une Enfance is an upcoming French drama film written and directed by Philippe Claudel.   

== Cast ==
* Pierre Deladonchamps 
* Patrick dAssumçao
* Angelica Sarre  
* Jules Gauzelin 	
* Alexi Mathieu

== Production ==
Filming took place from 9 June 2014 til 1 August. 

== References ==
 

== External links ==
*  

 

 
 
 
 
 
 

 