Khooni Katar
 
 
{{Infobox film
| name           = Khooni Katar 
| image          = 
| image size     =
| caption        = 
| director       = A. R. Kardar
| producer       = United Players Corporation
| writer         = 
| narrator       =
| starring       = Gul Hamid  Gulzar Hiralal M. Ismail
| music          = 
| cinematography = K. V. Machve
| editing        =
| studio         = Playart Phototone/United Players Corporation
| distributor    =
| released       =  
| runtime        = 
| country        = British India
| language       = Silent film
| budget         =
| preceded by    =
| followed by    =
}} 1931 Indian cinemas action adventure silent film directed by A. R. Kardar.       
The film was also called Sunheri Khanjar and the fifth film to be produced by Kardar for his United Pictures Corporation.     The film is famous for the debut of the actor-producer-director Nazir.    

The cast included Gul Hamid, Gulzar, M. Ismail, Hiralal, Ghulam Qadir and M. Zahoor.   

==Cast==
* Gul Hamid
* Gulzar
* M. Ismail
* Hiralal
* Ghulam Qadir
* M. Zahoor
* Ahmed Din

==References==
 

==External links==
* 

 

 
 
 
 
 
 
 


 
 