Pabitra Papi (1997 film)
 
 
{{Infobox film
| name           = Pabitra Papi
| image          = 
| image_size     =
| caption        = 
| director       = Anup Sengupta
| producer       = 
| writer         = 
| story          = 
| screenplay     = 
| starring       = Prosenjit Chatterjee Rituparna Sengupta Soumitra Chatterjee Abhishek Chatterjee Robi Ghosh Koushik Bandyopadhyay Anamika Saha 
| music          = Anupam Dutta
| distributor    =
| released       =  
| runtime        = 
| genere         = Drama
| studio         = Rainbow Movies
| country        = India Bengali
| budget         =
| gross          =
}}
 Bengali film directed by Anup Sengupta.The Film starring Prosenjit Chatterjee & Rituparna Sengupta in lead roles.

==Cast==
* Prosenjit Chatterjee as Bholanath/Bhola
* Rituparna Sengupta
* Soumitra Chatterjee as Rajib Choudhury
* Abhishek Chatterjee
* Robi Ghosh
* Koushik Bandyopadhyay
* Anamika Saha

==Soundtrack==
===Track listing===
{{Track listing
| collapsed       = 
| headline        = 
| extra_column    = Music
| total_length    = 10:87
| title1          = Tomay Dekhe Nesha Hoye Jay  
| extra1          = Anupam Dutta
| length1         = 4:01
| title2          = Mon Ta Amar Chatphat Kore  
| extra2          = Anupam Dutta
| length2         = 3:59
| title3          = Ami Tomay Bhalobasi  
| extra3          = Anupam Dutta
| length3         = 3:27
}}  

==References==
 

==External links==
*   at the Gomolo
*  
*  

 
 
 
 


 