A Rogue's Wife
{{Infobox film
| name           = A Rogues Wife
| image          =
| caption        =
| director       = Percy Nash
| producer       = 
| writer         =
| starring       = Gregory Scott   Daisy Cordell   Joan Ritz
| cinematography = 
| editing        = 
| studio         = Neptune Film Company 
| distributor    = Walturdaw 
| released       = November 1915 
| runtime        = 
| country        = United Kingdom 
| awards         =
| language       = Silent   English intertitles
| budget         =
| preceded_by    =
| followed_by    =
}}
A Rogues Wife is a 1915 British silent crime film directed by Percy Nash and starring Gregory Scott, Daisy Cordell and Joan Ritz. 

==Cast==
*  Gregory Scott    
* Daisy Cordell
* Joan Ritz   
* Frank Tennant  

==References==
 

==Bibliography==
* Palmer, Scott. British Film Actors Credits, 1895-1987. McFarland, 1988. 

==External links==
* 

 

 
 
 
 
 
 
 
 

 