Kaze ni Tatsu Lion
{{Infobox film
| name           = Kaze ni Tatsu Lion
| image          = 
| alt            = 
| caption        = 
| film name      = 風に立つライオン 
| director       = Takashi Miike
| producer       =  
| writer         =  
| screenplay     = 
| story          = 
| based on       =  
| starring       = 
| narrator       =  
| music          = 
| cinematography = 
| editing        = 
| studio         =  
| distributor    =  
| released       =  
| runtime        = 139 minutes
| country        = Japan
| language       = 
| budget         = 
| gross          =   (Japan) 
}}
  is a 2015 Japanese drama film directed by Takashi Miike. It was released on March 14, 2015. 

==Cast==
*Takao Osawa
*Satomi Ishihara
*Yōko Maki (actress)|Yōko Maki
*Masato Hagiwara
*Ryōhei Suzuki
*Ayako Fujitani
*Kumi Nakamura
*Hajime Yamazaki
*Renji Ishibashi

==Reception==
The film earned   on its opening weekend in Japan. 

==References==
 

==External links==
*   

 

 
 
 
 

 
 

 