Standing Tall (film)
 
{{Infobox film
| name           = Standing Tall
| image          = 
| caption        = 
| director       = Emmanuelle Bercot
| producer       = 
| writer         = Emmanuelle Bercot Marcia Romano
| starring       = Rod Paradot
| music          = 
| cinematography = 
| editing        = 
| distributor    = 
| released       =  
| runtime        = 120 minutes
| country        = France
| language       = French
| budget         = 
}}

Standing Tall ( ) is an upcoming French drama film directed by Emmanuelle Bercot. It has been selected to open the 2015 Cannes Film Festival.      

==Cast==
* Rod Paradot as Malony
* Catherine Deneuve as Juge Florence Blaque
* Sara Forestier as Séverine
* Benoît Magimel as Yann 

==References==
 

==External links==
*  

 

 
 
 
 
 
 
 
 
 