The Other Side (2015 film)
 
{{Infobox film
| name           = The Other Side
| image          = 
| caption        = 
| director       = Roberto Minervini
| producer       = Muriel Meynard Paolo Benzi Dario Zonta
| writer         = Roberto Minervini Denise Ping Lee
| starring       = 
| music          = 
| cinematography = Diego Romero Suarez-Llanos
| editing        = Marie-Hélène Dozo
| distributor    = 
| released       =  
| runtime        = 92 minutes
| country        = France Italy
| language       = English
| budget         = 
}}

The Other Side is an upcoming French-Italian drama film directed by Roberto Minervini. It has been selected to be screened in the Un Certain Regard section at the 2015 Cannes Film Festival.   

==References==
 

==External links==
* 

 
 
 
 
 
 
 
 
 