Putuler Pratishodh
 
 
{{Infobox film
| name           = Putuler Pratishodh
| image          =
| caption        =
| director       = Rabi Kinagi
| producer       = 
| studio         = Sri Maruti Films
| starring       = Siddhanta Mahapatra Rachana Banerjee Debu Bose Sumita
| released       =  
| runtime        = 117 min.
| country        = India
| genere         = Thriller Bengali
| music          = Amarendra Mohanty
| awards         =
| budget         =
}}
 Bengali film directed by Rabi Kinagi.The film features Siddhanta Mahapatra and Rachana Banerjee in lead roles.

==Cast==
* Siddhanta Mahapatra
* Rachana Banerjee
* Sumita
* Debu Bose 

==References==
 

==External links==
 
*   in Gomolo
*  
*  
*  
*  
*  
*  

 

 
 
 
 


 