A Few Days Later
{{Infobox film
| name           = A Few Days Later (Chand Rooz Bad)
| image          = AFewDaysLater2006Poster.jpg
| alt            =  
| caption        = Iran Poster
| director       = Niki Karimi
| producer       = Mohammad Reza Takhtkeshian
| writer         = Niki Karimi
| screenplay     = 
| story          = 
| based on       =  
| starring       = Behrang Alavi Ehsan Amani Ali-Reza Anoushfar Behzad Dorani
| music          = Peyman Yazdanian
| cinematography = Hossein Jafarian
| editing        = Sepideh Abdolvahab
| studio         = 
| distributor    = 
| released       = TBA
| runtime        = 
| country        = Iran
| language       = Persian with English subtitles
| budget         = 
| gross          = 
}}
 2006 Iran|Iranian motion picture by Niki Karimi.

The script for the movie won the Hubert Bals Fund of the Rotterdam Film Festival. 

==See also==
*Cinema of Iran

==References==
 

==External links==
* 
* 
* 

 
 
 
 
 
 
 
 