This Is the Sea (film)
{{Infobox Film
| name           = This Is the Sea
| image          =
| image_size     = 100px
| caption        = Promotional poster for This Is the Sea.
| director       = Mary McGuckian
| producer       = Michael Garland
| writer         = Mary McGuckian
| starring       = Samantha Morton  Ross McDade Gabriel Byrne Richard Harris Mike Scott Brian Kennedy
| cinematography = Des Whelan
| editing        = 
| distributor    = Paramount Pictures
| released       = 1997
| runtime        = 104 minutes
| country        = Ireland
| language       = English
| budget         = 
| gross          = $5,000 
| preceded_by    = 
| followed_by    = 
}}
 Republican movement.  The film also stars Richard Harris as Old Man Jacobs, an ally to the couple.
 Mike Scott, Brian Kennedy.

Des Whelan is credited as Director of Photography.

==External links==
* 
* 
*  at Hollywood.com
* 

==Notes and references==
 

 
 
 
 
 


 
 