The Boy from Mercury
{{Infobox film
| name           = The Boy from Mercury
| image          = 
| image_size     = 
| alt            = 
| caption        = 
| director       = Martin Duffy
| producer       = Marina Hughes
| writer         = Martin Duffy
| narrator       =  James Hickey
| music          = Stephen McKeon
| cinematography = Seamus Deasy
| editing        = John Victor-Smith
| studio         = Blue Dahlia Productions
| distributor    = 
| released       = 14 March 1996
| runtime        = 87 minutes
| country        = Ireland
| language       = English
}} Irish Film, Doctor Zhivago James Hickey.

The book of the making of the film, The Road to Mercury, written by the director, was released in 2006 by Ogma Press.

==External links==
* 

 
 
 
 