Anita Needs Me
{{Infobox film
| name           = Anita Needs Me
| image          = 
| alt            =  
| caption        = 
| director       = George Kuchar
| producer       = 
| writer         = 
| screenplay     = 
| story          = 
| starring       = James Brawly George Kuchar Stella Kuchar Maulis Pearson
| music          = 
| cinematography = 
| editing        = 
| studio         = 
| distributor    = 
| released       =  
| runtime        = 16 minutes
| country        = United States
| language       = 
| budget         = 
| gross          = 
}}

Anita Needs Me is a 1963 short film directed by George Kuchar and starring Maulis Pearson as Anita. It has a runtime of 16 minutes.

==External links==
*  



 
 