Pretty Boy Floyd (film)
{{Infobox film
| name           = Pretty Boy Floyd
| image          = PrettyBoyFloyd.jpg
| image size     = 
| alt            = 
| caption        = 
| director       = Herbert J. Leder
| producer       = Monroe Sachson
| writer         = Herbert J. Leder
| narrator       = 
| starring       = John Ericson Barry Newman Joan Harvey
| music          = William Sanford Del Sirino
| cinematography = Chuck Austin
| editing        = 
| studio         = 
| distributor    = 
| released       =  
| runtime        = 
| country        = 
| language       = 
| budget         = 
| gross          = 
| preceded by    = 
| followed by    = 
}} 1960 biographical Charles Arthur "Pretty Boy" Floyd. 
 John Ericson and the rest of the cast included Barry Newman, Joan Harvey, Carl York, Phil Kenneally and a young Peter Falk in a minor role.

==External links==
*  

 

 