Boy Meets Girl (1998 film)
{{Infobox Film
| name           = Boy Meets Girl
| image          = 
| image_size     = 
| caption        = 
| director       = Jerry Ciccoritti
| producer       = Stavros C. Stavrides
| writer         = Doug Bagot Timothy Lee
| narrator       = 
| starring       = Sean Astin Emily Hampshire Kevin McDonald Joe Mantegna Kate Nelligan
| music          = John McCarthy
| cinematography = David Perrault
| editing        = James Bredin
| studio         = ARTO-pelli Motion Pictures III Inc.
| distributor    = 
| released       = 1998
| runtime        = 99 minutes (Canada)/102 minutes (United States|USA) USA
| English
| budget         = 
| gross          = 
| preceded_by    = 
| followed_by    = 
}}
Boy Meets Girl is a 1998 romantic comedy fantasy film directed by Jerry Ciccoritti and starring Sean Astin and Emily Hampshire.

==Awards and nominations==
*  (John Dondertman and Patricia Cuccia)

==External links==
* 
* 

 
 
 
 
 
 
 