Rien que les heures
{{Infobox film
| name           = Rien que les heures
| image          =
| caption        =
| director       = Alberto Cavalcanti
| producer       =
| writer         =
| narrator       =
| starring       = Philippe Hériat Blanche Bernis Nina Chousvalowa Clifford McLaglen
| music          =
| cinematography =
| editing        =
| distributor    =
| released       =  
| runtime        = 45 min.
| country        = France French intertitles
| budget         =
}} 1926 experimental silent film by Brazilian director Alberto Cavalcanti showing the life of Paris through one day in 45 minutes. Cavalcanti made a similar film about Berlin the next year.
 Man With a Movie Camera (1929)

== See also ==
*List of films made in France 1919-1940

== External links ==
* 
* 

 
 
 
 
 
 
 


 
 