Garden of Heaven
{{Infobox film
| name           = Garden of Heaven
| image          = Garden of Heaven film poster.jpg
| film name = {{Film name
 | hangul         =  
 | hanja          = 하늘 
 | rr             = Haneul jeongwon
 | mr             = Hanŭl jŏngwŏn}}
| director       = Lee Dong-hyeon
| producer       = Kim Yong-beom Lee Seok-gi
| writer         = Lee Han Lee Ji-won
| starring       = Ahn Jae-wook Lee Eun-ju
| music          = 
| cinematography = Lee Seung-woo
| editing        = Park Gok-ji
| distributor    = Showbox
| released       =  
| runtime        = 95 minutes
| country        = South Korea
| language       = Korean
| budget         = 
}} 
Garden of Heaven is a 2003 South Korean film starring Ahn Jae-wook and Lee Eun-ju. 

== Plot == hospice facility, terminal stomach cancer. Despite having very little time together, the two start to develop feelings for each other.

== Cast ==
* Ahn Jae-wook ... Choi Oh-sung
* Lee Eun-ju ... Kim Young-ju
* Son Jong-beom ... Jeong Jeol
* Jeon Moo-song ... Choi
* Song Ok-sook ... Moon

==References==

 

== External links ==
*  
*  
*  

 
 
 
 
 


 
 