The Fighting Tailor
{{Infobox film
| name           = The Fighting Tailor
| image          =
| caption        =
| director       = Benjamin Stoloff
| producer       =
| writer         =
| narrator       = George Harris Barbara Luddy
| music          =
| cinematography =
| editing        =
| distributor    =
| released       =  
| runtime        =
| country        = United States English intertitles
| budget         =
}} comedy silent George Harris and Barbara Luddy.

==External links==
* 

 
 
 
 
 
 
 
 
 


 
 