The Shoemaker and the Doll
{{Infobox film
| name           = The Shoemaker and the Doll
| image          = 
| image_size     = 
| caption        = 
| director       = 
| producer       =
| writer         = Elizabeth Lonergan (Story)
| narrator       = 
| starring       = William Garwood
| music          = 
| cinematography = 
| editing        = 
| distributor    = Mutual Film
| released       = September 21, 1913
| runtime        = 
| country        = United States
| language       = Silent film English
}}
 silent short short drama film starring William Garwood.

==External links==
* 

 
 
 
 
 
 
 
 
 


 