For the Flag
 

{{Infobox film
| name           = For the Flag
| image          = 
| image_size     = 
| caption        = 
| director       = Lorimer Johnston
| producer       = Lorimer Johnson (Scenario)
| writer         = 
| narrator       =  Jack Richardson
| music          = 
| cinematography = 
| editing        = 
| distributor    = Mutual Film
| released       = August 25, 1913
| runtime        = 
| country        = United States
| language       = Silent film English intertitles
}}
 silent short short drama Jack Richardson, and Vivian Rich.

==External links==
* 

 
 
 
 
 
 
 


 