The Flirt and the Bandit
{{Infobox film
| name           = The Flirt and the Bandit
| image          = 
| image_size     = 
| caption        = 
| director       = 
| producer       = 
| writer         = 
| narrator       =  Ed Coxen George Field
| music          = 
| cinematography = 
| editing        = 
| distributor    = Mutual Film
| released       = September 29, 1913
| runtime        = 
| country        = United States
| language       = Silent film English intertitles
}}
 silent short short drama Ed Coxen, George Field, James Harrison and Chester Withey.

==External links==
* 

 
 
 
 
 
 
 
 
 


 