Made Men (film)
 Made man}}
{{Infobox film
| name           = Made Men
| image          = 
| caption        = 
| director       = Louis Morneau
| producer       = 
| writer         = Robert Franke, Alfred Gough, Miles Millar
| based on       = 
| starring       = James Belushi, Michael Beach, Timothy Dalton
| music          = 
| cinematography = George Mooradian 
| editing        = Glenn Garland
| studio         = 
| distributor    = 
| released       = June 11, 1999 (United States),  August 4, 1999 (United Kingdom)
| runtime        = 91 minutes
| country        = United States
| language       = English
| budget         = $6 million (est)
| gross          = 
}}

Made Men is a 1999 movie produced by HBO starring James Belushi, Michael Beach and Timothy Dalton. It combines elements of comedy with action and adventure.

==External links==
* 

 
 
 


 