The Third Round
{{Infobox film
| name           = The Third Round
| image          =
| alt            =
| caption        =
| director       = Sidney Morgan
| producer       =
| writer         = H. C. McNeile Sidney Morgan
| starring       = Jack Buchanan Betty Faire Juliette Compton Allan Jeayes
| cinematography =
| editing        =
| studio         =
| distributor    =
| released       =  
| runtime        =
| country        = United Kingdom
| language       =
| budget         =
| gross          =
}} novel of the same name by H. C. McNeile, and directed by Morgan. 

==References==
 

==External links==
*  
*  

 
 

 
 
 
 
 
 
 
 
 

 