A Little Madonna
{{Infobox film
| name           = A Little Madonna
| image          =
| caption        =
| director       = Ulysses Davis
| producer       =
| writer         = William Pigott
| narrator       = Charles Bennett
| music          =
| cinematography =
| editing        =
| distributor    = Vitagraph Company of America General Film Company
| released       = April 23, 1914
| runtime        = 1 reel (approximately 10 minutes) US
| English
| budget         =
| preceded by    =
| followed by    =
}} 1914 silent drama film, directed by Ulysses Davis.

==Cast==
* William Desmond Taylor
* Patricia Palmer	 Charles Bennett	
* Jane Novak		
* Loyola OConnor		
* Anne Schaefer

==External links==
* 

 
 
 
 
 
 
 
 
 


 