The Son of Thomas Gray
{{Infobox film
| name           = The Son of Thomas Gray
| image          = 
| image_size     = 
| caption        = 
| director       = Lorimer Johnston
| producer       = 
| writer         = 
| narrator       = 
| starring       = Sydney Ayres Jacques Jaccard Louise Lester
| music          = 
| cinematography = 
| editing        = 
| distributor    = Mutual Film
| released       = January 10, 1914
| runtime        = 
| country        = United States
| language       = Silent film English intertitles
}}
 silent short Jack Richardson, Harry Van Meter.

== References ==

 

==External links==
* 

 
 
 
 
 
 
 
 
 


 