Axis of Evil (film)
{{Infobox film
| name           = Laxe du mal
| image          = 
| caption        = 
| director       = Pascal Lièvre
| producer       = 
| writer         = Pascal Lièvre
| screenplay     = 
| story          = 
| based on       =  
| starring       = Nathalie Bujold Pascal Lièvre
| music          = 
| cinematography = Laurent Carton
| editing        = 
| studio         = 
| distributor    = 
| released       =  
| runtime        = 
| country        = Canada
| language       = French
| budget         = 
| gross          = 
}}
 
Axis of Evil ( ) is a 2004 France-Canada co-production by Pascal Lièvre about a couple declaring their love for each other with the same words United States President George W. Bush used to announce a war on terrorism. {{cite journal
| first =Etan
| last =Vlessing
| authorlink =
| coauthors =
|date=5 April 2004
| title =Hot Docs! puts focus on intl war, terror
| journal =The Hollywood Reporter
| volume =
| issue =
| pages =
| id =
| url =
}} 

==See also==
*Baghdad or Bust Control Room Kill the Messenger
*My Country, My Country
*War Feels Like War

==References==
 

==External links==
* 

 
 
 
 
 
 


 