Les Siens
{{Infobox Film
| name           = Les Siens
| image          = 
| image_size     = 
| caption        = 
| director       = Noël Mitrani
| producer       = 
| writer         = Noël Mitrani
| narrator       = 
| starring       = Philippe Nahon Stéphanie Postic Anie Balestra
| music          = 
| cinematography = Marc Romani
| editing        = Denis Parrot
| distributor    = France 3 2001
| runtime        = 16 minutes
| country        = France French 
| budget         = 300.000 francs-45.000 euros
| preceded_by    = 
| followed_by    = 
}}
Les Siens (2001) is a 16 minutes short film written and directed by Noël Mitrani, starring Philippe Nahon.

==Plot==
Who are these doubles who look strangely like the members of the same family? The product of Jeannes imagination without a doubt, a well-brought up girl, who is bored in her own circle and who dreams of happiness. 

==Festivals==
* 

==External links==
* 
* 

 
 
 
 
 