Peter Bell (film)
{{Infobox Film
| name           = Peter Bell
| image          = Film poster Pietje Bell.jpg
| caption        = Film poster
| director       = Maria Peters
| producer       = 
| writer         = Chris van Abkoude (novel) Maria Peters
| narrator       = 
| starring       = 
| music          = 
| cinematography = 
| editing        = 
| distributor    = 
| released       =  
| runtime        = 110 minutes
| country        = Netherlands Dutch
| budget         = 
}}
 Pietje Bell books of Chris van Abkoude, and directed by Maria Peters.

The film received a Golden Film (75,000 visitors) and a Platinum Film (200,000 visitors) in 2002. {{cite web
  | title = Awards for Pietje Bell
  | work = Internet Movie Database
  | url = http://www.imdb.com/title/tt0261175/awards
  | accessdate = 2007-01-07 }} 

==References==
 

==External links==
*   
* 

 
 
 
 
 
 
 


 
 