Amigos de la infancia
{{Infobox film
| name           = Amigos de la infancia
| image          =
| image size     =
| caption        =
| director       = Mariano Argento
| producer       =
| writer         =
| narrator       =
| starring       = Mariano Argento Fernando Armani    Joselo Bella
| music          =
| cinematography =
| editing        =
| distributor    =
| released       =  
| runtime        =
| country        = Argentina
| language       = Spanish
| budget         =
| preceded by    =
| followed by    =
}}

Amigos de la infancia (  directed and written by Mariano Argento.

==Cast==
*Mariano Argento
*Fernando Armani
*Joselo Bella
*María Fernanda Callejón
*Bachi Mazzotta
*Gabriel Molinelli
*Fabián Talín

==External links==
* 

 
 
 
 

 