Cervantes (film)
{{Infobox film
| name           = Cervantes
| image_size     =
| image          = Cervantes FilmPoster.jpeg
| caption        =
| director       = Vincent Sherman
| producer       =
| writer         = Enrico Bomba
| narrator       =
| starring       = Horst Buchholz Gina Lollobrigida José Ferrer Francisco Rabal Louis Jourdan Fernando Rey
| music          =
| cinematography =
| editing        =
| distributor    =
| released       = 1967
| runtime        =
| country        = Spain France Italy English
| budget         =
| preceded_by    =
| followed_by    =
}} Philip II.
Filming began in 1966 and the movie was released in several countries between 1967-1969.
Released in the U.S. as a B-movie, and retitled The Young Rebel, the film went nearly unnoticed at the box office and did not do well critically.

==External links==
* 

 

 
 
 
 
 
 
 
 
 

 