The Cowboy and the Lady (1911 film)
{{Infobox film
| name           = The Cowboy and the Lady
| image          = 
| image_size     = 
| caption        = 
| director       = 
| producer       = 
| writer         = 
| narrator       =  Alan Hale
| music          = 
| cinematography = 
| editing        = 
| distributor    = 
| released       =  
| runtime        = 
| country        = United States 
| language       = Silent films English intertitles
| budget         = 
| preceded_by    = 
| followed_by    = 
}} silent Western western film Alan Hale, Sr.s screen debut.

==External links==
*  

 
 
 
 
 
 
 


 