Rrugicat që kërkonin diell
 
{{Infobox film
| name           = Rrugicat që kërkonin diell
| image          = 
| image_size     =
| caption        = 
| director       = Saimir Kumbaro
| producer       = 
| writer         = Dhimitër Xhuvani
| narrator       = 
| starring       = Ndrek Luca		
| music          = Kujtim Laro
| cinematography = Ilia Terpini
| editing        = 
| distributor    = Albafilm-Tirana 1975
| runtime        = 160 minutes
| country        = Albania
| language       = Albanian
| budget         = 
| preceded_by    = 
| followed_by    = 
}} 1975 Albanian action drama film directed by Saimir Kumbaro and written by Dhimitër Xhuvani.

==Cast==
*Demir Hyskja
*Rikard Larja
*Ndrek Luca
*Pandi Raidhi
*Mevlan Shanaj

==External links==
*  

 
 
 
 
 
 
 


 
 

 