Mi Buenos Aires querido
 
{{Infobox film
| name           = Mi Buenos Aires querido
| image          = MiBuenosAiresquerido.jpg
| image_size     =
| caption        =
| director       = Julio Irigoyen
| producer       =
| writer         = Julio Irigoyen
| narrator       =
| starring       = Ada Cornaro
| music          =
| cinematography = Roberto Irigoyen
| editing        =
| distributor    = 1936
| runtime        =
| country        = Argentina
| language       = Spanish
| budget         =
| preceded_by    =
| followed_by    =
}} 1936  Argentine musical tango film.
 Mi Buenos Aires querido" with music by Carlos Gardel and lyrics by Alfredo Le Pera.

==Main cast==
*Ada Cornaro
*Totón Podestá
*Peter Warne
*Rodolfo Vismara

==External links==
* 

 
 
 
 
 
 
 
 
 
 
 
 

 
 