La Vuelta al nido
{{Infobox film
| name           =  La Vuelta al nido
| image          =
| image_size     =
| caption        =
| director       = Leopoldo Torres Rios
| producer       =
| writer         =
| narrator       =
| starring       =
| music          =
| cinematography =
| editing        =
| distributor    = 1938
| runtime        =
| country        = Argentina
| language       = Spanish
| budget         =
| preceded_by    =
| followed_by    =
}} Argentine drama film directed by Leopoldo Torres Rios. The film premiered in Buenos Aires and starred Amelia Bence.

==External links==
* 

 
 
 
 
 
 
 