Chimbela
{{Infobox film
| name           =  Chimbela
| image          =
| image_size     =
| caption        =
| director       = José A. Ferreyra
| producer       = José A. Ferreyra
| writer         =
| narrator       =
| starring       =
| music          =
| cinematography =
| editing        =
| distributor    = 1939
| runtime        = 69 minutes
| country        = Argentina
| language       = Spanish
| budget         =
| preceded_by    =
| followed_by    =
}} 1939  Argentine musical film drama directed by José A. Ferreyra. The film premiered in Buenos Aires and starred Floren Delbene and Armando Bo.

==External links==
* 

 
 
 
 
 
 
 


 
 