Dama de compañía
 

{{Infobox film
| name           =Dama de compañía
| image          =
| image_size     =
| caption        =
| director       =
| producer       =
| writer         =
| narrator       =
| starring       =
| music          =
| cinematography =
| editor       =
| distributor    =
| released       =  
| runtime        =
| country        = Argentina
| language       = Spanish
| budget         =
}}
 1940 Argentina|Argentine film.

==Cast==
 

==External links==
*  

 
 
 
 
 


 