Fragata Sarmiento (film)
{{Infobox film
| name           =Fragata Sarmiento
| image          =
| image_size     =
| caption        =
| director       =
| producer       =
| writer         =
| narrator       =
| starring       =
| music          =
| cinematography =
| editor       =
| distributor    =
| released       = 1940
| runtime        =
| country        = Argentina Spanish
| budget         =
}}
 1940 Argentina|Argentine film.

==Cast==
*Gloria Grey
 

== External links ==
*  

 
 
 
 
 

 