Hogar, dulce hogar
{{Infobox film
| name           =Hogar, dulce hogar
| image          = Hogar, dulce hogar.jpg
| image_size     =
| caption        =
| director       = Luis Moglia Barth
| producer       =
| writer         = Ladislas Fodor, Luis Moglia Barth
| narrator       =
| starring       =
| music          = 	
| cinematography =Antonio Merayo
| editing        = Oscar Carchano, Nicolás Proserpio
| distributor    =
| released       = 1941
| runtime        =
| country        = Argentina
| language       = Spanish
| budget         =
}} 1941  Argentine film written and directed by Luis Moglia Barth. 

==Cast==
*Olinda Bozán		
*Baby Correa		
*José De Angelis		
*Floren Delbene	
*María Esther Gamas		
*Fanny Navarro		
*José Otal		
*Raimundo Pastore		
*María Esther Podestá		
*Jorge Villoldo	... 	Lechero

==References==
 

==External links==
 

 

 
 
 
 
 

 