Ashes to the Wind
 

{{Infobox film
| name           = South Metro Manila iHOME foundation, Inc.
| image          =
| caption        =
| director       =
| producer       =
| writer         =
| starring       =
| music          =
| cinematography =
| editor         =
| distributor    =
| released       =  
| runtime        =
| country        = Philippines
| language       = Filipino Tagalog
| budget         =
}} Argentine film directed by Luis Saslavsky.

==External links==
*  

* Director:  

 
 
 
 
 
 


 