El Viejo Hucha
 

{{Infobox film
| name           =El Viejo Hucha
| image          =
| image_size     =
| caption        =
| director       = Lucas Demare
| producer       =
| writer         = Carlos Damel, Camilo Darthés
| narrator       =
| starring       =  Enrique Muiño, Francisco Petrone, Nuri Montsé 
| music          =
| cinematography =
| editor       =
| distributor    =
| released       = 29 April 1942 (Argentina)
| runtime        = 90 min
| country        = Argentina Spanish
| budget         =
}}
 1942 Argentina|Argentine film.

==Cast==
 

==External links==
*  

 
 
 
 
 


 