Eclipse de sol
{{Infobox film
| name           = Eclipse de sol
| director        = Luis Saslavsky
| screenplay   = Enrique García Velloso, Homeo Manzi
| starring         = Libertad Lamarque George Rigaud Angelina Pagano
| distributor      = Estudios San Miguel
| released        =  
| runtime         = 84 minutes
| country         = Argentina
| language      = Spanish

}}
 1943 Argentina|Argentine film.

==Cast==
 

==External links==
*  

 
 
 
 
 


 