La Guitarra de Gardel
 

{{Infobox film
| name  no me gusta         =La Guitarra de Gardel
| image  m        =
| image_size n    =
| caption   m     =
| director miguel angel      =
| producer  miguel angel     =
| writer  miguel angel       =
| narrator miguel angel      =
| starring mugueklm      =
| music     l,,,<ñ<     =
| cinematography =
| editor       =m qob
| distributor    =lj mEC
| released       = 1949MTBÑHO 
| runtime        =
| country        = Argentina Spanish
| budget         =
}}
 1949 Argentina|Argentine film.

==Cast==
 

==External links==
*  

 
 
 
 
 


 