An Almost Merry Widow
{{Infobox film
| name           =An Almost Merry Widow
| image          =Una Viuda casi alegre.jpg
| image_size     =
| caption        =
| director       =Román Viñoly Barreto
| producer       =
| writer         =José María Fernández Unsáin
| narrator       =
| starring       =
| music          =Bert Rosé  Antonio Prieto 	
| editing       =Gerardo Rinaldi
| distributor    =
| released       = 23 November 1950
| runtime        =
| country        = Argentina Spanish
| budget         =
}}
 1950 Argentina|Argentine film directed by Román Viñoly Barreto. 

==Cast==
*  Elina Colomer
*  Roberto Escalada
*  Carlos Thompson
*  Andrés Mejuto
*  Judith Sulián
*  Adolfo Linvel
*  Osvaldo Bruzzi
*  Gloria Ferrandiz
*  Hilda Rey Juan Carrera
*  Alberto Berco
*  Daniel Tedeschi

==References==
 

==External links==
*  

 

 
 
 
 
 
 

 