En cuerpo y alma
{{Infobox film
| name           =En cuerpo y alma
| image          =
| image_size     =
| caption        =
| director       =  Leopoldo Torres Ríos
| producer       = Armando Bo
| writer         =  Leopoldo Torres Ríos
| narrator       =
| starring       =  Héctor Armendáriz, Hugo Balado, Cristina Berys 
| music          = Alberto Gnecco, José Rodríguez Faure
| cinematography = Gumer Barreiros
| editor       =
| distributor    =
| released       = 1951
| runtime        = 75 min
| country        = Argentina Spanish
| budget         =
}}
 1951 Argentina|Argentine film.

==Cast==
* Héctor Armendáriz	 ...	Pedro Guzmán
* Hugo Balado		
* Cristina Berys	 ...	Elisa
* Armando Bo	 ...	Antonio Núñez
* Rolando Dumas	 ...	Andrés
* Oscar Furlong	 ...	Himself
* Enrique Giacovino		
* Omar Mendoza	 ...	Himself
* Eduardo Moyano		
* Alberto Orián		
* Jorge Pittaluga		
* Alberto Rinaldi		
* Washington Rivera		
* Virginia Romay	 ...	The mother
* Julia Sandoval	 ...	Margarita 

==External links==
*  

==References==
 

 
 
 
 
 


 