La melodía perdida
 

{{Infobox film
| name = La melodía perdida
| image = 
| image_size =
| caption =
| director =
| producer =
| writer =
| narrator =
| starring =
| music =
| cinematography =
| editor =
| distributor =
| released = 1952
| runtime =
| country = Argentina Spanish
| budget =
}}
 1952 Argentina|Argentine film.

==Cast==
 

==External links==
*  

 
 
 
 
 


 