The Hand in the Trap
{{Infobox film
| name           = The Hand in the Trap
| image          =
| image_size     =
| caption        =
| director       = Leopoldo Torre Nilsson
| producer       = Leopoldo Torre Nilsson
| writer         = Beatriz Guido
| narrator       =
| starring       = Elsa Daniel
| music          =
| cinematography = Juan Julio Baena
| editing        =
| distributor    =
| released       = 8 June, 1961
| runtime        = 91 minutes
| country        = Argentina
| language       = Spanish
| budget         =
| preceded_by    =
| followed_by    =
}}
 Argentine film FIPRESCI Prize.    

== Cast ==
*Elsa Daniel - Laura Lavigne
*Francisco Rabal - Cristóbal Achával
*Leonardo Favio - Miguel
*María Rosa Gallo - Inés Lavigne
*Berta Ortegosa - Lauras Mother
*Hilda Suárez - Lisa Lavigne
*Enrique Vilches - Postman

==References==
 

== External links ==
* 

 
 
 
 
 
 
 

 