Creo en ti
 
 
{{Infobox film
| name           =Creo en ti
| image          =
| image_size     =
| caption        =
| director       = Alfonso Corona Blake
| producer       =
| writer         =
| narrator       =
| starring       =
| music          =
| cinematography =
| editor       =
| distributor    =
| released       = 1960
| runtime        =
| country        = Argentina Spanish
| budget         =
}}
 1960 Argentina|Argentine film.

==Cast==
 

==External links==
*  

 
 
 
 
 
 

 