Dar la cara
{{Infobox film
| name           =Dar la cara
| image          =
| image_size     =
| caption        =
| director       =
| producer       =
| writer         =
| narrator       =
| starring       =
| music          =
| cinematography =
| editor       =
| distributor    =
| released       = 1962
| runtime        =
| country        = Argentina Spanish
| budget         =
}}
 1962 Argentina|Argentine film.

==Cast==
 

==External links==
*  

 
 
 
 
 

 