La Leona (film)
{{Infobox film
| name           =La Leona
| image          =La Leona 1964.jpg
| image_size     =
| caption        =
| director       =Armando Bo
| producer       =Armando Bo
| writer         =Armando Bo
| narrator       =
| starring       =
| music          =Elijio Ayala Morín, Armando Bo, Monsueto 	
| cinematography =Julio C. Lavera 
| editor       =Rosalino Caterbeti, Jorge Levillotti 
| distributor    =
| released       = 17 September 1964
| runtime        =93 minutes
| country        = Argentina Spanish
| budget         =
}}
  and Armando Bó]] 1964 Argentina|Argentine film directed by and starring Armando Bo with Isabel Sarli.    

==Cast==
*Isabel Sarli
*Armando Bo
*Santiago Gómez Cou
*Mónica Grey
*Monsueto
*Arnaldo Montel
*Gilberto Sierra
*Adalberto Silva

==References==
 

==External links==
 
*  

 
 
 
 
 
 

 