La Herencia
 

{{Infobox film
| name           = La Herencia
| image          =
| image_size     =
| caption        =
| director       = Ricardo Alventosa
| producer       =
| writer         = Ricardo Alventosa, Guy de Maupassant 
| narrator       =
| starring       =
| music          =
| cinematography =
| editor       =
| distributor    =
| released       = December 10, 1964
| runtime        = 78 min.
| country        = Argentina Spanish
| budget         =
}}

La Herencia is a 1964 Argentine film.

== Selected cast ==

* Juan Verdaguer
* Nathán Pinzón
* Ernesto Bianco
* Alberto Olmedo
* Silvio Soldán
* Marisa Grieben

==External links==
*  

 
 
 
 
 
 


 