Los Muchachos de antes no usaban gomina (1969 film)
{{Infobox film
| name           =Los Muchachos de antes no usaban gomina
| image          =
| image_size     =
| caption        =
| director       =
| producer       =
| writer         =
| narrator       =
| starring       =
| music          =
| cinematography =
| editor       =
| distributor    =
| released       = 1969
| runtime        =
| country        = Argentina Spanish
| budget         =
}}
 1969 Argentina|Argentine drama film. It is a remake of the 1937 film The Boys Didnt Wear Hair Gel Before, one of the biggest hits of the Golden Age of Argentine Cinema.

==Cast==
 

==External links==
*  

 
 
 
 
 
 


 
 