En una playa junto al mar
{{Infobox film
| name           =En una playa junto al mar
| image          =
| image_size     =
| caption        =
| director       =
| producer       =
| writer         =
| narrator       =
| starring       =
| music          =
| cinematography =
| editor       =
| distributor    =
| released       = 1971
| runtime        =
| country        = Argentina Spanish
| budget         =
}}
 1971 Argentina|Argentine film.

==Cast==
* Donald – Donald
* Evangelina Salazar – Donalds bride
* Joe Rigoli – Donalds friend and Donalds bride brother

==External links==
*  

 
 
 
 

 