La Fidelidad
 

{{Infobox film
| name           = La Fidelidad
| image          = LaFidelidad.jpg image_size      =
| caption        = Poster
| director       = Juan José Jusid
| producer       = 
| writer         = Juan José Jusid
| starring       = 
| music          = Edgard Kleinman
| cinematography = Arsenio Reinaldo Pica
| editing        = Miguel Pérez
| distributor    = 
| released       = 24 September 1970
| runtime        = 76 min.
| country        = Argentina
| awards         =  Spanish
| budget         = 
| preceded_by    = 
| followed_by    = 
}}
 1970  Argentine comedy film drama directed by  and written by Juan José Jusid.

==Cast==
*Carlos Estrada
*Elena Sedova
*Héctor Alterio
*Golde Flami
*Walter Soubrie
*Licia Solari
*Hilda Reija
*Javier Portales
*Luis Brandoni
*Roberto Carnaghi
*Adela Gleijer
*Carlos Lasarte
*Juan Manuel Tenuta

==External links==
* 

 
 
 
 
 


 
 