El Cabo Tijereta
 

{{Infobox film
| name           =El Cabo Tijereta
| image          =
| image_size     =
| caption        =
| director       =
| producer       =
| writer         =
| narrator       =
| starring       =
| music          =
| cinematography =
| editor       =
| distributor    =
| released       = 1973
| runtime        =
| country        = Argentina Spanish
| budget         =
}}
 1973 Argentina|Argentine film.

==Cast==
 

==External links==
*  

 
 
 
 


 